<svg xmlns:x="http://ns.adobe.com/Extensibility/1.0/" xmlns:i="http://ns.adobe.com/AdobeIllustrator/10.0/" xmlns:graph="http://ns.adobe.com/Graphs/1.0/" xmlns="http://www.w3.org/2000/svg" xmlns:xlink="http://www.w3.org/1999/xlink" xmlns:a="http://ns.adobe.com/AdobeSVGViewerExtensions/3.0/" version="1.1" width="29.998" height="29.998" enable-background="new 0 0 29.998 29.998" xml:space="preserve"><rect id="backgroundrect" width="100%" height="100%" x="0" y="0" fill="none" stroke="none"/>
<metadata>
	<sfw xmlns="http://ns.adobe.com/SaveForWeb/1.0/">
		<slices/>
		<sliceSourceBounds width="6564.467" height="4220.128" x="-4024.055" y="-2365.944" bottomLeftOrigin="true">
			</sliceSourceBounds>
	</sfw>
</metadata>

<g class="currentLayer" style=""><title>Layer 1</title><g id="svg_1" class="" fill-opacity="1" fill="#ef4e5b" stroke-opacity="1" stroke="#ef4e5b" stroke-width="0">
	<path fill="#ef4e5b" d="M23.697,12.092c-0.035-1.334-0.377-2.59-1.231-3.66c-0.081-0.014-0.159-0.029-0.24-0.043   c-0.019,0.035-0.04,0.068-0.059,0.102c0.019-0.033,0.04-0.066,0.059-0.102c-0.769-0.969-1.852-1.295-3.006-1.315   c-2.54-0.048-5.081-0.079-7.62,0.001c-2.604,0.082-4.327,1.805-4.409,4.41c-0.081,2.537-0.047,5.08-0.003,7.619   c0.021,1.156,0.349,2.236,1.318,3.008c0.014,0.08,0.027,0.16,0.041,0.24c0.934,0.674,1.947,1.092,3.123,1.166   c2.668,0.168,5.332,0.236,7.992-0.074c2.131-0.252,3.623-1.766,3.9-3.896C23.891,17.066,23.762,14.578,23.697,12.092    M22.164,18.412c-0.059,2.43-1.207,3.578-3.637,3.637c-2.09,0.051-4.18,0.037-6.27,0c-1.001-0.02-2.008-0.135-2.693-1.029   c-0.066-0.004-0.133-0.008-0.199-0.012c-0.5-0.781-0.764-1.643-0.77-2.568c-0.012-2.129-0.058-4.26,0.013-6.389   c0.077-2.369,1.189-3.48,3.558-3.559c2.129-0.07,4.262-0.025,6.392-0.014c0.923,0.006,1.782,0.27,2.566,0.771   c0.464-0.023,0.741-0.287,0.961-0.625c-0.22,0.338-0.497,0.602-0.961,0.625c0.003,0.066,0.007,0.133,0.012,0.199   c0.894,0.688,1.011,1.693,1.028,2.693C22.202,14.232,22.217,16.324,22.164,18.412" id="svg_2" stroke="#ef4e5b" stroke-width="0"/>
	<path fill="#ef4e5b" d="M18.35,12.295c-1.764-1.684-4.239-1.722-5.933-0.09c-1.724,1.666-1.726,4.229-0.003,6.029   c0.021-0.014,0.044-0.029,0.066-0.041c-0.022,0.012-0.045,0.027-0.066,0.041c0.009,0.084,0.029,0.168,0.057,0.25   c1.08,0.705,2.193,1.258,3.555,1.027c2.942-0.498,4.994-3.949,2.576-7.156C18.52,12.328,18.436,12.307,18.35,12.295 M12.686,18.059   c0.111-0.084,0.211-0.176,0.293-0.281C12.896,17.883,12.797,17.975,12.686,18.059 M17.292,17.273   c-0.974,0.928-2.249,0.977-3.552,0.139c-0.168-0.105-0.336-0.209-0.503-0.314c-0.845-1.701-0.771-2.855,0.249-3.822   c0.984-0.934,2.068-0.979,3.727-0.154c0.105,0.168,0.209,0.336,0.313,0.502C18.395,14.971,18.311,16.303,17.292,17.273" id="svg_3" stroke="#ef4e5b" stroke-width="0"/>
	<path fill="#ef4e5b" d="M19.275,10.035c-0.659,0.514-0.465,1.092-0.049,1.658c1.035,0.201,1.691-0.063,1.563-1.281   C20.356,9.996,19.914,9.539,19.275,10.035" id="svg_4" stroke="#ef4e5b" stroke-width="0"/>
	<path fill="#ef4e5b" d="M15.001,0C6.716,0,0,6.715,0,14.998c0,8.287,6.716,15,15.001,15c8.282,0,14.997-6.713,14.997-15   C29.998,6.715,23.283,0,15.001,0 M15.001,28.166c-7.272,0-13.167-5.895-13.167-13.168c0-7.27,5.895-13.166,13.167-13.166   c7.271,0,13.165,5.896,13.165,13.166C28.166,22.271,22.272,28.166,15.001,28.166" id="svg_5" stroke="#ef4e5b" stroke-width="0"/>
</g></g></svg>