<?xml version="1.0" encoding="utf-8"?>
<!-- Generator: Adobe Illustrator 22.1.0, SVG Export Plug-In . SVG Version: 6.00 Build 0)  -->
<svg version="1.1" id="Capa_1" xmlns="http://www.w3.org/2000/svg" xmlns:xlink="http://www.w3.org/1999/xlink" x="0px" y="0px"
	 viewBox="0 0 81 43.7" style="enable-background:new 0 0 81 43.7;" xml:space="preserve">
<style type="text/css">
	.st0{clip-path:url(#SVGID_2_);}
	.st1{fill:#909496;}
	.st2{fill:#FFFFFF;}
</style>
<g>
	<g>
		<g>
			<polygon class="st1" points="7.2,22.1 6.2,11 0,5.3 3.4,30.6 11,30.6 13.8,10.6 13.8,10.6 8.1,12.9 			"/>
			<polygon class="st1" points="21.7,19.9 26.9,19.9 26.9,15.2 21.7,15.2 21.7,10.2 27.1,10.2 27.1,5.4 27.1,5.3 16,9.7 16,9.7 
				16,30.6 27.5,30.6 27.5,25.7 21.7,25.7 			"/>
			<polygon class="st1" points="35.2,8.4 35.2,5.3 35.2,2.2 35.2,2.2 29.7,4.4 29.7,5.3 29.7,8.4 29.7,30.6 41,30.6 41,25.7 
				35.2,25.7 			"/>
			<polygon class="st1" points="47.4,22.1 46.3,11 40.2,5.3 43.6,30.6 51.2,30.6 53.9,10.6 53.9,10.6 48.3,12.9 			"/>
			<polygon class="st1" points="61.9,19.9 67.1,19.9 67.1,15.2 61.9,15.2 61.9,10.2 67.3,10.2 67.3,5.4 67.3,5.3 67.3,5.3 56.2,9.7 
				56.2,9.7 56.2,30.6 67.7,30.6 67.7,25.7 61.9,25.7 			"/>
			<polygon class="st1" points="68.8,4.8 68.8,5.3 68.8,7 68.8,10.2 72.1,9 72.1,30.6 77.7,30.6 77.7,9 81,10.2 81,7 81,5.3 81,0 
							"/>
		</g>
	</g>
	<g>
		<path class="st1" d="M9.8,43.7c-0.5,0-1-0.2-1.2-0.5c-0.3-0.3-0.4-0.8-0.5-1.4l0.8-0.2C9,42.5,9.3,43,9.8,43
			c0.2,0,0.4-0.1,0.5-0.2c0.1-0.1,0.2-0.3,0.2-0.6c0-0.1,0-0.3,0-0.4c0-0.1-0.1-0.2-0.2-0.3c-0.1-0.1-0.1-0.2-0.2-0.3
			C10,41.2,9.9,41.1,9.8,41l-1.1-1c-0.2-0.2-0.4-0.4-0.5-0.6c-0.1-0.2-0.1-0.5-0.1-0.8c0-0.5,0.1-0.8,0.4-1.1
			c0.3-0.3,0.6-0.4,1.1-0.4c0.5,0,0.9,0.1,1.2,0.4c0.3,0.3,0.4,0.7,0.5,1.3L10.5,39c0-0.1,0-0.3,0-0.4c0-0.1,0-0.2-0.1-0.3
			c0-0.1-0.1-0.2-0.2-0.3c-0.1-0.1-0.1-0.1-0.2-0.2c-0.1,0-0.2-0.1-0.3,0c-0.5,0-0.7,0.3-0.7,0.7c0,0.2,0,0.3,0.1,0.5
			c0.1,0.1,0.2,0.3,0.3,0.4l1.1,1c0.3,0.3,0.5,0.5,0.7,0.8c0.2,0.3,0.3,0.6,0.3,1c0,0.5-0.1,0.8-0.4,1.1
			C10.6,43.6,10.3,43.7,9.8,43.7z"/>
		<path class="st1" d="M14.7,43.7c-0.3,0-0.5,0-0.6-0.1c-0.2-0.1-0.3-0.2-0.4-0.3c-0.1-0.2-0.2-0.3-0.2-0.5c0-0.2-0.1-0.4-0.1-0.7
			v-1.3c0-0.3,0-0.5,0.1-0.7c0-0.2,0.1-0.4,0.2-0.5c0.1-0.2,0.2-0.3,0.4-0.3c0.2-0.1,0.4-0.1,0.6-0.1c0.5,0,0.8,0.1,1,0.4
			c0.2,0.3,0.3,0.7,0.3,1.3V42c0,0.6-0.1,1-0.3,1.3C15.5,43.6,15.2,43.7,14.7,43.7z M14.7,43.1c0.1,0,0.1,0,0.2,0
			c0.1,0,0.1-0.1,0.1-0.1c0-0.1,0.1-0.1,0.1-0.2c0-0.1,0-0.1,0-0.2c0-0.1,0-0.2,0-0.2c0-0.1,0-0.1,0-0.3v-1.4c0-0.1,0-0.2,0-0.2
			c0,0,0-0.1,0-0.2c0-0.1,0-0.2,0-0.2c0,0,0-0.1-0.1-0.2c0-0.1-0.1-0.1-0.1-0.1c0,0-0.1-0.1-0.1-0.1c-0.1,0-0.1,0-0.2,0
			c-0.1,0-0.1,0-0.2,0c-0.1,0-0.1,0-0.1,0.1c0,0-0.1,0.1-0.1,0.1c0,0.1,0,0.1-0.1,0.2c0,0,0,0.1,0,0.2c0,0.1,0,0.2,0,0.2
			c0,0,0,0.1,0,0.2v1.4c0,0.1,0,0.2,0,0.2c0,0,0,0.1,0,0.2c0,0.1,0,0.2,0,0.2c0,0,0,0.1,0.1,0.2c0,0.1,0.1,0.1,0.1,0.1
			c0,0,0.1,0.1,0.1,0.1C14.5,43.1,14.6,43.1,14.7,43.1z"/>
		<path class="st1" d="M19.5,43.7c-0.2,0-0.4,0-0.6-0.1c-0.2-0.1-0.3-0.1-0.4-0.2c-0.1-0.1-0.2-0.2-0.2-0.4
			c-0.1-0.2-0.1-0.3-0.1-0.5c0-0.2,0-0.4,0-0.6v-1.1c0-0.3,0-0.6,0.1-0.8c0-0.2,0.1-0.4,0.2-0.6c0.1-0.2,0.2-0.3,0.4-0.4
			C19,39,19.2,39,19.5,39c0.2,0,0.5,0,0.6,0.1c0.2,0.1,0.3,0.2,0.4,0.3c0.1,0.1,0.2,0.3,0.2,0.4c0,0.2,0.1,0.4,0.1,0.6v0.3H20v-0.3
			c0-0.3,0-0.5-0.1-0.6c-0.1-0.1-0.2-0.2-0.4-0.2c-0.2,0-0.3,0.1-0.4,0.2C19,40,19,40.2,19,40.6v1.4c0,0.4,0,0.7,0.1,0.8
			c0.1,0.1,0.2,0.2,0.4,0.2c0.1,0,0.2,0,0.2,0c0.1,0,0.1-0.1,0.1-0.1c0,0,0.1-0.1,0.1-0.2c0-0.1,0-0.1,0-0.2c0-0.1,0-0.2,0-0.3v-0.4
			h0.8v0.3c0,0.2,0,0.5-0.1,0.6c0,0.2-0.1,0.3-0.2,0.5c-0.1,0.1-0.2,0.2-0.4,0.3C19.9,43.7,19.7,43.7,19.5,43.7z"/>
		<path class="st1" d="M23,38.4v-0.9h0.9v0.9H23z M23,43.6V39h0.9v4.6H23z"/>
		<path class="st1" d="M27,43.7c-0.3,0-0.5-0.1-0.7-0.3c-0.2-0.2-0.3-0.5-0.3-0.7c0-0.2,0-0.4,0.1-0.6c0.1-0.2,0.1-0.3,0.2-0.4
			c0.1-0.1,0.2-0.2,0.4-0.3c0.2-0.1,0.4-0.2,0.5-0.3c0.1,0,0.3-0.1,0.6-0.2c0,0,0,0,0,0v-0.3c0-0.3,0-0.5-0.1-0.6
			c-0.1-0.1-0.2-0.2-0.4-0.2c-0.3,0-0.5,0.2-0.5,0.7v0.2l-0.8,0c0,0,0-0.1,0-0.2c0-0.5,0.2-0.8,0.4-1c0.2-0.2,0.6-0.3,1-0.3
			c0.4,0,0.8,0.1,1,0.4c0.2,0.2,0.3,0.6,0.3,1.1v2.1c0,0.3,0,0.7,0.1,1.1H28c-0.1-0.3-0.1-0.5-0.1-0.7c-0.1,0.2-0.2,0.4-0.3,0.5
			C27.4,43.6,27.2,43.7,27,43.7z M27.3,43c0.1,0,0.2,0,0.3-0.1c0.1-0.1,0.2-0.2,0.2-0.3v-1.3c-0.3,0.2-0.5,0.3-0.6,0.4
			c-0.2,0.2-0.4,0.4-0.4,0.7c0,0.2,0,0.3,0.1,0.4C27.1,42.9,27.2,43,27.3,43z"/>
		<path class="st1" d="M31.1,43.6v-6.4h0.9v6.4H31.1z"/>
		<path class="st1" d="M40.8,43.6v-6.4h0.6l1.8,4.3v-4.3H44v6.4h-0.6l-1.9-4.4v4.4H40.8z"/>
		<path class="st1" d="M47.6,43.7c-0.3,0-0.5,0-0.7-0.1c-0.2-0.1-0.3-0.2-0.4-0.4c-0.1-0.2-0.2-0.4-0.2-0.6c0-0.2-0.1-0.5-0.1-0.8
			v-1.1c0-0.3,0-0.6,0.1-0.8c0-0.2,0.1-0.4,0.2-0.6c0.1-0.2,0.2-0.3,0.4-0.4c0.2-0.1,0.4-0.1,0.7-0.1c0.2,0,0.3,0,0.4,0
			c0.1,0,0.2,0.1,0.3,0.1c0.1,0.1,0.2,0.1,0.2,0.2c0.1,0.1,0.1,0.2,0.2,0.3c0,0.1,0.1,0.2,0.1,0.4c0,0.1,0,0.3,0,0.4
			c0,0.1,0,0.3,0,0.5l0,0.4h-1.8V42c0,0,0,0,0,0.1c0,0.1,0,0.2,0,0.3c0,0.1,0,0.1,0,0.2c0,0.1,0,0.2,0,0.2c0,0,0,0.1,0.1,0.2
			c0,0.1,0.1,0.1,0.1,0.1c0.1,0,0.1,0,0.2,0c0.2,0,0.3-0.1,0.4-0.2c0.1-0.1,0.1-0.3,0.1-0.6V42h0.8v0.2
			C48.9,43.2,48.5,43.7,47.6,43.7z M47.1,40.9h1v-0.4c0-0.1,0-0.2,0-0.3c0-0.1,0-0.2,0-0.2c0-0.1,0-0.1-0.1-0.2c0,0-0.1-0.1-0.1-0.1
			c-0.1,0-0.1,0-0.2,0c-0.2,0-0.3,0.1-0.4,0.2c-0.1,0.1-0.1,0.4-0.1,0.8V40.9z"/>
		<path class="st1" d="M52.4,43.7c-0.3,0-0.6-0.1-0.8-0.3c-0.2-0.2-0.2-0.5-0.2-0.8v-3h-0.5V39h0.5v-1.3h0.9V39H53v0.6h-0.7v2.9
			c0,0.2,0,0.3,0.1,0.4c0.1,0.1,0.2,0.1,0.3,0.1c0.1,0,0.2,0,0.3,0v0.6C52.7,43.7,52.5,43.7,52.4,43.7z"/>
		<path class="st1" d="M55.6,43.6L54.8,39h0.7l0.5,3.4l0.6-3.4h0.6l0.6,3.4l0.5-3.4h0.7l-0.8,4.6h-0.7L57,40.4l-0.6,3.2H55.6z"/>
		<path class="st1" d="M62.4,43.7c-0.3,0-0.5,0-0.6-0.1c-0.2-0.1-0.3-0.2-0.4-0.3c-0.1-0.2-0.2-0.3-0.2-0.5c0-0.2-0.1-0.4-0.1-0.7
			v-1.3c0-0.3,0-0.5,0.1-0.7c0-0.2,0.1-0.4,0.2-0.5c0.1-0.2,0.2-0.3,0.4-0.3c0.2-0.1,0.4-0.1,0.6-0.1c0.5,0,0.8,0.1,1,0.4
			c0.2,0.3,0.3,0.7,0.3,1.3V42c0,0.6-0.1,1-0.3,1.3C63.2,43.6,62.9,43.7,62.4,43.7z M62.4,43.1c0.1,0,0.1,0,0.2,0
			c0.1,0,0.1-0.1,0.1-0.1c0-0.1,0.1-0.1,0.1-0.2c0-0.1,0-0.1,0-0.2c0-0.1,0-0.2,0-0.2c0-0.1,0-0.1,0-0.3v-1.4c0-0.1,0-0.2,0-0.2
			c0,0,0-0.1,0-0.2c0-0.1,0-0.2,0-0.2c0,0,0-0.1-0.1-0.2c0-0.1-0.1-0.1-0.1-0.1c0,0-0.1-0.1-0.1-0.1c-0.1,0-0.1,0-0.2,0
			c-0.1,0-0.1,0-0.2,0c-0.1,0-0.1,0-0.1,0.1c0,0-0.1,0.1-0.1,0.1c0,0.1,0,0.1-0.1,0.2c0,0,0,0.1,0,0.2c0,0.1,0,0.2,0,0.2
			c0,0,0,0.1,0,0.2v1.4c0,0.1,0,0.2,0,0.2c0,0,0,0.1,0,0.2c0,0.1,0,0.2,0,0.2c0,0,0,0.1,0.1,0.2c0,0.1,0.1,0.1,0.1,0.1
			c0,0,0.1,0.1,0.1,0.1C62.3,43.1,62.3,43.1,62.4,43.1z"/>
		<path class="st1" d="M66,43.6V39h0.9v0.7c0.2-0.3,0.3-0.4,0.5-0.6c0.2-0.1,0.3-0.2,0.5-0.2c0.1,0,0.1,0,0.1,0v0.9
			c-0.2-0.1-0.3-0.1-0.5-0.1c-0.1,0-0.3,0-0.4,0.1c-0.1,0.1-0.2,0.2-0.3,0.3v3.4H66z"/>
		<path class="st1" d="M69.9,43.6v-6.4h0.9V41l1.2-2l0.9,0l-1.1,1.8l1,2.8H72l-0.9-2.4l-0.4,0.6v1.8H69.9z"/>
	</g>
	<path class="st1" d="M6.2,41c0,0.7-0.6,1.3-1.3,1.3c-0.7,0-1.3-0.6-1.3-1.3c0-0.7,0.6-1.3,1.3-1.3C5.6,39.7,6.2,40.3,6.2,41z"/>
	<circle class="st1" cx="36.6" cy="41" r="1.3"/>
	<path class="st1" d="M77.1,41c0,0.7-0.6,1.3-1.3,1.3c-0.7,0-1.3-0.6-1.3-1.3c0-0.7,0.6-1.3,1.3-1.3C76.5,39.7,77.1,40.3,77.1,41z"
		/>
</g>
</svg>
