AWSTATS DATA FILE 7.6 (build 20161204)
# If you remove this file, all statistics for date 201805 will be lost/reset.
# Last config file used to build this data file was /home/neuracor/tmp/awstats/awstats.x.neuracorestudio.com.conf.

# Position (offset in bytes) in this file for beginning of each section for
# direct I/O access. If you made changes somewhere in this file, you should
# also remove completely the MAP section (AWStats will rewrite it at next
# update).
BEGIN_MAP 28
POS_GENERAL 2018                
POS_TIME 2691                
POS_VISITOR 6466                
POS_DAY 7406                
POS_DOMAIN 3316                
POS_LOGIN 3566                
POS_ROBOT 3721                
POS_WORMS 3956                
POS_EMAILSENDER 4087                
POS_EMAILRECEIVER 4230                
POS_SESSION 7808                
POS_SIDER 8008                
POS_FILETYPES 4365                
POS_DOWNLOADS 4602                
POS_OS 4650                
POS_BROWSER 4796                
POS_SCREENSIZE 5087                
POS_UNKNOWNREFERER 5161                
POS_UNKNOWNREFERERBROWSER 5283                
POS_ORIGIN 5400                
POS_SEREFERRALS 5535                
POS_PAGEREFS 5679                
POS_SEARCHWORDS 5827                
POS_KEYWORDS 5979                
POS_MISC 2354                
POS_ERRORS 6038                
POS_CLUSTER 3422                
POS_SIDER_404 6146                
END_MAP

# LastLine    = Date of last record processed - Last record line number in last log - Last record offset in last log - Last record signature value
# FirstTime   = Date of first visit for history file
# LastTime    = Date of last visit for history file
# LastUpdate  = Date of last update - Nb of parsed records - Nb of parsed old records - Nb of parsed new records - Nb of parsed corrupted - Nb of parsed dropped
# TotalVisits = Number of visits
# TotalUnique = Number of unique visitors
# MonthHostsKnown   = Number of hosts known
# MonthHostsUnKnown = Number of hosts unknown
BEGIN_GENERAL 8
LastLine 20180603074346 1 0 10855939719538
FirstTime 20180503002203
LastTime 20180527124031
LastUpdate 20180604073651 1 0 0 0 0
TotalVisits 30                  
TotalUnique 21                  
MonthHostsKnown 0                   
MonthHostsUnknown 22                  
END_GENERAL

# Misc ID - Pages - Hits - Bandwidth
BEGIN_MISC 10
FlashSupport 0 0 0
JavascriptDisabled 0 0 0
QuickTimeSupport 0 0 0
JavaEnabled 0 0 0
WindowsMediaPlayerSupport 0 0 0
RealPlayerSupport 0 0 0
TotalMisc 0 0 0
AddToFavourites 0 19 0
DirectorSupport 0 0 0
PDFSupport 0 0 0
END_MISC

# Hour - Pages - Hits - Bandwidth - Not viewed Pages - Not viewed Hits - Not viewed Bandwidth
BEGIN_TIME 24
0 4 37 6966072 0 1 23638
1 0 0 0 0 0 0
2 0 0 0 0 0 0
3 0 0 0 0 0 0
4 0 0 0 0 0 0
5 0 0 0 0 0 0
6 0 0 0 0 0 0
7 0 0 0 0 0 0
8 0 0 0 0 0 0
9 0 0 0 1 2 23638
10 2 9 4121820 0 1 23638
11 1 1 5206 0 1 23638
12 18 117 13978367 0 4 94552
13 8 103 49338463 0 2 47276
14 4 37 3977687 0 0 0
15 1 1 5206 0 1 23638
16 1 8 4116614 0 0 0
17 11 112 43654517 0 4 475904
18 0 0 0 0 0 0
19 5 20 19352004 0 1 23638
20 10 37 7502580 0 3 1870907
21 0 0 0 0 0 0
22 5 21 4623284 1 10 4163890
23 12 121 21136630 1 2 23880
END_TIME

# Domain - Pages - Hits - Bandwidth
# The 25 first Pages must be first (order not required for others)
BEGIN_DOMAIN 2
mx 48 389 136006034
us 34 235 42772416
END_DOMAIN

# Cluster ID - Pages - Hits - Bandwidth
BEGIN_CLUSTER 0
END_CLUSTER

# Login - Pages - Hits - Bandwidth - Last visit
# The 10 first Pages must be first (order not required for others)
BEGIN_LOGIN 0
END_LOGIN

# Robot ID - Hits - Bandwidth - Last visit - Hits on robots.txt
# The 25 first Hits must be first (order not required for others)
BEGIN_ROBOT 2
Google[\x20]Web[\x20]Preview 8 4116614 20180520224754 0
facebookexternalhit/ 1 404990 20180526173545 0
END_ROBOT

# Worm ID - Hits - Bandwidth - Last visit
# The 5 first Hits must be first (order not required for others)
BEGIN_WORMS 0
END_WORMS

# EMail - Hits - Bandwidth - Last visit
# The 20 first Hits must be first (order not required for others)
BEGIN_EMAILSENDER 0
END_EMAILSENDER

# EMail - Hits - Bandwidth - Last visit
# The 20 first hits must be first (order not required for others)
BEGIN_EMAILRECEIVER 0
END_EMAILRECEIVER

# Files type - Hits - Bandwidth - Bandwidth without compression - Bandwidth after compression
BEGIN_FILETYPES 9
svg 217 3895083 0 0
map 8 5299679 0 0
html 37 142355 0 0
woff2 37 698364 0 0
gif 28 17297976 0 0
css 4 298676 0 0
png 200 75839661 0 0
jpg 4 28288158 0 0
js 89 47018498 0 0
END_FILETYPES

# Downloads - Hits - Bandwidth
BEGIN_DOWNLOADS 0
END_DOWNLOADS

# OS ID - Hits
BEGIN_OS ID - Hits - Pages 6
Unknown 1 1
linuxandroid 226 25
win10 331 37
linux 8 8
ios_iphone 50 10
win7 8 1
END_OS

# Browser ID - Hits - Pages
BEGIN_BROWSER 11
chrome66.0.3359.126 158 16
chrome61.0.3163.100 1 1
chrome66.0.3359.170 99 11
chrome66.0.3359.158 68 9
chrome49.0.2623.75 8 8
chrome66.0.3359.139 101 9
chrome66.0.3359.117 84 8
safari 8 1
safari11.0 42 9
Unknown 1 1
chrome65.0.3325.181 54 9
END_BROWSER

# Screen size - Hits
BEGIN_SCREENSIZE 0
END_SCREENSIZE

# Unknown referer OS - Last visit date
BEGIN_UNKNOWNREFERER 1
WhatsApp/2.18.122_A 20180508124729
END_UNKNOWNREFERER

# Unknown referer Browser - Last visit date
BEGIN_UNKNOWNREFERERBROWSER 1
WhatsApp/2.18.122_A 20180508124729
END_UNKNOWNREFERERBROWSER

# Origin - Pages - Hits 
BEGIN_ORIGIN 6
From0 45 45
From1 0 0
From2 0 0
From3 0 0
From4 37 579
From5 0 0
END_ORIGIN

# Search engine referers ID - Pages - Hits
BEGIN_SEREFERRALS 0
END_SEREFERRALS

# External page referers - Pages - Hits
# The 25 first Pages must be first (order not required for others)
BEGIN_PAGEREFS 0
END_PAGEREFS

# Search keyphrases - Number of search
# The 10 first number of search must be first (order not required for others)
BEGIN_SEARCHWORDS 0
END_SEARCHWORDS

# Search keywords - Number of search
# The 25 first number of search must be first (order not required for others)
BEGIN_KEYWORDS 0
END_KEYWORDS

# Errors - Hits - Bandwidth
BEGIN_ERRORS 3
404 1 0
206 2 1847269
301 1 242
END_ERRORS

# URL with 404 errors - Hits - Last URL referrer
BEGIN_SIDER_404 1
/dist/ 1 -
END_SIDER_404

# Host - Pages - Hits - Bandwidth - Last visit date - [Start date of last visit] - [Last page of last visit]
# [Start date of last visit] and [Last page of last visit] are saved only if session is not finished
# The 25 first Hits must be first (order not required for others)
BEGIN_VISITOR 22
189.216.86.78 13 55 26848235 20180520200406
148.206.91.194 8 51 17528687 20180508133136
201.124.163.208 8 93 45776588 20180508125538
66.102.6.35 8 91 25078854 20180511140950
66.102.6.39 7 39 7041123 20180511140950
66.102.6.37 7 58 8385242 20180510221936
189.216.114.148 5 50 9316917 20180507173030
189.216.85.206 4 37 0 20180520135328
201.114.253.6 4 50 28297173 20180521174523
187.237.25.51 3 36 0 20180504121814
66.102.6.33 3 38 2228469 20180506233134
66.249.80.51 2 2 10412 20180526153103
66.249.80.49 2 2 10412 20180527124031
148.206.91.228 1 8 4116614 20180517161456
54.185.153.18 1 1 1143 20180503202552
66.249.83.154 1 1 5206 20180510112502
200.68.128.176 1 6 1257834 20180515102309
66.102.7.231 1 1 1143 20180508124910
66.249.80.47 1 1 5206 20180521171419
200.68.128.188 1 1 5206 20180508124729
66.249.80.19 1 1 5206 20180524101136
200.68.128.39 0 2 2858780 
END_VISITOR

# Date - Pages - Hits - Bandwidth - Visits
BEGIN_DAY 15
20180503 5 38 6967215 3
20180504 3 36 0 1
20180506 12 121 21136630 3
20180507 5 50 9316917 1
20180508 19 157 69346845 5
20180510 5 21 4623284 4
20180511 4 37 3977687 2
20180515 1 8 4116614 1
20180517 1 8 4116614 1
20180520 18 93 26853441 3
20180521 5 51 28302379 2
20180522 1 1 5206 1
20180524 1 1 5206 1
20180526 1 1 5206 1
20180527 1 1 5206 1
END_DAY

# Session range - Number of visits
BEGIN_SESSION 6
30mn-1h 1
2mn-5mn 2
0s-30s 24
5mn-15mn 1
15mn-30mn 1
30s-2mn 1
END_SESSION

# URL - Pages - Bandwidth - Entry - Exit
# The 25 first Pages must be first (order not required for others)
BEGIN_SIDER 14
/ 26 86091 20 14
/Dual300.fa1f533e28154a51bad1.woff2 13 276480 3 3
/ZonaPro.5d60d19e28f07198f226.woff2 12 212220 2 2
/ZonaProSemiBold.7a7393232f9b94ddea50.woff2 12 209664 2 7
/dist/ 9 41648 3 2
/HermesFood/ 2 14616 0 1
/inline.bundle.js.map 1 5911 0 0
/vendor.bundle.js.map 1 3491523 0 1
/main.bundle.js.map 1 129326 0 0
/HermesFood/vendor/bootstrap/css/bootstrap.min.css.map 1 551641 0 0
/styles.bundle.js.map 1 229167 0 0
/polyfills.bundle.js.map 1 238585 0 0
/HermesFood/vendor/bootstrap/js/bootstrap.bundle.min.js.map 1 273872 0 0
/scripts.bundle.js.map 1 379654 0 0
END_SIDER
