AWSTATS DATA FILE 7.4 (build 20140726)
# If you remove this file, all statistics for date 201509 will be lost/reset.
# Last config file used to build this data file was /home/neuracor/tmp/awstats/awstats.neuracorestudio.com.conf.

# Position (offset in bytes) in this file for beginning of each section for
# direct I/O access. If you made changes somewhere in this file, you should
# also remove completely the MAP section (AWStats will rewrite it at next
# update).
BEGIN_MAP 28
POS_GENERAL 2016                
POS_TIME 2681                
POS_VISITOR 10400               
POS_DAY 15205               
POS_DOMAIN 3396                
POS_LOGIN 4027                
POS_ROBOT 4182                
POS_WORMS 4605                
POS_EMAILSENDER 4736                
POS_EMAILRECEIVER 4879                
POS_SESSION 15934               
POS_SIDER 16092               
POS_FILETYPES 5014                
POS_DOWNLOADS 5194                
POS_OS 5242                
POS_BROWSER 5482                
POS_SCREENSIZE 6285                
POS_UNKNOWNREFERER 6359                
POS_UNKNOWNREFERERBROWSER 6899                
POS_ORIGIN 7307                
POS_SEREFERRALS 7444                
POS_PAGEREFS 7599                
POS_SEARCHWORDS 8302                
POS_KEYWORDS 8454                
POS_MISC 2345                
POS_ERRORS 8513                
POS_CLUSTER 3883                
POS_SIDER_404 8612                
END_MAP

# LastLine    = Date of last record processed - Last record line number in last log - Last record offset in last log - Last record signature value
# FirstTime   = Date of first visit for history file
# LastTime    = Date of last visit for history file
# LastUpdate  = Date of last update - Nb of parsed records - Nb of parsed old records - Nb of parsed new records - Nb of parsed corrupted - Nb of parsed dropped
# TotalVisits = Number of visits
# TotalUnique = Number of unique visitors
# MonthHostsKnown   = Number of hosts known
# MonthHostsUnKnown = Number of hosts unknown
BEGIN_GENERAL 8
LastLine 20151001005756 57 13295 9030120633275
FirstTime 0
LastTime 20150930175848
LastUpdate 20151001071352 57 0 56 0 0
TotalVisits 122                 
TotalUnique 116                 
MonthHostsKnown 0                   
MonthHostsUnknown 119                 
END_GENERAL

# Misc ID - Pages - Hits - Bandwidth
BEGIN_MISC 10
QuickTimeSupport 0 0 0
JavaEnabled 0 0 0
JavascriptDisabled 0 0 0
PDFSupport 0 0 0
WindowsMediaPlayerSupport 0 0 0
AddToFavourites 0 0 0
RealPlayerSupport 0 0 0
TotalMisc 0 0 0
DirectorSupport 0 0 0
FlashSupport 0 0 0
END_MISC

# Hour - Pages - Hits - Bandwidth - Not viewed Pages - Not viewed Hits - Not viewed Bandwidth
BEGIN_TIME 24
0 5 34 452192 5 13 42752
1 3 3 17130 2 2 11420
2 5 39 463236 1 5 14593
3 4 55 713866 1 2 5710
4 3 3 17130 2 5 5710
5 4 38 483524 0 9 0
6 2 36 472104 2 8 48462
7 4 4 22840 6 10 14593
8 10 158 2046872 2 4 0
9 1 18 236052 1 1 5710
10 5 73 949918 4 28 282787
11 6 86 1102664 0 4 0
12 8 96 1206273 1 8 26967
13 10 95 1162546 2 21 94700
14 4 66 845248 0 3 15654
15 10 112 1439152 3 8 11420
16 7 104 1354661 2 9 20303
17 7 115 1472647 3 27 215049
18 5 39 489234 0 2 18707
19 3 51 677314 3 50 559016
20 4 55 713866 1 1 5710
21 6 63 788560 8 12 20221
22 3 37 477814 0 2 0
23 6 26 267775 1 5 19293
END_TIME

# Domain - Pages - Hits - Bandwidth
# The 25 first Pages must be first (order not required for others)
BEGIN_DOMAIN 29
br 29 496 6431818
us 25 84 904006
mx 19 337 4401682
fr 10 44 517784
it 6 57 725286
in 4 52 643299
es 3 54 708156
il 2 17 213603
jp 2 2 11420
ru 2 2 5710
ch 2 19 241762
id 2 36 472104
zz 2 2 11420
ar 2 36 472104
ua 1 1 5710
pt 1 18 236052
tr 1 18 236052
ph 1 13 152746
my 1 1 5710
gb 1 1 5710
sa 1 18 236052
co 1 6 42752
pk 1 18 236052
bo 1 18 236052
za 1 18 236052
mk 1 18 236052
se 1 1 5710
lu 1 1 5710
ve 1 18 236052
END_DOMAIN

# Cluster ID - Pages - Hits - Bandwidth
BEGIN_CLUSTER 0
END_CLUSTER

# Login - Pages - Hits - Bandwidth - Last visit
# The 10 first Pages must be first (order not required for others)
BEGIN_LOGIN 0
END_LOGIN

# Robot ID - Hits - Bandwidth - Last visit - Hits on robots.txt
# The 25 first Hits must be first (order not required for others)
BEGIN_ROBOT 8
php 40 584469 20150923173530 0
googlebot 32 166716 20150925022551 0
googlebot\-image 12 0 20150920054324 0
bot[\s_+:,\.\;\/\\-] 11 85813 20150925040001 0
[\s_+:,\.\;\/\\-]bot 5 85171 20150910144838 0
robot 5 28550 20150929095706 0
slurp 1 0 20150912212519 0
netcraft 1 5710 20150908103625 0
END_ROBOT

# Worm ID - Hits - Bandwidth - Last visit
# The 5 first Hits must be first (order not required for others)
BEGIN_WORMS 0
END_WORMS

# EMail - Hits - Bandwidth - Last visit
# The 20 first Hits must be first (order not required for others)
BEGIN_EMAILSENDER 0
END_EMAILSENDER

# EMail - Hits - Bandwidth - Last visit
# The 20 first hits must be first (order not required for others)
BEGIN_EMAILRECEIVER 0
END_EMAILRECEIVER

# Files type - Hits - Bandwidth - Bandwidth without compression - Bandwidth after compression
BEGIN_FILETYPES 6
css 243 719523 0 0
png 293 4544726 0 0
html 125 708040 0 0
jpg 515 8781554 0 0
js 154 2168243 0 0
gif 76 950532 0 0
END_FILETYPES

# Downloads - Hits - Bandwidth
BEGIN_DOWNLOADS 0
END_DOWNLOADS

# OS ID - Hits
BEGIN_OS ID - Hits - Pages 14
winlong 2 1
winxp 5 5
ios_iphone 91 6
winnt 18 1
linuxubuntu 2 1
linux 15 15
win7 1080 71
macosx 55 4
win2003 8 2
macosx9 3 0
win8 56 4
win8.1 21 2
Unknown 48 12
macosx8 2 1
END_OS

# Browser ID - Hits - Pages
BEGIN_BROWSER 41
chrome13.0.764.0 1 1
firefox28.0 1 1
msie6.0 4 4
chrome45.0.2454.85 127 8
firefox20.0 1 1
firefox26.0 4 0
chrome31.0.1650.57 1 0
chrome31.0.1650.63 1 0
iphone 18 1
msie8.0 1 1
chrome26.0.1410.65 1 1
chrome45.0.2454.93 36 2
msie7.0 8 2
firefox23.0 5 5
chrome37.0.2062.120 7 7
safari8.0 37 3
firefox27.0 3 2
Unknown 7 5
chrome32.0.1700.68 1 0
opera12.16 1 0
firefox40.0 1 1
firefox29.0 1 0
firefox3.6.4 1 1
chrome43.0.2357.132 18 1
chrome32.0.1700.107 108 6
chrome44.0.2403.107 2 2
msie11.0 2 0
chrome36.0.1985.143 851 52
firefox33.0 36 2
mozilla 5 5
chrome45.0.2454.101 36 2
firefox25.0 1 0
firefox1.0 1 1
chrome35.0.1916.153 18 1
chrome42.0.2311.135 18 1
firefox14.0.1 2 2
chrome25.0.1364.172 1 1
msie10.0 1 0
safari6.1 1 0
firefox36.0 1 1
safari 36 2
END_BROWSER

# Screen size - Hits
BEGIN_SCREENSIZE 0
END_SCREENSIZE

# Unknown referer OS - Last visit date
BEGIN_UNKNOWNREFERER 8
visionutils/0.2 20150915193803
()_{_:;_};_echo_Content-type:text/plain;echo;echo;echo_M`expr_1330___7`H;id;echo_@ 20150914043916
Ruby 20150926074748
WWW-Mechanize/1.74 20150904074701
Mozilla/4.0_(compatible;_Synapse) 20150914230047
Mozilla/5.0_(Android;_Mobile;_rv:33.0)_Gecko/33.0_Firefox/33.0 20150926164904
WWW-Mechanize/1.73 20150910150105
()_{_:;_};_echo_Content-type:text/plain;echo;echo;echo_M`expr_1330___7`H;/bin/uname_-a;echo_@ 20150912020259
END_UNKNOWNREFERER

# Unknown referer Browser - Last visit date
BEGIN_UNKNOWNREFERERBROWSER 6
WWW-Mechanize/1.74 20150904074701
visionutils/0.2 20150915193803
()_{_:;_};_echo_Content-type:text/plain;echo;echo;echo_M`expr_1330___7`H;id;echo_@ 20150914043916
Ruby 20150926074748
()_{_:;_};_echo_Content-type:text/plain;echo;echo;echo_M`expr_1330___7`H;/bin/uname_-a;echo_@ 20150912020259
WWW-Mechanize/1.73 20150910150105
END_UNKNOWNREFERERBROWSER

# Origin - Pages - Hits 
BEGIN_ORIGIN 6
From0 40 60
From1 2 2
From2 3 3
From3 80 80
From4 0 1261
From5 0 0
END_ORIGIN

# Search engine referers ID - Pages - Hits
BEGIN_SEREFERRALS 1
google 3 3
END_SEREFERRALS

# External page referers - Pages - Hits
# The 25 first Pages must be first (order not required for others)
BEGIN_PAGEREFS 17
http://success-seo.com/try.php 39 39
http://buttons-for-website.com 15 15
http://best-seo-report.com 5 5
http://video--production.com 4 4
https://www.facebook.com 3 3
http://neuracore.wix.com/studio 2 2
http://burger-imperia.com 2 2
https://www.youtube-nocookie.com/embed/X9G5hrFr5mo 1 1
http://neuracore.wix.com/studioes 1 1
http://pizza-imperia.com 1 1
http://pizza-tycoon.com 1 1
http://hvd-store.com 1 1
http://pizza-imperia.com 1 1
http://justprofit.xyz 1 1
http://hundejo.com 1 1
http://MATTHEWWROBINSON.COM 1 1
http://www.pikore.com/neuracore 1 1
END_PAGEREFS

# Search keyphrases - Number of search
# The 10 first number of search must be first (order not required for others)
BEGIN_SEARCHWORDS 0
END_SEARCHWORDS

# Search keywords - Number of search
# The 25 first number of search must be first (order not required for others)
BEGIN_KEYWORDS 0
END_KEYWORDS

# Errors - Hits - Bandwidth
BEGIN_ERRORS 2
206 56 482348
404 56 0
END_ERRORS

# URL with 404 errors - Hits - Last URL referrer
BEGIN_SIDER_404 20
/robots.txt 31 -
/spaw2/dialogs/dialog.php 1 http://neuracorestudio.com/spaw2/dialogs/dialog.php
/id.txt 4 -
/admin.php 1 -
/magmi/web/magmi.php 1 -
/administrator/index.php 1 -
/include/fckeditor/editor/filemanager/browser/default/connectors/test.html 1 http://neuracorestudio.com/include/fckeditor/editor/filemanager/browser/default/connectors/test.html
/wp-admin/ 1 -
/administrator/ 1 -
/editor/filemanager/browser/default/connectors/test.html 1 http://neuracorestudio.com/editor/filemanager/browser/default/connectors/test.html
/manage/fckeditor/editor/filemanager/browser/default/connectors/test.html 1 http://neuracorestudio.com/manage/fckeditor/editor/filemanager/browser/default/connectors/test.html
/a 1 -
/blog 1 http://NEURACORESTUDIO.COM/blog
/xmlrpc.php 4 -
/cms/fckeditor/editor/filemanager/browser/default/connectors/test.html 1 http://neuracorestudio.com/cms/fckeditor/editor/filemanager/browser/default/connectors/test.html
/wp-login.php 1 -
/admin/fckeditor/editor/filemanager/browser/default/connectors/test.html 1 http://neuracorestudio.com/admin/fckeditor/editor/filemanager/browser/default/connectors/test.html
/fckeditor/editor/filemanager/browser/default/connectors/test.html 1 http://neuracorestudio.com/fckeditor/editor/filemanager/browser/default/connectors/test.html
/apple-app-site-association 1 -
/fck/editor/filemanager/browser/default/connectors/test.html 1 http://neuracorestudio.com/fck/editor/filemanager/browser/default/connectors/test.html
END_SIDER_404

# Host - Pages - Hits - Bandwidth - Last visit date - [Start date of last visit] - [Last page of last visit]
# [Start date of last visit] and [Last page of last visit] are saved only if session is not finished
# The 25 first Hits must be first (order not required for others)
BEGIN_VISITOR 119
195.154.146.225 4 4 22840 20150916104426
148.240.62.192 2 36 472104 20150930150014
176.31.51.199 2 2 11420 20150930121924
130.211.119.117 2 2 11420 20150926074748
69.58.178.59 2 2 11420 20150908133737
201.141.31.11 2 36 472104 20150918123503
177.234.1.146 2 36 472104 20150909134018
201.141.245.231 1 18 236052 20150920120035
70.194.33.116 1 18 236052 20150903142328
200.68.128.12 1 18 236052 20150914162133
187.70.46.62 1 7 56335 20150910171205
38.100.21.172 1 4 14593 20150916121707
2.89.210.55 1 18 236052 20150912120134
209.90.32.14 1 18 236052 20150922082401
157.7.188.97 1 1 5710 20150922002501
186.210.86.168 1 13 152746 20150921132212
62.219.8.233 1 1 5710 20150929205346
187.59.19.218 1 18 236052 20150923214404
38.100.21.68 1 4 14593 20150907021507
172.245.117.21 1 1 5710 20150914012104
37.59.113.208 1 1 5710 20150912020259
187.233.46.91 1 18 236052 20150929232741
84.79.84.251 1 18 236052 20150906170832
52.0.89.236 1 1 5710 20150922154350
190.171.222.102 1 18 236052 20150917153234
177.221.3.155 1 18 236052 20150903170342
107.173.146.31 1 1 5710 20150914182414
79.22.46.7 1 18 236052 20150904105150
187.101.128.201 1 18 236052 20150930175848
191.179.240.76 1 18 236052 20150927132144
52.88.249.137 1 1 5710 20150910150105
77.109.141.138 1 1 5710 20150907213634
82.80.230.228 0 12 193300 
198.178.124.47 1 1 5710 20150923080939
94.242.246.24 1 1 5710 20150929235635
54.166.29.211 1 1 5710 20150907015801
201.7.218.22 1 18 236052 20150908111720
52.69.141.253 1 1 5710 20150910011543
193.201.227.74 1 1 5710 20150928150240
107.173.152.198 1 1 5710 20150914230047
112.210.31.33 1 13 152746 20150904195121
59.92.148.233 1 15 201171 20150907022841
189.203.174.42 1 18 236052 20150904101636
50.16.139.150 1 1 5710 20150901112014
45.32.244.164 1 1 5710 20150914152606
5.45.65.93 1 1 0 20150914231444
116.203.75.246 1 7 68984 20150923214656
176.127.57.158 1 18 236052 20150922164131
187.35.96.66 1 18 236052 20150902085246
187.27.73.44 1 18 236052 20150924113347
171.25.193.131 1 1 5710 20150927180352
177.107.218.200 1 15 191067 20150906161000
131.72.96.4 1 18 236052 20150913085712
200.66.123.128 1 13 152746 20150918081740
191.223.79.172 1 18 236052 20150916083618
189.217.145.32 1 18 236052 20150926164904
138.97.134.17 1 18 236052 20150921133451
82.80.249.156 1 4 14593 20150929235553
103.6.196.238 1 1 5710 20150922002514
173.252.115.84 0 1 26232 
179.98.234.101 1 18 236052 20150908060530
95.95.122.75 1 18 236052 20150915150711
201.80.120.9 1 18 236052 20150910200600
177.139.207.67 1 18 236052 20150901100250
107.173.153.165 1 1 5710 20150914075647
187.112.159.31 1 18 236052 20150905113412
39.45.19.52 1 18 236052 20150906022448
180.242.27.107 1 18 236052 20150928030744
216.163.188.240 1 1 5710 20150907023040
179.215.124.170 1 18 236052 20150916225657
93.146.40.222 1 1 5710 20150926055143
59.91.31.239 1 18 236052 20150905032529
93.40.236.29 1 18 236052 20150925151139
189.217.222.143 1 18 236052 20150914150932
83.52.101.166 1 18 236052 20150922190935
191.249.45.106 1 18 236052 20150907052645
95.7.91.230 1 18 236052 20150930080837
108.203.170.31 1 1 5710 20150903220234
107.173.153.123 1 1 5710 20150914135251
89.205.13.164 1 18 236052 20150917035929
62.149.143.75 1 1 5710 20150922002436
66.220.145.150 0 1 26232 
201.77.116.114 1 18 236052 20150904142655
87.90.56.131 1 18 236052 20150914181609
201.14.231.22 1 18 236052 20150924203739
190.77.110.106 1 18 236052 20150916194438
150.70.173.59 1 1 5710 20150930045947
189.10.201.190 1 18 236052 20150929165507
189.71.15.226 1 18 236052 20150909120047
201.157.13.41 1 18 236052 20150904173526
201.102.34.178 1 18 236052 20150908154216
187.112.117.69 1 18 236052 20150905142139
185.65.135.227 1 1 5710 20150908231756
177.67.131.29 1 18 236052 20150925081317
59.95.132.141 1 12 137092 20150918142747
177.128.72.6 1 16 213676 20150919162744
189.217.15.132 1 18 236052 20150904173918
52.89.123.97 1 1 5710 20150926123546
189.133.41.187 1 18 236052 20150910000220
190.90.22.6 1 6 42752 20150917130721
181.16.61.17 1 18 236052 20150913202724
151.21.54.243 1 18 236052 20150912055302
189.121.69.207 1 13 152746 20150921115356
201.52.100.44 1 18 236052 20150917095306
118.96.146.145 1 18 236052 20150929222250
62.149.143.97 1 1 5710 20150922002437
95.130.15.98 1 1 5710 20150908212616
186.205.107.145 1 18 236052 20150908101800
187.230.69.156 1 18 236052 20150914184545
216.163.188.234 1 1 5710 20150917130916
62.83.24.57 1 18 236052 20150902081914
5.45.73.22 1 1 5710 20150914043916
196.210.71.34 1 18 236052 20150923061749
54.207.127.53 1 1 5710 20150904074701
187.189.93.213 1 18 236052 20150920174024
177.42.250.96 1 18 236052 20150925084435
187.189.165.19 1 18 236052 20150903112455
96.248.216.164 1 1 5710 20150930045756
186.218.80.17 1 18 236052 20150906214938
END_VISITOR

# Date - Pages - Hits - Bandwidth - Visits
BEGIN_DAY 29
20150901 2 19 241762 2
20150902 2 36 472104 2
20150903 4 55 713866 4
20150904 8 105 1344426 8
20150905 3 54 708156 3
20150906 5 70 904933 5
20150907 7 41 474656 7
20150908 8 76 967048 7
20150909 3 54 708156 2
20150910 5 45 539859 5
20150912 4 38 483524 4
20150913 2 36 472104 2
20150914 12 80 984178 12
20150915 1 20 288516 1
20150916 5 59 728459 5
20150917 7 97 1228722 7
20150918 3 43 525890 3
20150919 1 16 213676 1
20150920 2 36 472104 2
20150921 3 44 541544 3
20150922 8 59 736706 8
20150923 4 44 546798 4
20150924 2 36 472104 2
20150925 3 54 708156 3
20150926 5 22 258892 4
20150927 2 19 241762 2
20150928 2 19 241762 2
20150929 6 60 734169 6
20150930 6 69 918586 6
END_DAY

# Session range - Number of visits
BEGIN_SESSION 2
30s-2mn 2
0s-30s 120
END_SESSION

# URL - Pages - Bandwidth - Entry - Exit
# The 25 first Pages must be first (order not required for others)
BEGIN_SIDER 1
/ 125 708040 122 122
END_SIDER
