AWSTATS DATA FILE 7.6 (build 20161204)
# If you remove this file, all statistics for date 201801 will be lost/reset.
# Last config file used to build this data file was /home/neuracor/tmp/awstats/awstats.blog.neuracorestudio.com.conf.

# Position (offset in bytes) in this file for beginning of each section for
# direct I/O access. If you made changes somewhere in this file, you should
# also remove completely the MAP section (AWStats will rewrite it at next
# update).
BEGIN_MAP 28
POS_GENERAL 2021                
POS_TIME 2693                
POS_VISITOR 6518                
POS_DAY 6940                
POS_DOMAIN 3210                
POS_LOGIN 3466                
POS_ROBOT 3621                
POS_WORMS 3799                
POS_EMAILSENDER 3930                
POS_EMAILRECEIVER 4073                
POS_SESSION 7087                
POS_SIDER 7243                
POS_FILETYPES 4208                
POS_DOWNLOADS 4359                
POS_OS 4696                
POS_BROWSER 4796                
POS_SCREENSIZE 4927                
POS_UNKNOWNREFERER 5001                
POS_UNKNOWNREFERERBROWSER 5180                
POS_ORIGIN 5354                
POS_SEREFERRALS 5488                
POS_PAGEREFS 5632                
POS_SEARCHWORDS 5780                
POS_KEYWORDS 5932                
POS_MISC 2357                
POS_ERRORS 5991                
POS_CLUSTER 3322                
POS_SIDER_404 6087                
END_MAP

# LastLine    = Date of last record processed - Last record line number in last log - Last record offset in last log - Last record signature value
# FirstTime   = Date of first visit for history file
# LastTime    = Date of last visit for history file
# LastUpdate  = Date of last update - Nb of parsed records - Nb of parsed old records - Nb of parsed new records - Nb of parsed corrupted - Nb of parsed dropped
# TotalVisits = Number of visits
# TotalUnique = Number of unique visitors
# MonthHostsKnown   = Number of hosts known
# MonthHostsUnKnown = Number of hosts unknown
BEGIN_GENERAL 8
LastLine 20180201115130 1 0 10160941772595
FirstTime 20180121202742
LastTime 20180131120936
LastUpdate 20180202061804 1 0 0 0 0
TotalVisits 8                   
TotalUnique 7                   
MonthHostsKnown 0                   
MonthHostsUnknown 10                  
END_GENERAL

# Misc ID - Pages - Hits - Bandwidth
BEGIN_MISC 10
FlashSupport 0 0 0
WindowsMediaPlayerSupport 0 0 0
RealPlayerSupport 0 0 0
JavaEnabled 0 0 0
DirectorSupport 0 0 0
JavascriptDisabled 0 0 0
QuickTimeSupport 0 0 0
AddToFavourites 0 0 0
TotalMisc 0 0 0
PDFSupport 0 0 0
END_MISC

# Hour - Pages - Hits - Bandwidth - Not viewed Pages - Not viewed Hits - Not viewed Bandwidth
BEGIN_TIME 24
0 0 0 0 0 0 0
1 5 11 618198 0 0 0
2 0 0 0 0 0 0
3 0 0 0 0 0 0
4 0 0 0 0 0 0
5 0 0 0 0 0 0
6 0 0 0 0 0 0
7 0 0 0 0 0 0
8 0 0 0 0 0 0
9 0 0 0 0 0 0
10 0 0 0 0 0 0
11 0 0 0 0 0 0
12 10 22 1236396 0 2 0
13 0 0 0 0 0 0
14 0 0 0 0 0 0
15 0 0 0 0 0 0
16 0 0 0 0 0 0
17 0 0 0 0 0 0
18 0 0 0 5 5 0
19 0 0 0 0 1 2350
20 8 27 1232929 3 6 0
21 13 37 618198 1 10 24724
22 0 0 0 0 0 0
23 4 10 0 1 3 1560
END_TIME

# Domain - Pages - Hits - Bandwidth
# The 25 first Pages must be first (order not required for others)
BEGIN_DOMAIN 3
mx 30 78 2468812
us 10 27 1236755
gb 0 2 154
END_DOMAIN

# Cluster ID - Pages - Hits - Bandwidth
BEGIN_CLUSTER 0
END_CLUSTER

# Login - Pages - Hits - Bandwidth - Last visit
# The 10 first Pages must be first (order not required for others)
BEGIN_LOGIN 0
END_LOGIN

# Robot ID - Hits - Bandwidth - Last visit - Hits on robots.txt
# The 25 first Hits must be first (order not required for others)
BEGIN_ROBOT 1
facebookexternalhit/ 5 13932 20180126192516 0
END_ROBOT

# Worm ID - Hits - Bandwidth - Last visit
# The 5 first Hits must be first (order not required for others)
BEGIN_WORMS 0
END_WORMS

# EMail - Hits - Bandwidth - Last visit
# The 20 first Hits must be first (order not required for others)
BEGIN_EMAILSENDER 0
END_EMAILSENDER

# EMail - Hits - Bandwidth - Last visit
# The 20 first hits must be first (order not required for others)
BEGIN_EMAILRECEIVER 0
END_EMAILRECEIVER

# Files type - Hits - Bandwidth - Bandwidth without compression - Bandwidth after compression
BEGIN_FILETYPES 5
ttf 27 2566896 0 0
txt 7 513 0 0
css 20 1054080 0 0
html 13 14740 0 0
svg 40 69492 0 0
END_FILETYPES

# Downloads - Hits - Bandwidth
BEGIN_DOWNLOADS 4
/.well-known/pki-validation/B77B1C520BD47C392983506E490B6A0B.txt 4 0 308
/.well-known/pki-validation/C5DEF752BAC0BAE45B43FD488FCBD82F.txt 1 0 64
/.well-known/pki-validation/E1D0AEBD6D72A72DCAEE8EDF5A195DDD.txt 1 0 77
/.well-known/pki-validation/430D20A72D028A7C49BDABC8D72B07B8.txt 1 0 64
END_DOWNLOADS

# OS ID - Hits
BEGIN_OS ID - Hits - Pages 3
winxp 20 8
Unknown 9 2
win10 78 30
END_OS

# Browser ID - Hits - Pages
BEGIN_BROWSER 4
chrome27.0.1453.116 20 8
chrome63.0.3239.132 30 12
firefox57.0 48 18
Unknown 9 2
END_BROWSER

# Screen size - Hits
BEGIN_SCREENSIZE 0
END_SCREENSIZE

# Unknown referer OS - Last visit date
BEGIN_UNKNOWNREFERER 2
COMODO_DCV 20180121202343
HubSpot_Marketing_Grader,_HubSpot_Marketing_Grader 20180131120918
END_UNKNOWNREFERER

# Unknown referer Browser - Last visit date
BEGIN_UNKNOWNREFERERBROWSER 2
HubSpot_Marketing_Grader,_HubSpot_Marketing_Grader 20180131120918
COMODO_DCV 20180121202343
END_UNKNOWNREFERERBROWSER

# Origin - Pages - Hits 
BEGIN_ORIGIN 6
From0 13 20
From1 0 0
From2 0 0
From3 0 0
From4 27 87
From5 0 0
END_ORIGIN

# Search engine referers ID - Pages - Hits
BEGIN_SEREFERRALS 0
END_SEREFERRALS

# External page referers - Pages - Hits
# The 25 first Pages must be first (order not required for others)
BEGIN_PAGEREFS 0
END_PAGEREFS

# Search keyphrases - Number of search
# The 10 first number of search must be first (order not required for others)
BEGIN_SEARCHWORDS 0
END_SEARCHWORDS

# Search keywords - Number of search
# The 25 first number of search must be first (order not required for others)
BEGIN_KEYWORDS 0
END_KEYWORDS

# Errors - Hits - Bandwidth
BEGIN_ERRORS 2
404 8 0
206 6 14702
END_ERRORS

# URL with 404 errors - Hits - Last URL referrer
BEGIN_SIDER_404 6
/.remote-sync.json 1 -
/.vscode/ftp-sync.json 1 -
/sftp-config.json 1 -
/deployment-config.json 1 -
/.ftpconfig 1 -
/ 3 -
END_SIDER_404

# Host - Pages - Hits - Bandwidth - Last visit date - [Start date of last visit] - [Last page of last visit]
# [Start date of last visit] and [Last page of last visit] are saved only if session is not finished
# The 25 first Hits must be first (order not required for others)
BEGIN_VISITOR 10
187.151.139.13 22 58 1852174 20180122010921
54.174.56.201 4 7 394684 20180131120936
189.216.85.14 4 10 0 20180129234745
187.151.155.156 4 10 616638 20180122012256
54.174.56.56 3 11 764479 20180131120936
54.174.56.95 2 2 3120 20180131120918
54.174.56.62 1 1 71556 20180131120936
54.174.55.84 0 1 2557 
207.210.229.69 0 5 359 
91.199.212.132 0 2 154 
END_VISITOR

# Date - Pages - Hits - Bandwidth - Visits
BEGIN_DAY 4
20180121 21 64 1851127 1
20180122 5 11 618198 2
20180129 4 10 0 1
20180131 10 22 1236396 4
END_DAY

# Session range - Number of visits
BEGIN_SESSION 2
30mn-1h 1
0s-30s 7
END_SESSION

# URL - Pages - Bandwidth - Entry - Exit
# The 25 first Pages must be first (order not required for others)
BEGIN_SIDER 4
/ 13 14740 6 2
/fonts/ZonaPro-SemiBold.ttf 9 428712 1 1
/fonts/ZonaPro.ttf 9 429336 1 2
/fonts/Dual-300.ttf 9 1708848 0 3
END_SIDER
