AWSTATS DATA FILE 7.4 (build 20140726)
# If you remove this file, all statistics for date 201610 will be lost/reset.
# Last config file used to build this data file was /home/neuracor/tmp/awstats/awstats.neuracorestudio.com.conf.

# Position (offset in bytes) in this file for beginning of each section for
# direct I/O access. If you made changes somewhere in this file, you should
# also remove completely the MAP section (AWStats will rewrite it at next
# update).
BEGIN_MAP 28
POS_GENERAL 2016                
POS_TIME 2694                
POS_VISITOR 10830               
POS_DAY 17411               
POS_DOMAIN 3440                
POS_LOGIN 3936                
POS_ROBOT 4091                
POS_WORMS 4504                
POS_EMAILSENDER 4635                
POS_EMAILRECEIVER 4778                
POS_SESSION 18205               
POS_SIDER 18406               
POS_FILETYPES 4913                
POS_DOWNLOADS 5149                
POS_OS 5197                
POS_BROWSER 5460                
POS_SCREENSIZE 6481                
POS_UNKNOWNREFERER 6555                
POS_UNKNOWNREFERERBROWSER 7070                
POS_ORIGIN 7498                
POS_SEREFERRALS 7636                
POS_PAGEREFS 7780                
POS_SEARCHWORDS 8020                
POS_KEYWORDS 8172                
POS_MISC 2358                
POS_ERRORS 8231                
POS_CLUSTER 3792                
POS_SIDER_404 8362                
END_MAP

# LastLine    = Date of last record processed - Last record line number in last log - Last record offset in last log - Last record signature value
# FirstTime   = Date of first visit for history file
# LastTime    = Date of last visit for history file
# LastUpdate  = Date of last update - Nb of parsed records - Nb of parsed old records - Nb of parsed new records - Nb of parsed corrupted - Nb of parsed dropped
# TotalVisits = Number of visits
# TotalUnique = Number of unique visitors
# MonthHostsKnown   = Number of hosts known
# MonthHostsUnKnown = Number of hosts unknown
BEGIN_GENERAL 8
LastLine 20161101001849 44 10621 7347202417758
FirstTime 20161001015250
LastTime 20161031193626
LastUpdate 20161101072028 44 0 43 0 0
TotalVisits 240                 
TotalUnique 153                 
MonthHostsKnown 0                   
MonthHostsUnknown 174                 
END_GENERAL

# Misc ID - Pages - Hits - Bandwidth
BEGIN_MISC 10
RealPlayerSupport 0 0 0
FlashSupport 0 0 0
WindowsMediaPlayerSupport 0 0 0
AddToFavourites 0 1 0
DirectorSupport 0 0 0
PDFSupport 0 0 0
JavaEnabled 0 0 0
TotalMisc 0 0 0
JavascriptDisabled 0 0 0
QuickTimeSupport 0 0 0
END_MISC

# Hour - Pages - Hits - Bandwidth - Not viewed Pages - Not viewed Hits - Not viewed Bandwidth
BEGIN_TIME 24
0 8 42 2834280 2 7 130
1 10 11 101678 1 6 130
2 29 31 590006 3 8 130
3 14 25 442177 8 10 82960
4 64 108 22355832 1 7 156
5 10 10 31760 0 2 52
6 27 27 225887 4 10 27740
7 2 2 23365 1 2 34815
8 20 32 941553 3 8 172
9 26 143 12394496 7 10 78
10 19 20 128563 1 1 0
11 11 22 485137 25 50 454661
12 17 54 3062106 2 8 25274
13 30 102 7620240 26 29 487124
14 12 12 92925 5 11 11562
15 17 51 3048332 31 57 468142
16 11 14 172359 0 8 208
17 29 43 1023247 31 60 502335
18 17 53 3010774 6 8 69630
19 19 19 461378 4 10 11560
20 5 56 3532822 4 8 95880
21 4 19 3396504 12 13 78869
22 29 83 3618730 4 10 198
23 12 30 2470721 4 6 13870
END_TIME

# Domain - Pages - Hits - Bandwidth
# The 25 first Pages must be first (order not required for others)
BEGIN_DOMAIN 20
us 221 291 5290789
de 62 106 22300221
cn 46 61 1511050
mx 36 474 41767446
at 19 19 10526
nl 18 18 450369
fr 11 11 333851
ua 5 5 87161
gb 4 4 15880
ro 4 4 36165
eu 3 3 73548
md 2 2 49745
pl 2 2 69578
se 2 2 7940
dk 2 2 7940
ru 1 1 34923
it 1 1 5830
au 1 1 3970
es 1 1 3970
sg 1 1 3970
END_DOMAIN

# Cluster ID - Pages - Hits - Bandwidth
BEGIN_CLUSTER 0
END_CLUSTER

# Login - Pages - Hits - Bandwidth - Last visit
# The 10 first Pages must be first (order not required for others)
BEGIN_LOGIN 0
END_LOGIN

# Robot ID - Hits - Bandwidth - Last visit - Hits on robots.txt
# The 25 first Hits must be first (order not required for others)
BEGIN_ROBOT 8
bot[\s_+:,\.\;\/\\-] 58 572562 20161031163800 40
googlebot 25 650 20161030165053 25
unknown 10 260 20161028195635 10
no_user_agent 5 34893 20161028064439 4
ruby\/ 3 51207 20161004215446 0
slurp 2 52 20161026144712 2
crawl 1 34789 20161012185921 0
netcraft 1 34789 20161015181125 0
END_ROBOT

# Worm ID - Hits - Bandwidth - Last visit
# The 5 first Hits must be first (order not required for others)
BEGIN_WORMS 0
END_WORMS

# EMail - Hits - Bandwidth - Last visit
# The 20 first Hits must be first (order not required for others)
BEGIN_EMAILSENDER 0
END_EMAILSENDER

# EMail - Hits - Bandwidth - Last visit
# The 20 first hits must be first (order not required for others)
BEGIN_EMAILRECEIVER 0
END_EMAILRECEIVER

# Files type - Hits - Bandwidth - Bandwidth without compression - Bandwidth after compression
BEGIN_FILETYPES 9
css 84 3501941 0 0
xml 1 1045 0 0
js 174 3817717 0 0
gif 13 5451470 0 0
woff 12 785424 0 0
php 161 398459 0 0
jpg 40 35918881 0 0
png 256 14488547 0 0
html 268 7701388 0 0
END_FILETYPES

# Downloads - Hits - Bandwidth
BEGIN_DOWNLOADS 0
END_DOWNLOADS

# OS ID - Hits
BEGIN_OS ID - Hits - Pages 15
macosx 8 8
ios_iphone 10 10
linuxubuntu 2 2
win8 1 1
winxp 9 9
ios_ipad 294 19
win8.1 18 18
linux 132 87
win2000 22 22
macosx9 45 23
winlong 1 1
Unknown 94 83
win7 105 83
win2003 11 8
winnt 257 68
END_OS

# Browser ID - Hits - Pages
BEGIN_BROWSER 50
chrome34.0.1847.137 5 5
firefox19.0 7 7
chrome40.0.2214.115 8 8
msie11.0 1 1
Unknown 83 83
msie7.0 12 9
chrome51.0.2704.103 2 2
chrome53.0.2785.89 3 3
firefox17.0 11 11
chrome49.0.2623.75 2 1
chrome28.0.1500.71 2 2
firefox26.0 1 1
chrome44.0.2403.89 5 5
firefox29.0 10 10
mozilla 48 3
chrome44.0.2403.125 1 1
chrome35.0.1916.114 28 6
safari8.0 258 17
msie5.01 22 22
msie9.0 15 4
chrome10.0.648.11 1 1
firefox2.0.0.1 2 2
msie10.0 7 7
opera27.0.1689.76 1 1
chrome54.0.2840.59 97 7
firefox21.0 4 4
firefox3.6.3 1 1
chrome49.0.2623.87 13 2
firefox48.0 2 2
chrome37.0.2062.120 2 2
chrome14.0.813.0 1 1
firefox28.0 37 26
firefox5.0 2 2
chrome13.0.782.215 1 1
opera8.50 1 1
firefox3.6.13 1 1
safari 10 10
chrome31.0.1650.57 5 5
chrome54.0.2840.71 42 5
chrome28.0.1500.95 3 3
chrome51.0.2704.79 42 6
firefox35.0 1 1
chrome12.0.742.100 1 1
chrome45.0.2454.93 60 45
chrome34.0.1847.131 15 15
firefox47.0 98 54
msie6.0 1 1
chrome43.0.2357.130 26 26
safari7.0.3 6 6
firefox40.1 2 2
END_BROWSER

# Screen size - Hits
BEGIN_SCREENSIZE 0
END_SCREENSIZE

# Unknown referer OS - Last visit date
BEGIN_UNKNOWNREFERER 8
Ruby 20161027223044
Installatron_Plugin/9.1.26 20161029061826
DowntimeDetector/1.0_(_http://downforeveryoneorjustme.com) 20161025135816
Mozilla/5.0_(compatible;_Embedly/0.2;_snap;__http://support.embed.ly/) 20161020203546
KickFire 20161028210151
redback/v0-570-g26f8c96 20161006101619
WordPress/4.5.4;_http://www.neuracorestudio.com 20161031184320
Mozilla/5.0_(compatible;_Embedly/0.2;__http://support.embed.ly/) 20161020203544
END_UNKNOWNREFERER

# Unknown referer Browser - Last visit date
BEGIN_UNKNOWNREFERERBROWSER 7
KickFire 20161028210151
python-requests/1.2.3_CPython/2.7.10_Linux/4.1.17-22.30.amzn1.x86_64 20161031081445
redback/v0-570-g26f8c96 20161006101619
DowntimeDetector/1.0_(_http://downforeveryoneorjustme.com) 20161025135816
Installatron_Plugin/9.1.26 20161029061826
WordPress/4.5.4;_http://www.neuracorestudio.com 20161031184320
Ruby 20161027223044
END_UNKNOWNREFERERBROWSER

# Origin - Pages - Hits 
BEGIN_ORIGIN 6
From0 274 305
From1 3 3
From2 0 0
From3 6 6
From4 159 695
From5 0 0
END_ORIGIN

# Search engine referers ID - Pages - Hits
BEGIN_SEREFERRALS 0
END_SEREFERRALS

# External page referers - Pages - Hits
# The 25 first Pages must be first (order not required for others)
BEGIN_PAGEREFS 3
http://www.neuracore.mx/neuracorestudio/ 3 3
http://pizza-tycoon.com 2 2
http://lnkd.in 1 1
END_PAGEREFS

# Search keyphrases - Number of search
# The 10 first number of search must be first (order not required for others)
BEGIN_SEARCHWORDS 0
END_SEARCHWORDS

# Search keywords - Number of search
# The 25 first number of search must be first (order not required for others)
BEGIN_KEYWORDS 0
END_KEYWORDS

# Errors - Hits - Bandwidth
BEGIN_ERRORS 5
404 75 1024282
508 84 612108
301 80 0
405 2 84
302 2 0
END_ERRORS

# URL with 404 errors - Hits - Last URL referrer
BEGIN_SIDER_404 43
/wp-content/plugins/wp-editor/readme.txt 1 -
/wp-content/plugins/revslider/temp/update_extract/htn62468.php 1 -
/wp-content/plugins/ninja-forms/ninja_forms.php 1 -
/wp-content/plugins/magic-fields/MF_Constant.php 1 -
/wp-content/plugins/mac-dock-gallery/bugslist.txt 2 -
/license.php 1 -
/wp-content/plugins/auto-attachments/a-a.css 1 -
/wp-content/plugins/zingiri-web-shop/admin.css 1 -
/wp-content/plugins/wpstorecart/lgpl.txt 1 -
/wp-content/plugins/fcchat/default.png 3 -
/language/en-GB/en-GB.xml 2 -
/wp-content/plugins/wp-filemanager/fm.php 1 -
/wp-content/plugins/category-grid-view-gallery/cat_grid.php 2 -
/wp-content/plugins/cimy-user-extra-fields/README_OFFICIAL.txt 2 -
/wp-content/plugins/user-meta/readme.txt 3 -
/wp-content/plugins/simple-dropbox-upload-form/ 2 -
/uploadify/uploadify.php 1 -
/wp-content/plugins/another-wordpress-classifieds-plugin/AWPCP.po 2 -
/wp-content/plugins/user-avatar/readme.txt 1 -
/wp-content/plugins/wp-e-commerce/license.txt 2 -
/wp-content/plugins/front-end-upload/destination.php 3 -
/wp-content/plugins/wise-chat/css/wise_chat.css 1 -
/wp-content/plugins/custom-content-type-manager/index.html 2 -
/wp-content/plugins/wpmarketplace/readme.txt 3 -
/wp-content/plugins/inpost-gallery/js/front.js 1 -
/wp-content/plugins/ckeditor-for-wordpress/ckeditor.config.js 2 -
/wp-content/plugins/another-wordpress-classifieds-plugin/resources/js/main.js 1 -
/wp-content/plugins/contact-form-7/license.txt 2 -
/wp-content/plugins/nmedia-user-file-uploader/readme.txt 2 -
/wp-content/plugins/wp-property/action_hooks.php 2 -
/wp-content/plugins/nextgen-gallery/changelog.txt 2 -
/wp-includes/class.wp-date.php 1 -
/wp-content/plugins/wp-image-news-slider/functions.php 2 -
/wp-content/plugins/font-uploader/font-uploader-free.php 2 -
/wp-content/plugins/gallery-plugin/gallery-plugin.php 2 -
/ 6 -
/wp-content/plugins/wp-homepage-slideshow/functions.php 2 -
/wp-content/plugins/post-grid/assets/frontend/css/style-new.css 1 -
/wp-content/plugins/user-photo/admin.css 2 -
/wp-content/uploads/ln08tjv8.php 1 -
/wp-content/plugins/resume-submissions-job-postings/installer.php 2 -
/a 1 -
/wp-content/uploads/lr02j820.php 1 -
END_SIDER_404

# Host - Pages - Hits - Bandwidth - Last visit date - [Start date of last visit] - [Last page of last visit]
# [Start date of last visit] and [Last page of last visit] are saved only if session is not finished
# The 25 first Hits must be first (order not required for others)
BEGIN_VISITOR 174
207.210.229.69 88 88 107247 20161031184320
138.201.34.137 53 97 22224466 20161011043949
104.236.119.218 26 26 652198 20161009083906
84.117.193.204 15 15 6225 20161026104039
146.0.74.195 15 15 362144 20161028174804
45.55.181.223 14 14 361022 20161028195651
104.236.112.178 13 13 326099 20161014024045
104.131.25.244 13 13 326099 20161019091105
104.154.65.11 11 11 299921 20161027223050
38.100.21.61 8 11 267677 20161012172023
189.216.153.56 6 108 8072217 20161010094108
187.234.232.171 5 59 6495858 20161020210936
189.217.4.249 5 41 2814722 20161022230118
201.110.37.217 5 42 2812536 20161030122453
91.200.14.153 4 4 37829 20161011033204
84.117.193.163 4 4 4301 20161024221237
189.216.157.56 4 74 5418160 20161031184323
187.145.201.185 3 38 4487738 20161012094332
187.145.181.19 3 38 4487738 20161005090905
86.104.139.76 3 3 1245 20161025165325
149.202.206.103 3 3 104367 20161003135125
187.146.30.91 2 36 2690739 20161001135651
193.251.65.223 2 2 69578 20161013114542
104.207.150.177 2 2 69578 20161019111444
202.46.48.27 2 2 29897 20161020185057
202.46.49.94 1 1 21053 20161017110413
176.123.2.177 1 1 413 20161019140340
54.200.160.248 1 1 34789 20161013190648
52.91.238.171 1 1 3970 20161027055956
202.46.58.93 0 1 73 
198.144.178.168 1 1 34789 20161007144806
104.219.54.175 1 1 34926 20161014220134
202.46.55.89 1 1 34789 20161020085804
202.46.58.187 1 1 28852 20161016155312
202.46.51.204 1 1 34789 20161015154351
54.244.96.109 1 1 34789 20161018114226
202.46.50.131 1 1 20494 20161003235247
178.62.238.217 1 1 3970 20161026220347
95.143.206.34 1 1 3970 20161026223330
94.240.43.194 1 1 34789 20161001173149
185.100.85.101 1 1 34920 20161008230937
66.33.194.195 1 1 3970 20161026221104
85.25.103.119 1 1 34920 20161011062319
202.46.53.156 1 1 21053 20161021121841
54.191.33.142 1 1 34789 20161012145104
195.128.174.145 1 1 3970 20161027061640
202.46.55.150 1 1 28852 20161012162646
202.46.52.62 1 1 20564 20161011092701
80.82.64.102 1 1 49332 20161013015511
45.32.131.61 1 1 34789 20161007153659
178.238.225.65 1 1 34789 20161013133038
202.46.48.199 1 1 34789 20161008001952
45.55.133.227 1 12 268824 20161010094106
202.46.49.69 1 1 21904 20161003084029
202.46.52.153 1 1 19878 20161005064456
202.46.55.81 1 1 20900 20161005112148
209.128.119.82 1 1 34789 20161028210151
91.121.223.39 1 1 3970 20161027051144
202.46.53.51 0 1 26366 
202.46.54.167 0 1 815 
202.46.54.180 1 1 20494 20161031193626
195.20.200.234 1 1 34789 20161027152722
202.46.49.93 1 1 13872 20161011060335
45.55.133.238 1 12 268824 20161025035459
202.46.52.179 0 1 7980 
202.46.52.156 1 1 23364 20161006154801
54.225.104.196 0 2 72329 
104.155.135.164 1 1 34789 20161008223524
202.46.52.74 1 1 16355 20161009195139
202.46.54.189 1 1 34789 20161012100712
78.46.9.59 1 1 3970 20161027054326
51.254.176.33 1 1 3970 20161030012325
202.46.58.194 1 1 23364 20161003072241
46.165.208.207 1 1 415 20161028005638
202.46.53.210 1 1 19878 20161015032215
166.62.123.148 1 1 3970 20161026222553
202.46.54.199 1 1 34789 20161021061503
185.66.249.94 1 1 3970 20161030014720
5.196.173.191 1 1 49332 20161027131256
202.46.53.45 0 1 90692 
45.32.129.200 1 1 34789 20161002001249
66.102.7.150 1 1 34789 20161020212706
178.162.205.25 1 1 415 20161016061914
91.222.8.125 1 1 3970 20161030010018
143.95.38.200 1 1 3970 20161026230538
202.46.58.186 1 1 34789 20161024160017
54.204.20.249 0 2 25838 
89.248.96.228 1 1 3970 20161026221821
54.80.131.29 1 1 34789 20161004095433
208.113.210.81 1 1 3970 20161027052710
198.24.154.187 1 1 3970 20161026231353
202.46.50.122 1 1 34789 20161013033058
202.46.55.39 1 1 34789 20161028164653
54.183.129.46 1 1 34789 20161031081445
109.104.79.189 1 1 3970 20161030025504
52.24.115.141 1 1 965 20161002120455
202.46.51.112 0 1 21984 
54.221.198.105 0 2 27106 
129.121.186.211 1 1 3970 20161027050359
202.46.58.160 1 1 25392 20161026021413
202.46.51.173 0 1 7980 
104.156.230.231 1 1 34789 20161013025635
202.46.52.141 1 1 20900 20161010020432
202.46.56.191 1 1 34789 20161008181349
89.221.250.16 1 1 3970 20161030003813
192.227.203.241 1 1 34789 20161025135805
176.123.5.7 1 1 49332 20161024095852
45.55.133.235 1 12 268824 20161017113424
104.156.231.254 1 1 34789 20161007154121
202.46.48.147 1 1 34789 20161005044017
202.46.57.29 1 1 34789 20161004005946
94.23.174.56 1 1 49332 20161013122951
77.73.6.123 1 1 3970 20161027060817
178.162.205.1 1 1 415 20161019172603
45.32.128.51 1 1 34789 20161019112641
202.46.53.165 1 1 21904 20161006162131
54.186.35.0 1 1 34789 20161026104427
202.46.57.151 0 1 27146 
189.216.154.56 1 2 1796999 20161011133142
188.138.105.84 1 1 1 20161008073547
202.46.52.162 0 1 90692 
178.62.7.178 2 2 69578 20161025135815
202.46.48.149 0 1 7980 
37.61.233.162 1 1 3970 20161027051925
54.218.253.245 1 1 34789 20161020083359
107.21.253.49 1 2 46682 20161020203544
54.159.191.27 1 1 34789 20161015132609
54.90.41.238 1 1 34789 20161008192855
202.46.56.111 1 1 28852 20161009032923
195.128.174.143 1 1 3970 20161026224918
202.46.50.14 0 1 815 
202.46.58.74 1 1 20564 20161005101449
202.46.58.76 1 1 38019 20161026124059
111.67.21.148 1 1 3970 20161026224123
202.46.53.160 1 1 49332 20161012045008
192.154.106.202 2 13 488368 20161003083640
122.10.84.183 1 1 3970 20161027055148
94.23.213.107 1 1 3970 20161027053510
66.102.7.152 0 1 953 
202.46.51.187 1 1 19878 20161019145702
202.46.52.177 0 1 2381 
202.46.52.44 1 1 28852 20161002191603
45.55.135.226 1 12 268824 20161003174922
91.215.152.21 1 1 34923 20161027184834
202.46.51.105 0 1 15239 
45.35.63.194 1 1 625 20161006010719
202.46.57.73 1 1 34789 20161017042445
54.201.94.232 1 1 34789 20161025135816
202.46.55.87 0 1 2114 
176.9.0.22 1 1 415 20161021115442
109.236.8.6 1 1 5830 20161006101619
54.221.199.147 0 2 116989 
202.46.53.118 1 1 19878 20161009091420
54.69.32.159 1 1 965 20161001042650
104.247.7.129 1 1 3056 20161007144812
202.46.56.68 2 2 46409 20161028061642
202.46.51.80 1 1 34789 20161027133157
45.32.130.173 1 1 34789 20161002001952
202.46.50.161 1 1 24911 20161028180912
111.235.137.123 1 1 3970 20161030021124
23.94.203.185 1 1 34789 20161022125829
187.234.237.23 2 36 2690739 20161026220754
46.165.251.68 1 1 415 20161026164610
54.161.111.82 1 1 34789 20161015122342
62.212.73.49 1 1 34923 20161019182722
68.233.250.141 1 1 3970 20161026225723
195.242.80.33 1 1 49332 20161013152343
202.46.51.172 2 2 55842 20161007180337
54.166.121.14 1 1 15335 20161012182745
202.46.54.29 0 1 1059 
54.214.193.75 1 1 34789 20161022125839
54.204.20.250 0 2 70030 
52.91.172.154 1 1 34789 20161017132117
94.23.75.242 1 1 49332 20161024020533
END_VISITOR

# Date - Pages - Hits - Bandwidth - Visits
BEGIN_DAY 31
20161001 9 45 2885449 7
20161002 7 9 126576 7
20161003 15 72 3621486 10
20161004 19 54 3177108 6
20161005 7 9 1920276 7
20161006 6 6 51723 6
20161007 8 9 129291 8
20161008 12 13 197132 8
20161009 18 18 391184 6
20161010 8 87 5671202 5
20161011 63 109 24130764 8
20161012 21 59 4930003 10
20161013 13 13 391519 12
20161014 16 16 361025 4
20161015 14 14 207962 9
20161016 4 5 30326 4
20161017 6 17 359455 6
20161018 4 4 55353 4
20161019 25 25 510280 10
20161020 12 78 6989004 8
20161021 6 6 170090 5
20161022 16 89 5669823 8
20161023 3 4 46866 3
20161024 10 10 141717 8
20161025 9 21 382416 7
20161026 35 69 2887284 19
20161027 28 28 493454 18
20161028 23 23 514221 10
20161029 6 6 24145 3
20161030 13 51 2851595 9
20161031 6 40 2746143 5
END_DAY

# Session range - Number of visits
BEGIN_SESSION 6
0s-30s 228
2mn-5mn 1
15mn-30mn 1
5mn-15mn 2
30mn-1h 3
30s-2mn 5
END_SESSION

# URL - Pages - Bandwidth - Entry - Exit
# The 25 first Pages must be first (order not required for others)
BEGIN_SIDER 55
/ 96 3256841 84 68
/wp-cron.php 70 0 63 67
/xmlrpc.php 36 165002 10 14
/wp-login.php 34 126207 34 33
/graphic-design/ecosistema-emprende/ 14 278292 4 6
/industrial-design/mushroom/ 14 403967 5 5
/graphic-design/davids-garage/ 13 273728 3 5
/category/industrial-design/ 12 290664 1 2
/industrial-design/sonora-chair/ 12 280407 2 3
/author/admin/ 12 591984 11 7
/wp-content/themes/zerif-lite/fonts/fontawesome-webfont.woff 12 785424 0 7
/graphic-design/capital-sin/ 12 250839 2 2
/graphic-design/imagen-corporativa-copival/ 11 226204 3 4
/graphic-design/m-m/ 11 225434 2 2
/category/graphic-design/ 11 418248 1 1
/industrial-design/coffinbookcase/ 11 284334 1 1
/graphic-design/goliat/ 11 240983 2 3
/graphic-design/bit-legends/ 11 274060 1 2
/wp-admin/admin-ajax.php 3 3 1 2
/tag/diseno-industrial/ 1 25343 0 0
/deleteme.wp81st.php 1 10168 0 0
/tag/interiorismo/ 1 25315 0 0
/deleteme.charb8kb.php 1 1323 1 0
/deleteme.chawyg2k.php 1 1323 1 0
/deleteme.chasmfu1.php 1 1323 1 0
/deleteme.wpfq1l.php 1 10168 0 0
/tag/diseno-a-medida/ 1 17567 0 0
/deleteme.wpcncl.php 1 10395 0 0
/deleteme.wpsgmx.php 1 10168 0 1
/deleteme.cha1hemj.php 1 1323 1 0
/wp-includes/wlwmanifest.xml 1 1045 1 1
/tag/office/ 1 17836 0 0
/tag/branding/ 1 17415 0 0
/deleteme.wp1dgw.php 1 10168 0 0
/tag/product-design/ 1 25325 0 0
/tag/imagen-corporativa/ 1 37986 0 0
/about/ 1 16355 1 1
/deleteme.wpinpt.php 1 10417 0 0
/deleteme.wpswwv.php 1 2237 0 0
/deleteme.wphw3w.php 1 10168 0 1
/tag/logotype/ 1 17415 0 0
/deleteme.charfxnc.php 1 1323 1 0
/tag/product-development/ 1 25350 0 0
/deleteme.wpsbn0.php 1 3761 0 0
/tag/home/ 1 25275 0 0
/tag/logotipo/ 1 37936 0 0
/home/ 1 13872 1 1
/deleteme.wpd9ud.php 1 10168 0 1
/deleteme.charzdlg.php 1 1323 1 0
/tag/desarrollo-de-producto/ 1 21691 0 0
/tag/diseno-grafico/ 1 37972 0 0
/deleteme.wp3gjw.php 1 10168 0 0
/tag/furnishing/ 1 21631 0 0
/deleteme.chayobsc.php 1 1323 1 0
/tag/graphic-design/ 1 21119 0 0
END_SIDER
