AWSTATS DATA FILE 7.4 (build 20140726)
# If you remove this file, all statistics for date 201606 will be lost/reset.
# Last config file used to build this data file was /home/neuracor/tmp/awstats/awstats.neuracorestudio.com.conf.

# Position (offset in bytes) in this file for beginning of each section for
# direct I/O access. If you made changes somewhere in this file, you should
# also remove completely the MAP section (AWStats will rewrite it at next
# update).
BEGIN_MAP 28
POS_GENERAL 2016                
POS_TIME 2688                
POS_VISITOR 8391                
POS_DAY 11291               
POS_DOMAIN 3389                
POS_LOGIN 3880                
POS_ROBOT 4035                
POS_WORMS 4532                
POS_EMAILSENDER 4663                
POS_EMAILRECEIVER 4806                
POS_SESSION 11909               
POS_SIDER 12076               
POS_FILETYPES 4941                
POS_DOWNLOADS 5130                
POS_OS 5178                
POS_BROWSER 5411                
POS_SCREENSIZE 6148                
POS_UNKNOWNREFERER 6222                
POS_UNKNOWNREFERERBROWSER 6537                
POS_ORIGIN 6756                
POS_SEREFERRALS 6891                
POS_PAGEREFS 7044                
POS_SEARCHWORDS 7272                
POS_KEYWORDS 7424                
POS_MISC 2352                
POS_ERRORS 7483                
POS_CLUSTER 3736                
POS_SIDER_404 7579                
END_MAP

# LastLine    = Date of last record processed - Last record line number in last log - Last record offset in last log - Last record signature value
# FirstTime   = Date of first visit for history file
# LastTime    = Date of last visit for history file
# LastUpdate  = Date of last update - Nb of parsed records - Nb of parsed old records - Nb of parsed new records - Nb of parsed corrupted - Nb of parsed dropped
# TotalVisits = Number of visits
# TotalUnique = Number of unique visitors
# MonthHostsKnown   = Number of hosts known
# MonthHostsUnKnown = Number of hosts unknown
BEGIN_GENERAL 8
LastLine 20160701083055 1 0 10477138880849
FirstTime 20160601031447
LastTime 20160630214258
LastUpdate 20160702071445 1 0 0 0 0
TotalVisits 81                  
TotalUnique 73                  
MonthHostsKnown 0                   
MonthHostsUnknown 73                  
END_GENERAL

# Misc ID - Pages - Hits - Bandwidth
BEGIN_MISC 10
FlashSupport 0 0 0
TotalMisc 0 0 0
QuickTimeSupport 0 0 0
AddToFavourites 0 1 0
RealPlayerSupport 0 0 0
JavaEnabled 0 0 0
DirectorSupport 0 0 0
WindowsMediaPlayerSupport 0 0 0
JavascriptDisabled 0 0 0
PDFSupport 0 0 0
END_MISC

# Hour - Pages - Hits - Bandwidth - Not viewed Pages - Not viewed Hits - Not viewed Bandwidth
BEGIN_TIME 24
0 6 18 209418 3 4 11420
1 1 1 5710 2 8 48462
2 2 5 20303 3 14 57345
3 3 3 17130 6 8 54782
4 3 3 17130 2 12 105321
5 5 5 28550 11 26 58742
6 1 18 236052 2 12 52593
7 4 4 24444 4 7 11777
8 6 23 267810 5 21 54886
9 4 22 279414 1 15 60852
10 5 22 258892 6 11 22840
11 3 19 221240 1 9 62973
12 4 4 22840 4 11 29571
13 4 4 22840 0 0 0
14 2 3 37652 1 5 39514
15 9 13 169309 8 14 18100
16 1 18 236052 6 21 99583
17 5 5 28550 2 14 44828
18 7 41 264602 4 9 57695
19 8 45 515247 1 16 113586
20 3 3 17130 2 14 57345
21 7 7 39970 3 9 14593
22 7 23 245895 2 4 5710
23 1 1 5710 4 16 82331
END_TIME

# Domain - Pages - Hits - Bandwidth
# The 25 first Pages must be first (order not required for others)
BEGIN_DOMAIN 21
us 46 71 646036
mx 10 149 1675875
cn 10 10 57100
fr 9 9 47284
ru 4 4 22840
kr 3 3 17130
ca 3 3 17130
vn 2 2 11420
cz 2 14 186578
de 1 1 5710
nl 1 1 5710
th 1 1 5710
tw 1 1 5710
ua 1 1 5710
eu 1 1 5710
lu 1 1 5710
sk 1 1 5710
in 1 18 236052
jp 1 17 217345
hu 1 1 5710
gb 1 1 5710
END_DOMAIN

# Cluster ID - Pages - Hits - Bandwidth
BEGIN_CLUSTER 0
END_CLUSTER

# Login - Pages - Hits - Bandwidth - Last visit
# The 10 first Pages must be first (order not required for others)
BEGIN_LOGIN 0
END_LOGIN

# Robot ID - Hits - Bandwidth - Last visit - Hits on robots.txt
# The 25 first Hits must be first (order not required for others)
BEGIN_ROBOT 10
bot[\s_+:,\.\;\/\\-] 64 488694 20160630114151 0
googlebot 58 275172 20160630063315 0
[\s_+:,\.\;\/\\-]bot 13 222274 20160628125106 0
no_user_agent 8 81014 20160628193909 0
bingpreview 5 37042 20160629191510 0
ruby\/ 4 22840 20160622000211 0
spider 2 11420 20160623050008 0
crawl 2 11420 20160627182042 0
slurp 2 5710 20160619053903 0
robot 2 8192 20160629101429 0
END_ROBOT

# Worm ID - Hits - Bandwidth - Last visit
# The 5 first Hits must be first (order not required for others)
BEGIN_WORMS 0
END_WORMS

# EMail - Hits - Bandwidth - Last visit
# The 20 first Hits must be first (order not required for others)
BEGIN_EMAILSENDER 0
END_EMAILSENDER

# EMail - Hits - Bandwidth - Last visit
# The 20 first hits must be first (order not required for others)
BEGIN_EMAILRECEIVER 0
END_EMAILRECEIVER

# Files type - Hits - Bandwidth - Bandwidth without compression - Bandwidth after compression
BEGIN_FILETYPES 7
png 44 626680 0 0
cgi 3 21942 0 0
jpg 83 1346167 0 0
css 45 124362 0 0
html 98 516948 0 0
js 26 430721 0 0
gif 11 125070 0 0
END_FILETYPES

# Downloads - Hits - Bandwidth
BEGIN_DOWNLOADS 0
END_DOWNLOADS

# OS ID - Hits
BEGIN_OS ID - Hits - Pages 13
Unknown 15 11
winxp 26 10
blackberry 1 1
linuxandroid 2 2
win7 71 25
win8.1 8 8
ios_iphone 3 3
linux 64 13
macosx 23 5
winnt 88 17
winlong 2 2
macosx8 2 2
win2003 5 2
END_OS

# Browser ID - Hits - Pages
BEGIN_BROWSER 34
firefox21.0 6 6
chrome11.0.669.0 1 1
safari9.0 3 3
chrome40.0.2214.115 3 3
chrome28.0.1500.71 1 1
chrome48.0.2564.103 1 1
chrome35.0.3319.102 1 1
chrome23.0.1271.97 14 2
chrome45.0.2454.93 9 9
firefox28.0 8 8
Unknown 13 9
chrome50.0.2661.102 3 3
chrome51.0.2704.84 75 6
msie7.0 5 2
chrome24.0.1312.56 1 1
chrome39.0.2171.71 2 2
firefox3.6.3 2 2
chrome48.0.2564.116 17 1
android 1 1
chrome51.0.2704.103 18 1
chrome28.0.1500.95 6 6
firefox14.0.1 1 1
chrome26.0.1410.65 2 2
chrome10.0.648.133 1 1
chrome37.0.2062.120 7 7
firefox2.0.0.1 2 2
msie6.0 7 7
chrome46.0.2486.0 39 2
mozilla 2 2
chrome11.0.696.3 1 1
chrome51.0.2704.81 54 3
firefox41.0.2 2 2
chrome17.0.1025.133 1 1
blackberry 1 1
END_BROWSER

# Screen size - Hits
BEGIN_SCREENSIZE 0
END_SCREENSIZE

# Unknown referer OS - Last visit date
BEGIN_UNKNOWNREFERER 4
Mozilla/5.0_(compatible;_Dataprovider/6.92;__https://www.dataprovider.com/) 20160604101009
panscient.com 20160627152523
DowntimeDetector/1.0_(_http://downforeveryoneorjustme.com) 20160628212957
WWW-Mechanize/1.73 20160606022301
END_UNKNOWNREFERER

# Unknown referer Browser - Last visit date
BEGIN_UNKNOWNREFERERBROWSER 3
panscient.com 20160627152523
WWW-Mechanize/1.73 20160606022301
DowntimeDetector/1.0_(_http://downforeveryoneorjustme.com) 20160628212957
END_UNKNOWNREFERERBROWSER

# Origin - Pages - Hits 
BEGIN_ORIGIN 6
From0 87 111
From1 0 0
From2 2 2
From3 9 9
From4 3 188
From5 0 0
END_ORIGIN

# Search engine referers ID - Pages - Hits
BEGIN_SEREFERRALS 1
bing 2 2
END_SEREFERRALS

# External page referers - Pages - Hits
# The 25 first Pages must be first (order not required for others)
BEGIN_PAGEREFS 3
http://pizza-tycoon.com 6 6
https://www.linkedin.com 2 2
http://hundejo.com 1 1
END_PAGEREFS

# Search keyphrases - Number of search
# The 10 first number of search must be first (order not required for others)
BEGIN_SEARCHWORDS 0
END_SEARCHWORDS

# Search keywords - Number of search
# The 25 first number of search must be first (order not required for others)
BEGIN_KEYWORDS 0
END_KEYWORDS

# Errors - Hits - Bandwidth
BEGIN_ERRORS 2
404 109 0
302 2 714
END_ERRORS

# URL with 404 errors - Hits - Last URL referrer
BEGIN_SIDER_404 17
/)-(f+h)/2,0),a=Math.max(Muse.Utils.getCSSIntValue(a, 1 -
/robots.txt 81 -
/wp-content/themes/u-design/scripts/script.js 1 -
/xmlrpc.php 1 -
/wordpress/ 3 -
/license.php 1 -
/)-(c+h)/2,0),a=j+ 1 -
/administrator/ 1 -
/administrator/index.php 7 -
/)-(f+d)/2,0),f=Math.max(Muse.Utils.getCSSIntValue(a, 1 -
/wp-content/plugins/revslider/js/rev_admin.js 1 -
/wp-login.php 2 -
/text/xml 1 -
/a 2 -
/scripts/)-(f+h)/2,0),a=Math.max(Muse.Utils.getCSSIntValue(a, 1 -
/scripts/pie.js 2 -
/browserconfig.xml 2 -
END_SIDER_404

# Host - Pages - Hits - Bandwidth - Last visit date - [Start date of last visit] - [Last page of last visit]
# [Start date of last visit] and [Last page of last visit] are saved only if session is not finished
# The 25 first Hits must be first (order not required for others)
BEGIN_VISITOR 73
72.76.243.86 7 11 157889 20160627152523
195.154.146.225 5 5 28550 20160626125723
104.156.230.231 4 4 22840 20160616094153
158.69.225.36 3 3 17130 20160604101010
187.234.235.196 3 20 250680 20160609083850
148.206.91.163 3 57 717039 20160614105146
94.29.58.28 2 2 11420 20160606040617
104.131.61.20 2 2 11420 20160601175742
187.210.189.219 2 36 236052 20160616181121
104.156.231.254 2 2 11420 20160628183622
162.243.245.163 2 2 11420 20160624134957
211.176.231.104 2 2 11420 20160610231219
31.31.72.182 2 14 186578 20160622000215
92.95.94.116 2 2 5710 20160616222007
69.58.178.57 2 2 11420 20160607123843
104.236.243.138 1 1 5710 20160610050350
54.85.5.60 1 1 5710 20160628212957
74.91.28.19 1 1 5710 20160618213423
45.55.229.95 1 1 5710 20160627201621
209.159.137.59 1 1 5710 20160617195927
94.102.49.64 1 1 5710 20160616140030
171.232.171.164 1 1 5710 20160615050712
85.248.227.165 1 1 5710 20160616180220
52.90.171.144 1 1 5710 20160629182613
202.46.50.84 1 1 5710 20160620194037
85.143.222.162 1 1 5710 20160604125105
77.157.26.246 1 1 7314 20160609075506
217.12.204.104 1 1 5710 20160617052049
202.46.54.161 1 1 5710 20160625132621
202.46.50.153 1 1 5710 20160624192058
178.62.7.178 1 1 5710 20160628212957
54.85.146.217 1 1 5710 20160621185053
94.125.95.28 1 1 5710 20160618224608
176.9.98.12 1 1 5710 20160627205223
182.75.169.234 1 18 236052 20160618065946
202.46.58.156 1 1 5710 20160630002715
158.106.198.14 1 19 262284 20160628110500
202.46.50.133 1 1 5710 20160630214258
54.183.197.28 1 1 5710 20160614084204
104.236.47.25 1 1 5710 20160618210454
23.94.202.100 1 1 5710 20160628212954
38.100.21.63 1 4 14593 20160610024636
54.82.97.53 1 1 5710 20160613220049
193.251.65.223 1 1 5710 20160628170452
208.117.11.6 1 1 5710 20160628212955
52.201.229.194 1 1 5710 20160624135317
52.71.58.245 1 1 5710 20160612190636
195.245.112.158 1 1 5710 20160601115644
45.55.133.249 1 1 5710 20160620175707
202.46.50.121 1 1 5710 20160618003707
162.213.36.25 1 1 5710 20160626141318
121.149.83.77 1 1 5710 20160619052946
202.46.57.203 1 1 5710 20160607101122
52.90.125.149 1 1 5710 20160613151116
187.237.231.77 1 18 236052 20160617163952
223.205.247.216 1 1 5710 20160603083834
202.46.55.82 1 1 5710 20160622073125
54.160.31.106 1 1 5710 20160617034608
85.93.218.204 1 1 5710 20160606172906
52.4.244.57 1 1 5710 20160622000212
202.46.49.202 1 1 5710 20160618070345
163.44.151.233 1 17 217345 20160615223633
187.237.14.238 1 18 236052 20160617093134
54.157.134.126 1 1 5710 20160614091012
113.172.157.3 1 1 5710 20160617072021
54.242.146.178 1 1 5710 20160616222208
49.218.97.228 1 1 5710 20160630051621
52.71.64.37 1 1 5710 20160622000212
52.36.169.154 1 1 5710 20160606022301
195.228.45.176 1 1 5710 20160617223250
218.241.108.158 1 1 5710 20160630200838
104.250.226.116 1 1 5710 20160614191601
158.130.0.242 1 1 5710 20160617041228
END_VISITOR

# Date - Pages - Hits - Bandwidth - Visits
BEGIN_DAY 26
20160601 5 5 28550 3
20160603 1 1 5710 1
20160604 4 4 22840 2
20160606 6 6 34260 5
20160607 3 3 17130 2
20160609 4 21 257994 2
20160610 4 27 270948 4
20160611 1 1 5710 1
20160612 1 1 5710 1
20160613 3 20 247472 3
20160614 4 21 253182 4
20160615 2 18 223055 2
20160616 9 43 270312 6
20160617 9 43 512074 9
20160618 6 23 264602 6
20160619 1 1 5710 1
20160620 2 2 11420 2
20160621 1 1 5710 1
20160622 6 19 235650 5
20160624 4 4 22840 3
20160625 1 1 5710 1
20160626 2 2 11420 2
20160627 9 14 195541 3
20160628 8 24 249790 7
20160629 1 1 5710 1
20160630 4 4 22840 4
END_DAY

# Session range - Number of visits
BEGIN_SESSION 3
30s-2mn 2
2mn-5mn 1
0s-30s 78
END_SESSION

# URL - Pages - Bandwidth - Entry - Exit
# The 25 first Pages must be first (order not required for others)
BEGIN_SIDER 3
/ 92 513900 79 79
/scripts/ 6 3048 0 1
/cgi-sys/suspendedpage.cgi 3 21942 2 1
END_SIDER
