AWSTATS DATA FILE 7.6 (build 20161204)
# If you remove this file, all statistics for date 201807 will be lost/reset.
# Last config file used to build this data file was /home/neuracor/tmp/awstats/ssl/awstats.blog.neuracorestudio.com.conf.

# Position (offset in bytes) in this file for beginning of each section for
# direct I/O access. If you made changes somewhere in this file, you should
# also remove completely the MAP section (AWStats will rewrite it at next
# update).
BEGIN_MAP 28
POS_GENERAL 2025                
POS_TIME 2697                
POS_VISITOR 5818                
POS_DAY 6001                
POS_DOMAIN 3183                
POS_LOGIN 3415                
POS_ROBOT 3570                
POS_WORMS 3737                
POS_EMAILSENDER 3868                
POS_EMAILRECEIVER 4011                
POS_SESSION 6179                
POS_SIDER 6335                
POS_FILETYPES 4146                
POS_DOWNLOADS 4227                
POS_OS 4275                
POS_BROWSER 4361                
POS_SCREENSIZE 4446                
POS_UNKNOWNREFERER 4520                
POS_UNKNOWNREFERERBROWSER 4692                
POS_ORIGIN 4774                
POS_SEREFERRALS 4906                
POS_PAGEREFS 5050                
POS_SEARCHWORDS 5198                
POS_KEYWORDS 5350                
POS_MISC 2361                
POS_ERRORS 5409                
POS_CLUSTER 3271                
POS_SIDER_404 5493                
END_MAP

# LastLine    = Date of last record processed - Last record line number in last log - Last record offset in last log - Last record signature value
# FirstTime   = Date of first visit for history file
# LastTime    = Date of last visit for history file
# LastUpdate  = Date of last update - Nb of parsed records - Nb of parsed old records - Nb of parsed new records - Nb of parsed corrupted - Nb of parsed dropped
# TotalVisits = Number of visits
# TotalUnique = Number of unique visitors
# MonthHostsKnown   = Number of hosts known
# MonthHostsUnKnown = Number of hosts unknown
BEGIN_GENERAL 8
LastLine 20180801025211 1 0 10100066585469
FirstTime 20180704085550
LastTime 20180726205507
LastUpdate 20180801071517 1 0 0 0 0
TotalVisits 9                   
TotalUnique 3                   
MonthHostsKnown 0                   
MonthHostsUnknown 3                   
END_GENERAL

# Misc ID - Pages - Hits - Bandwidth
BEGIN_MISC 10
PDFSupport 0 0 0
QuickTimeSupport 0 0 0
WindowsMediaPlayerSupport 0 0 0
AddToFavourites 0 0 0
JavascriptDisabled 0 0 0
DirectorSupport 0 0 0
TotalMisc 0 0 0
JavaEnabled 0 0 0
RealPlayerSupport 0 0 0
FlashSupport 0 0 0
END_MISC

# Hour - Pages - Hits - Bandwidth - Not viewed Pages - Not viewed Hits - Not viewed Bandwidth
BEGIN_TIME 24
0 0 0 0 0 0 0
1 0 0 0 0 0 0
2 1 1 0 0 0 0
3 0 0 0 0 0 0
4 3 3 3120 0 0 0
5 0 0 0 0 0 0
6 0 0 0 1 2 1560
7 0 0 0 0 0 0
8 2 2 0 0 0 0
9 0 0 0 0 0 0
10 0 0 0 0 0 0
11 0 0 0 0 0 0
12 0 0 0 0 0 0
13 2 2 0 1 2 1560
14 1 1 0 0 0 0
15 0 0 0 0 0 0
16 0 0 0 0 0 0
17 0 0 0 0 0 0
18 0 0 0 0 0 0
19 0 0 0 0 0 0
20 1 1 0 0 0 0
21 0 0 0 0 0 0
22 0 0 0 0 0 0
23 0 0 0 0 0 0
END_TIME

# Domain - Pages - Hits - Bandwidth
# The 25 first Pages must be first (order not required for others)
BEGIN_DOMAIN 2
de 8 8 0
us 2 2 3120
END_DOMAIN

# Cluster ID - Pages - Hits - Bandwidth
BEGIN_CLUSTER 0
END_CLUSTER

# Login - Pages - Hits - Bandwidth - Last visit
# The 10 first Pages must be first (order not required for others)
BEGIN_LOGIN 0
END_LOGIN

# Robot ID - Hits - Bandwidth - Last visit - Hits on robots.txt
# The 25 first Hits must be first (order not required for others)
BEGIN_ROBOT 1
YandexBot/ 2 3120 20180727134524 0
END_ROBOT

# Worm ID - Hits - Bandwidth - Last visit
# The 5 first Hits must be first (order not required for others)
BEGIN_WORMS 0
END_WORMS

# EMail - Hits - Bandwidth - Last visit
# The 20 first Hits must be first (order not required for others)
BEGIN_EMAILSENDER 0
END_EMAILSENDER

# EMail - Hits - Bandwidth - Last visit
# The 20 first hits must be first (order not required for others)
BEGIN_EMAILRECEIVER 0
END_EMAILRECEIVER

# Files type - Hits - Bandwidth - Bandwidth without compression - Bandwidth after compression
BEGIN_FILETYPES 1
html 10 3120 0 0
END_FILETYPES

# Downloads - Hits - Bandwidth
BEGIN_DOWNLOADS 0
END_DOWNLOADS

# OS ID - Hits
BEGIN_OS ID - Hits - Pages 2
Unknown 2 2
win7 8 8
END_OS

# Browser ID - Hits - Pages
BEGIN_BROWSER 2
chrome40.0.2214.85 8 8
mozilla 2 2
END_BROWSER

# Screen size - Hits
BEGIN_SCREENSIZE 0
END_SCREENSIZE

# Unknown referer OS - Last visit date
BEGIN_UNKNOWNREFERER 1
Mozilla/5.0_(compatible;_NetcraftSurveyAgent/1.0;__info@netcraft.com) 20180709043828
END_UNKNOWNREFERER

# Unknown referer Browser - Last visit date
BEGIN_UNKNOWNREFERERBROWSER 0
END_UNKNOWNREFERERBROWSER

# Origin - Pages - Hits 
BEGIN_ORIGIN 6
From0 10 10
From1 0 0
From2 0 0
From3 0 0
From4 0 0
From5 0 0
END_ORIGIN

# Search engine referers ID - Pages - Hits
BEGIN_SEREFERRALS 0
END_SEREFERRALS

# External page referers - Pages - Hits
# The 25 first Pages must be first (order not required for others)
BEGIN_PAGEREFS 0
END_PAGEREFS

# Search keyphrases - Number of search
# The 10 first number of search must be first (order not required for others)
BEGIN_SEARCHWORDS 0
END_SEARCHWORDS

# Search keywords - Number of search
# The 25 first number of search must be first (order not required for others)
BEGIN_KEYWORDS 0
END_KEYWORDS

# Errors - Hits - Bandwidth
BEGIN_ERRORS 1
404 2 0
END_ERRORS

# URL with 404 errors - Hits - Last URL referrer
BEGIN_SIDER_404 1
/robots.txt 2 -
END_SIDER_404

# Host - Pages - Hits - Bandwidth - Last visit date - [Start date of last visit] - [Last page of last visit]
# [Start date of last visit] and [Last page of last visit] are saved only if session is not finished
# The 25 first Hits must be first (order not required for others)
BEGIN_VISITOR 3
138.246.253.5 8 8 0 20180726205507
159.65.250.77 1 1 1560 20180709040942
165.227.71.21 1 1 1560 20180709043828
END_VISITOR

# Date - Pages - Hits - Bandwidth - Visits
BEGIN_DAY 7
20180704 1 1 0 1
20180705 1 1 0 1
20180709 2 2 3120 2
20180711 2 2 0 1
20180719 1 1 0 1
20180720 1 1 0 1
20180726 2 2 0 2
END_DAY

# Session range - Number of visits
BEGIN_SESSION 2
30mn-1h 1
0s-30s 8
END_SESSION

# URL - Pages - Bandwidth - Entry - Exit
# The 25 first Pages must be first (order not required for others)
BEGIN_SIDER 1
/ 10 3120 9 9
END_SIDER
