AWSTATS DATA FILE 7.6 (build 20161204)
# If you remove this file, all statistics for date 201808 will be lost/reset.
# Last config file used to build this data file was /home/neuracor/tmp/awstats/ssl/awstats.blog.neuracorestudio.com.conf.

# Position (offset in bytes) in this file for beginning of each section for
# direct I/O access. If you made changes somewhere in this file, you should
# also remove completely the MAP section (AWStats will rewrite it at next
# update).
BEGIN_MAP 28
POS_GENERAL 2025                
POS_TIME 2697                
POS_VISITOR 5985                
POS_DAY 6202                
POS_DOMAIN 3188                
POS_LOGIN 3422                
POS_ROBOT 3577                
POS_WORMS 3812                
POS_EMAILSENDER 3943                
POS_EMAILRECEIVER 4086                
POS_SESSION 6449                
POS_SIDER 6596                
POS_FILETYPES 4221                
POS_DOWNLOADS 4302                
POS_OS 4350                
POS_BROWSER 4438                
POS_SCREENSIZE 4537                
POS_UNKNOWNREFERER 4611                
POS_UNKNOWNREFERERBROWSER 4821                
POS_ORIGIN 4941                
POS_SEREFERRALS 5073                
POS_PAGEREFS 5217                
POS_SEARCHWORDS 5365                
POS_KEYWORDS 5517                
POS_MISC 2361                
POS_ERRORS 5576                
POS_CLUSTER 3278                
POS_SIDER_404 5660                
END_MAP

# LastLine    = Date of last record processed - Last record line number in last log - Last record offset in last log - Last record signature value
# FirstTime   = Date of first visit for history file
# LastTime    = Date of last visit for history file
# LastUpdate  = Date of last update - Nb of parsed records - Nb of parsed old records - Nb of parsed new records - Nb of parsed corrupted - Nb of parsed dropped
# TotalVisits = Number of visits
# TotalUnique = Number of unique visitors
# MonthHostsKnown   = Number of hosts known
# MonthHostsUnKnown = Number of hosts unknown
BEGIN_GENERAL 8
LastLine 20180905045820 1 0 10138437454727
FirstTime 20180801025211
LastTime 20180830160024
LastUpdate 20180905071829 1 0 0 0 0
TotalVisits 13                  
TotalUnique 4                   
MonthHostsKnown 0                   
MonthHostsUnknown 4                   
END_GENERAL

# Misc ID - Pages - Hits - Bandwidth
BEGIN_MISC 10
JavaEnabled 0 0 0
QuickTimeSupport 0 0 0
JavascriptDisabled 0 0 0
TotalMisc 0 0 0
WindowsMediaPlayerSupport 0 0 0
FlashSupport 0 0 0
RealPlayerSupport 0 0 0
PDFSupport 0 0 0
DirectorSupport 0 0 0
AddToFavourites 0 0 0
END_MISC

# Hour - Pages - Hits - Bandwidth - Not viewed Pages - Not viewed Hits - Not viewed Bandwidth
BEGIN_TIME 24
0 0 0 0 0 0 0
1 1 1 0 1 3 0
2 1 1 0 0 0 0
3 0 0 0 0 0 0
4 1 1 0 0 0 0
5 0 0 0 0 0 0
6 2 2 0 0 0 0
7 1 1 0 0 0 0
8 2 2 0 0 0 0
9 0 0 0 1 2 1560
10 2 2 3120 0 0 0
11 0 0 0 0 0 0
12 0 0 0 0 0 0
13 0 0 0 0 0 0
14 0 0 0 1 2 1560
15 0 0 0 0 0 0
16 2 2 0 0 0 0
17 0 0 0 0 0 0
18 0 0 0 0 0 0
19 0 0 0 1 1 0
20 0 0 0 0 0 0
21 0 0 0 0 0 0
22 1 1 0 3 9 615078
23 0 0 0 0 0 0
END_TIME

# Domain - Pages - Hits - Bandwidth
# The 25 first Pages must be first (order not required for others)
BEGIN_DOMAIN 2
de 11 11 0
ca 2 2 3120
END_DOMAIN

# Cluster ID - Pages - Hits - Bandwidth
BEGIN_CLUSTER 0
END_CLUSTER

# Login - Pages - Hits - Bandwidth - Last visit
# The 10 first Pages must be first (order not required for others)
BEGIN_LOGIN 0
END_LOGIN

# Robot ID - Hits - Bandwidth - Last visit - Hits on robots.txt
# The 25 first Hits must be first (order not required for others)
BEGIN_ROBOT 3
bingpreview 9 615078 20180821224418 0
YandexBot/ 2 3120 20180828145903 0
bingbot/ 2 0 20180818194040 0
END_ROBOT

# Worm ID - Hits - Bandwidth - Last visit
# The 5 first Hits must be first (order not required for others)
BEGIN_WORMS 0
END_WORMS

# EMail - Hits - Bandwidth - Last visit
# The 20 first Hits must be first (order not required for others)
BEGIN_EMAILSENDER 0
END_EMAILSENDER

# EMail - Hits - Bandwidth - Last visit
# The 20 first hits must be first (order not required for others)
BEGIN_EMAILRECEIVER 0
END_EMAILRECEIVER

# Files type - Hits - Bandwidth - Bandwidth without compression - Bandwidth after compression
BEGIN_FILETYPES 1
html 13 3120 0 0
END_FILETYPES

# Downloads - Hits - Bandwidth
BEGIN_DOWNLOADS 0
END_DOWNLOADS

# OS ID - Hits
BEGIN_OS ID - Hits - Pages 2
win7 10 10
Unknown 3 3
END_OS

# Browser ID - Hits - Pages
BEGIN_BROWSER 3
Unknown 1 1
mozilla 2 2
chrome40.0.2214.85 10 10
END_BROWSER

# Screen size - Hits
BEGIN_SCREENSIZE 0
END_SCREENSIZE

# Unknown referer OS - Last visit date
BEGIN_UNKNOWNREFERER 2
python-requests/2.19.1 20180815063727
Mozilla/5.0_(compatible;_NetcraftSurveyAgent/1.0;__info@netcraft.com) 20180811104245
END_UNKNOWNREFERER

# Unknown referer Browser - Last visit date
BEGIN_UNKNOWNREFERERBROWSER 1
python-requests/2.19.1 20180815063727
END_UNKNOWNREFERERBROWSER

# Origin - Pages - Hits 
BEGIN_ORIGIN 6
From0 13 13
From1 0 0
From2 0 0
From3 0 0
From4 0 0
From5 0 0
END_ORIGIN

# Search engine referers ID - Pages - Hits
BEGIN_SEREFERRALS 0
END_SEREFERRALS

# External page referers - Pages - Hits
# The 25 first Pages must be first (order not required for others)
BEGIN_PAGEREFS 0
END_PAGEREFS

# Search keyphrases - Number of search
# The 10 first number of search must be first (order not required for others)
BEGIN_SEARCHWORDS 0
END_SEARCHWORDS

# Search keywords - Number of search
# The 25 first number of search must be first (order not required for others)
BEGIN_KEYWORDS 0
END_KEYWORDS

# Errors - Hits - Bandwidth
BEGIN_ERRORS 1
404 4 0
END_ERRORS

# URL with 404 errors - Hits - Last URL referrer
BEGIN_SIDER_404 1
/robots.txt 4 -
END_SIDER_404

# Host - Pages - Hits - Bandwidth - Last visit date - [Start date of last visit] - [Last page of last visit]
# [Start date of last visit] and [Last page of last visit] are saved only if session is not finished
# The 25 first Hits must be first (order not required for others)
BEGIN_VISITOR 4
138.246.253.5 10 10 0 20180830160024
80.153.66.164 1 1 0 20180815063727
142.93.75.11 1 1 1560 20180811104245
142.93.70.5 1 1 1560 20180811103950
END_VISITOR

# Date - Pages - Hits - Bandwidth - Visits
BEGIN_DAY 11
20180801 1 1 0 1
20180803 1 1 0 1
20180808 1 1 0 1
20180810 1 1 0 1
20180811 2 2 3120 2
20180815 1 1 0 1
20180816 2 2 0 2
20180822 1 1 0 1
20180823 1 1 0 1
20180829 1 1 0 1
20180830 1 1 0 1
END_DAY

# Session range - Number of visits
BEGIN_SESSION 1
0s-30s 13
END_SESSION

# URL - Pages - Bandwidth - Entry - Exit
# The 25 first Pages must be first (order not required for others)
BEGIN_SIDER 1
/ 13 3120 13 13
END_SIDER
