AWSTATS DATA FILE 7.6 (build 20161204)
# If you remove this file, all statistics for date 201804 will be lost/reset.
# Last config file used to build this data file was /home/neuracor/tmp/awstats/ssl/awstats.core.neuracorestudio.com.conf.

# Position (offset in bytes) in this file for beginning of each section for
# direct I/O access. If you made changes somewhere in this file, you should
# also remove completely the MAP section (AWStats will rewrite it at next
# update).
BEGIN_MAP 28
POS_GENERAL 2025                
POS_TIME 2683                
POS_VISITOR 6102                
POS_DAY 6562                
POS_DOMAIN 3184                
POS_LOGIN 3430                
POS_ROBOT 3585                
POS_WORMS 3717                
POS_EMAILSENDER 3848                
POS_EMAILRECEIVER 3991                
POS_SESSION 6757                
POS_SIDER 6904                
POS_FILETYPES 4126                
POS_DOWNLOADS 4209                
POS_OS 4257                
POS_BROWSER 4343                
POS_SCREENSIZE 4440                
POS_UNKNOWNREFERER 4514                
POS_UNKNOWNREFERERBROWSER 4776                
POS_ORIGIN 4948                
POS_SEREFERRALS 5080                
POS_PAGEREFS 5224                
POS_SEARCHWORDS 5372                
POS_KEYWORDS 5524                
POS_MISC 2347                
POS_ERRORS 5583                
POS_CLUSTER 3286                
POS_SIDER_404 5668                
END_MAP

# LastLine    = Date of last record processed - Last record line number in last log - Last record offset in last log - Last record signature value
# FirstTime   = Date of first visit for history file
# LastTime    = Date of last visit for history file
# LastUpdate  = Date of last update - Nb of parsed records - Nb of parsed old records - Nb of parsed new records - Nb of parsed corrupted - Nb of parsed dropped
# TotalVisits = Number of visits
# TotalUnique = Number of unique visitors
# MonthHostsKnown   = Number of hosts known
# MonthHostsUnKnown = Number of hosts unknown
BEGIN_GENERAL 8
LastLine 20180502083206 1 0 9548393322045
FirstTime 0
LastTime 20180425210503
LastUpdate 20180503073141 1 0 0 0 0
TotalVisits 11                  
TotalUnique 10                  
MonthHostsKnown 0                   
MonthHostsUnknown 10                  
END_GENERAL

# Misc ID - Pages - Hits - Bandwidth
BEGIN_MISC 10
JavascriptDisabled 0 0 0
PDFSupport 0 0 0
AddToFavourites 0 0 0
QuickTimeSupport 0 0 0
TotalMisc 0 0 0
WindowsMediaPlayerSupport 0 0 0
JavaEnabled 0 0 0
DirectorSupport 0 0 0
RealPlayerSupport 0 0 0
FlashSupport 0 0 0
END_MISC

# Hour - Pages - Hits - Bandwidth - Not viewed Pages - Not viewed Hits - Not viewed Bandwidth
BEGIN_TIME 24
0 0 0 0 0 0 0
1 1 1 11188 0 0 0
2 0 0 0 0 0 0
3 1 1 11188 0 0 0
4 2 2 22376 0 0 0
5 0 0 0 3 6 0
6 0 0 0 2 2 0
7 1 1 11188 0 0 0
8 1 1 0 0 0 0
9 2 2 22376 0 0 0
10 2 2 22376 0 0 0
11 0 0 0 0 0 0
12 0 0 0 1 2 0
13 0 0 0 0 0 0
14 0 0 0 0 0 0
15 0 0 0 0 0 0
16 0 0 0 0 0 0
17 0 0 0 0 0 0
18 0 0 0 0 0 0
19 0 0 0 1 2 0
20 0 0 0 0 0 0
21 1 1 0 1 2 0
22 0 0 0 0 0 0
23 0 0 0 0 0 0
END_TIME

# Domain - Pages - Hits - Bandwidth
# The 25 first Pages must be first (order not required for others)
BEGIN_DOMAIN 3
ch 5 5 55940
us 4 4 44752
de 2 2 0
END_DOMAIN

# Cluster ID - Pages - Hits - Bandwidth
BEGIN_CLUSTER 0
END_CLUSTER

# Login - Pages - Hits - Bandwidth - Last visit
# The 10 first Pages must be first (order not required for others)
BEGIN_LOGIN 0
END_LOGIN

# Robot ID - Hits - Bandwidth - Last visit - Hits on robots.txt
# The 25 first Hits must be first (order not required for others)
BEGIN_ROBOT 0
END_ROBOT

# Worm ID - Hits - Bandwidth - Last visit
# The 5 first Hits must be first (order not required for others)
BEGIN_WORMS 0
END_WORMS

# EMail - Hits - Bandwidth - Last visit
# The 20 first Hits must be first (order not required for others)
BEGIN_EMAILSENDER 0
END_EMAILSENDER

# EMail - Hits - Bandwidth - Last visit
# The 20 first hits must be first (order not required for others)
BEGIN_EMAILRECEIVER 0
END_EMAILRECEIVER

# Files type - Hits - Bandwidth - Bandwidth without compression - Bandwidth after compression
BEGIN_FILETYPES 1
html 11 100692 0 0
END_FILETYPES

# Downloads - Hits - Bandwidth
BEGIN_DOWNLOADS 0
END_DOWNLOADS

# OS ID - Hits
BEGIN_OS ID - Hits - Pages 2
win7 2 2
Unknown 9 9
END_OS

# Browser ID - Hits - Pages
BEGIN_BROWSER 3
mozilla 4 4
Unknown 5 5
chrome40.0.2214.85 2 2
END_BROWSER

# Screen size - Hits
BEGIN_SCREENSIZE 0
END_SCREENSIZE

# Unknown referer OS - Last visit date
BEGIN_UNKNOWNREFERER 6
ok 20180410095851
en 20180412071131
Mozilla/5.0_(compatible;_NetcraftSurveyAgent/1.0;__info@netcraft.com) 20180409040557
qa 20180412011357
vr 20180413092440
hz 20180412044859
END_UNKNOWNREFERER

# Unknown referer Browser - Last visit date
BEGIN_UNKNOWNREFERERBROWSER 5
ok 20180410095851
en 20180412071131
hz 20180412044859
vr 20180413092440
qa 20180412011357
END_UNKNOWNREFERERBROWSER

# Origin - Pages - Hits 
BEGIN_ORIGIN 6
From0 11 11
From1 0 0
From2 0 0
From3 0 0
From4 0 0
From5 0 0
END_ORIGIN

# Search engine referers ID - Pages - Hits
BEGIN_SEREFERRALS 0
END_SEREFERRALS

# External page referers - Pages - Hits
# The 25 first Pages must be first (order not required for others)
BEGIN_PAGEREFS 0
END_PAGEREFS

# Search keyphrases - Number of search
# The 10 first number of search must be first (order not required for others)
BEGIN_SEARCHWORDS 0
END_SEARCHWORDS

# Search keywords - Number of search
# The 25 first number of search must be first (order not required for others)
BEGIN_KEYWORDS 0
END_KEYWORDS

# Errors - Hits - Bandwidth
BEGIN_ERRORS 1
404 14 0
END_ERRORS

# URL with 404 errors - Hits - Last URL referrer
BEGIN_SIDER_404 4
/robots.txt 6 -
/.well-known/assetlinks.json 6 -
/apple-app-site-association 1 -
/.well-known/apple-app-site-association 1 -
END_SIDER_404

# Host - Pages - Hits - Bandwidth - Last visit date - [Start date of last visit] - [Last page of last visit]
# [Start date of last visit] and [Last page of last visit] are saved only if session is not finished
# The 25 first Hits must be first (order not required for others)
BEGIN_VISITOR 10
138.246.253.19 2 2 0 20180425210503
185.35.63.46 1 1 11188 20180412011357
104.131.103.47 1 1 11188 20180409033506
104.131.184.25 1 1 11188 20180409040557
185.35.63.148 1 1 11188 20180413092440
185.35.63.9 1 1 11188 20180412044859
159.203.119.30 1 1 11188 20180408100823
104.236.27.144 1 1 11188 20180408104532
185.35.63.187 1 1 11188 20180412071131
185.35.63.47 1 1 11188 20180410095851
END_VISITOR

# Date - Pages - Hits - Bandwidth - Visits
BEGIN_DAY 7
20180405 1 1 0 1
20180408 2 2 22376 2
20180409 2 2 22376 2
20180410 1 1 11188 1
20180412 3 3 33564 3
20180413 1 1 11188 1
20180425 1 1 0 1
END_DAY

# Session range - Number of visits
BEGIN_SESSION 1
0s-30s 11
END_SESSION

# URL - Pages - Bandwidth - Entry - Exit
# The 25 first Pages must be first (order not required for others)
BEGIN_SIDER 1
/ 11 100692 11 11
END_SIDER
