AWSTATS DATA FILE 7.4 (build 20140726)
# If you remove this file, all statistics for date 201706 will be lost/reset.
# Last config file used to build this data file was /home/neuracor/tmp/awstats/ssl/awstats.neuracorestudio.com.conf.

# Position (offset in bytes) in this file for beginning of each section for
# direct I/O access. If you made changes somewhere in this file, you should
# also remove completely the MAP section (AWStats will rewrite it at next
# update).
BEGIN_MAP 28
POS_GENERAL 2020                
POS_TIME 2691                
POS_VISITOR 5924                
POS_DAY 6106                
POS_DOMAIN 3176                
POS_LOGIN 3409                
POS_ROBOT 3564                
POS_WORMS 3759                
POS_EMAILSENDER 3890                
POS_EMAILRECEIVER 4033                
POS_SESSION 6234                
POS_SIDER 6380                
POS_FILETYPES 4168                
POS_DOWNLOADS 4261                
POS_OS 4309                
POS_BROWSER 4386                
POS_SCREENSIZE 4448                
POS_UNKNOWNREFERER 4522                
POS_UNKNOWNREFERERBROWSER 4712                
POS_ORIGIN 4897                
POS_SEREFERRALS 5027                
POS_PAGEREFS 5171                
POS_SEARCHWORDS 5319                
POS_KEYWORDS 5471                
POS_MISC 2355                
POS_ERRORS 5530                
POS_CLUSTER 3265                
POS_SIDER_404 5615                
END_MAP

# LastLine    = Date of last record processed - Last record line number in last log - Last record offset in last log - Last record signature value
# FirstTime   = Date of first visit for history file
# LastTime    = Date of last visit for history file
# LastUpdate  = Date of last update - Nb of parsed records - Nb of parsed old records - Nb of parsed new records - Nb of parsed corrupted - Nb of parsed dropped
# TotalVisits = Number of visits
# TotalUnique = Number of unique visitors
# MonthHostsKnown   = Number of hosts known
# MonthHostsUnKnown = Number of hosts unknown
BEGIN_GENERAL 8
LastLine 20170704022349 1 0 3088088453218
FirstTime 20170602014533
LastTime 20170620172039
LastUpdate 20170704073010 1 0 0 0 0
TotalVisits 5                   
TotalUnique 3                   
MonthHostsKnown 0                   
MonthHostsUnknown 3                   
END_GENERAL

# Misc ID - Pages - Hits - Bandwidth
BEGIN_MISC 10
FlashSupport 0 0 0
DirectorSupport 0 0 0
TotalMisc 0 0 0
WindowsMediaPlayerSupport 0 0 0
PDFSupport 0 0 0
AddToFavourites 0 0 0
JavaEnabled 0 0 0
QuickTimeSupport 0 0 0
JavascriptDisabled 0 0 0
RealPlayerSupport 0 0 0
END_MISC

# Hour - Pages - Hits - Bandwidth - Not viewed Pages - Not viewed Hits - Not viewed Bandwidth
BEGIN_TIME 24
0 0 0 0 0 0 0
1 2 2 0 1 3 0
2 0 0 0 0 0 0
3 0 0 0 0 0 0
4 0 0 0 1 1 0
5 0 0 0 2 2 0
6 0 0 0 0 1 0
7 0 0 0 0 0 0
8 1 1 0 1 1 0
9 0 0 0 1 1 10371
10 0 0 0 1 1 0
11 0 0 0 2 2 0
12 0 0 0 1 1 0
13 0 0 0 1 1 0
14 0 0 0 1 1 0
15 0 0 0 1 1 0
16 0 0 0 1 1 0
17 2 2 87780 2 2 0
18 0 0 0 0 0 0
19 0 0 0 0 0 0
20 0 0 0 1 1 0
21 0 0 0 1 1 0
22 0 0 0 0 0 0
23 0 0 0 3 3 0
END_TIME

# Domain - Pages - Hits - Bandwidth
# The 25 first Pages must be first (order not required for others)
BEGIN_DOMAIN 2
us 3 3 0
it 2 2 87780
END_DOMAIN

# Cluster ID - Pages - Hits - Bandwidth
BEGIN_CLUSTER 0
END_CLUSTER

# Login - Pages - Hits - Bandwidth - Last visit
# The 10 first Pages must be first (order not required for others)
BEGIN_LOGIN 0
END_LOGIN

# Robot ID - Hits - Bandwidth - Last visit - Hits on robots.txt
# The 25 first Hits must be first (order not required for others)
BEGIN_ROBOT 2
checker 3 0 20170627061658 3
netcraft 1 10371 20170611090709 0
END_ROBOT

# Worm ID - Hits - Bandwidth - Last visit
# The 5 first Hits must be first (order not required for others)
BEGIN_WORMS 0
END_WORMS

# EMail - Hits - Bandwidth - Last visit
# The 20 first Hits must be first (order not required for others)
BEGIN_EMAILSENDER 0
END_EMAILSENDER

# EMail - Hits - Bandwidth - Last visit
# The 20 first hits must be first (order not required for others)
BEGIN_EMAILRECEIVER 0
END_EMAILRECEIVER

# Files type - Hits - Bandwidth - Bandwidth without compression - Bandwidth after compression
BEGIN_FILETYPES 2
html 2 87780 0 0
php 3 0 0 0
END_FILETYPES

# Downloads - Hits - Bandwidth
BEGIN_DOWNLOADS 0
END_DOWNLOADS

# OS ID - Hits
BEGIN_OS ID - Hits - Pages 1
Unknown 5 5
END_OS

# Browser ID - Hits - Pages
BEGIN_BROWSER 1
Unknown 5 5
END_BROWSER

# Screen size - Hits
BEGIN_SCREENSIZE 0
END_SCREENSIZE

# Unknown referer OS - Last visit date
BEGIN_UNKNOWNREFERER 2
WordPress/4.7.5;_https://www.neuracorestudio.com 20170616015141
redback/v0-570-g26f8c96 20170620172039
END_UNKNOWNREFERER

# Unknown referer Browser - Last visit date
BEGIN_UNKNOWNREFERERBROWSER 2
redback/v0-570-g26f8c96 20170620172039
WordPress/4.7.5;_https://www.neuracorestudio.com 20170616015141
END_UNKNOWNREFERERBROWSER

# Origin - Pages - Hits 
BEGIN_ORIGIN 6
From0 2 2
From1 0 0
From2 0 0
From3 0 0
From4 3 3
From5 0 0
END_ORIGIN

# Search engine referers ID - Pages - Hits
BEGIN_SEREFERRALS 0
END_SEREFERRALS

# External page referers - Pages - Hits
# The 25 first Pages must be first (order not required for others)
BEGIN_PAGEREFS 0
END_PAGEREFS

# Search keyphrases - Number of search
# The 10 first number of search must be first (order not required for others)
BEGIN_SEARCHWORDS 0
END_SEARCHWORDS

# Search keywords - Number of search
# The 25 first number of search must be first (order not required for others)
BEGIN_KEYWORDS 0
END_KEYWORDS

# Errors - Hits - Bandwidth
BEGIN_ERRORS 1
301 20 0
END_ERRORS

# URL with 404 errors - Hits - Last URL referrer
BEGIN_SIDER_404 0
END_SIDER_404

# Host - Pages - Hits - Bandwidth - Last visit date - [Start date of last visit] - [Last page of last visit]
# [Start date of last visit] and [Last page of last visit] are saved only if session is not finished
# The 25 first Hits must be first (order not required for others)
BEGIN_VISITOR 3
207.210.229.69 3 3 0 20170616015141
109.236.8.8 1 1 43890 20170620172036
109.236.8.6 1 1 43890 20170620172039
END_VISITOR

# Date - Pages - Hits - Bandwidth - Visits
BEGIN_DAY 4
20170602 1 1 0 1
20170611 1 1 0 1
20170616 1 1 0 1
20170620 2 2 87780 2
END_DAY

# Session range - Number of visits
BEGIN_SESSION 1
0s-30s 5
END_SESSION

# URL - Pages - Bandwidth - Entry - Exit
# The 25 first Pages must be first (order not required for others)
BEGIN_SIDER 2
/wp-cron.php 3 0 3 3
/ 2 87780 2 2
END_SIDER
