<?xml version="1.0" encoding="utf-8"?>
<!-- Generator: Adobe Illustrator 16.0.0, SVG Export Plug-In . SVG Version: 6.00 Build 0)  -->
<!DOCTYPE svg PUBLIC "-//W3C//DTD SVG 1.1//EN" "http://www.w3.org/Graphics/SVG/1.1/DTD/svg11.dtd">
<svg version="1.1" id="Capa_1" xmlns="http://www.w3.org/2000/svg" xmlns:xlink="http://www.w3.org/1999/xlink" x="0px" y="0px"
	 width="70px" height="70px" viewBox="0 0 70 70" enable-background="new 0 0 70 70" xml:space="preserve">
<g>
	<path fill="#F04E5C" d="M35.927,5.1C20.241,5.1,7.525,17.816,7.525,33.5c0,15.686,12.716,28.4,28.402,28.4
		c15.685,0,28.397-12.715,28.397-28.4C64.324,17.816,51.611,5.1,35.927,5.1 M35.927,58.43c-13.768,0-24.929-11.162-24.929-24.93
		c0-13.77,11.161-24.931,24.929-24.931c13.767,0,24.929,11.161,24.929,24.931C60.855,47.268,49.693,58.43,35.927,58.43"/>
	<path fill="#F04E5C" d="M43.122,34.106c0.208-1.669,0.411-3.306,0.62-4.987h-7.438c0-0.806-0.004-1.575,0.002-2.342
		c0.008-1.547,1.065-2.598,2.612-2.6c1.499-0.002,2.998,0,4.497-0.001c0.111,0,0.223-0.01,0.329-0.015V19.24
		c-0.099-0.011-0.179-0.027-0.261-0.027c-1.51-0.002-3.02-0.006-4.529,0.001c-1.68,0.007-3.225,0.447-4.583,1.469
		c-1.552,1.165-2.574,2.692-2.87,4.604c-0.175,1.128-0.109,2.293-0.15,3.441c-0.004,0.122,0,0.245,0,0.397h-3.71v4.986h3.691
		c0,4.282-0.189,12.307-0.199,14.272c-0.125,0.052,5.18,0.046,5.191,0V34.106H43.122z"/>
</g>
</svg>
