<fileupload size="3726">
  <file name="form_check.php" tmpfile="/home/neuracor/tmp/Cpanel_Form_file.upload.zcNQTgK6q0fkLomk">
    <progress filesize="2653" complete="1"></progress>
  </file>
</fileupload>
