<?xml version="1.0" encoding="utf-8"?>
<!-- Generator: Adobe Illustrator 16.0.0, SVG Export Plug-In . SVG Version: 6.00 Build 0)  -->
<!DOCTYPE svg PUBLIC "-//W3C//DTD SVG 1.1//EN" "http://www.w3.org/Graphics/SVG/1.1/DTD/svg11.dtd" [
	<!ENTITY ns_flows "http://ns.adobe.com/Flows/1.0/">
	<!ENTITY ns_extend "http://ns.adobe.com/Extensibility/1.0/">
	<!ENTITY ns_ai "http://ns.adobe.com/AdobeIllustrator/10.0/">
	<!ENTITY ns_graphs "http://ns.adobe.com/Graphs/1.0/">
	<!ENTITY ns_vars "http://ns.adobe.com/Variables/1.0/">
	<!ENTITY ns_imrep "http://ns.adobe.com/ImageReplacement/1.0/">
	<!ENTITY ns_sfw "http://ns.adobe.com/SaveForWeb/1.0/">
	<!ENTITY ns_custom "http://ns.adobe.com/GenericCustomNamespace/1.0/">
	<!ENTITY ns_adobe_xpath "http://ns.adobe.com/XPath/1.0/">
]>
<svg version="1.1" xmlns:x="&ns_extend;" xmlns:i="&ns_ai;" xmlns:graph="&ns_graphs;"
	 xmlns="http://www.w3.org/2000/svg" xmlns:xlink="http://www.w3.org/1999/xlink" xmlns:a="http://ns.adobe.com/AdobeSVGViewerExtensions/3.0/"
	 x="0px" y="0px" width="160px" height="100.033px" viewBox="0 0 160 100.033" enable-background="new 0 0 160 100.033"
	 xml:space="preserve">
<metadata>
	<sfw  xmlns="&ns_sfw;">
		<slices></slices>
		<sliceSourceBounds  width="6564.467" height="4220.128" x="-4024.055" y="-2365.944" bottomLeftOrigin="true">
			</sliceSourceBounds>
	</sfw>
</metadata>
<g id="Capa_1" display="none">
	<g display="inline">
		<g id="XMLID_13_">
			<g>
				<path fill="#7F8284" d="M82.191,75.693c-0.842,0.842-2.209,0.842-3.051,0l-0.264-0.264c1.07,0.225,2.18-0.105,2.953-0.879
					l35.055-35.055c0.361-0.361,0.633-0.807,0.791-1.291c0.381,0.822,0.211,1.795-0.43,2.434L82.191,75.693z"/>
				<path fill="#7F8284" d="M79.496,70.434l-2.451-20.205c-0.02-0.152,0.031-0.305,0.129-0.418L89.07,36.207
					c0.018-0.014,0.033-0.033,0.051-0.051c0.225-0.195,0.564-0.172,0.758,0.051l1.1,1.25c-0.42-0.158-0.893-0.035-1.189,0.301
					L77.895,51.359c-0.203,0.229-0.297,0.535-0.262,0.838L79.9,70.891C79.684,70.834,79.52,70.654,79.496,70.434z"/>
				<path fill="#7F8284" d="M102.301,41.977l0.6-15.074c0.008-0.137,0.064-0.27,0.166-0.363c0.209-0.207,0.553-0.203,0.76,0.01
					l1.352,1.395c-0.488-0.34-1.16-0.221-1.502,0.27c-0.113,0.168-0.182,0.367-0.189,0.574l-0.561,14.059l-0.471-0.469
					C102.352,42.271,102.293,42.125,102.301,41.977z"/>
				<path fill="#7F8284" d="M92.764,15.141l1.354,1.395c-0.416-0.287-0.988-0.252-1.367,0.113c-0.195,0.191-0.314,0.447-0.324,0.723
					l-0.016,0.34l-0.293-0.107c-0.221-0.084-0.357-0.297-0.346-0.531l0.068-1.58c0.006-0.137,0.064-0.268,0.162-0.361
					C92.219,14.924,92.559,14.928,92.764,15.141z"/>
				<path fill="#7F8284" d="M92.15,24.121l6.984,2.529c0.24,0.086,0.389,0.336,0.346,0.592l-0.068,0.432l-5.953-2.154
					c-0.561-0.203-1.178,0.086-1.381,0.646c-0.037,0.102-0.059,0.209-0.066,0.318l-0.234,5.215l-0.473-0.473
					c-0.105-0.105-0.164-0.254-0.156-0.406l0.279-6.217c0.004-0.053,0.014-0.107,0.031-0.158
					C91.561,24.162,91.873,24.018,92.15,24.121z"/>
				<path fill="#7F8284" d="M61.295,38.463l-3.271,10.869l-0.646-0.689c-0.129-0.143-0.178-0.34-0.123-0.525l3.434-11.4
					c0.025-0.084,0.07-0.158,0.131-0.225c0.209-0.209,0.549-0.217,0.762-0.006l10.732,10.508c0.047,0.047,0.088,0.102,0.111,0.158
					l-9.344-9.148c-0.426-0.416-1.109-0.408-1.525,0.018C61.436,38.145,61.346,38.297,61.295,38.463z"/>
				<path fill="#7F8284" d="M88.807,23.41l-0.012,0.654L68.07,19.428c-0.555-0.123-1.107,0.203-1.27,0.742L63.1,32.471l-0.633-0.514
					c-0.166-0.143-0.238-0.365-0.174-0.576l3.9-12.961c0.084-0.268,0.357-0.432,0.633-0.369l21.561,4.822
					C88.637,22.93,88.814,23.154,88.807,23.41z"/>
				<path fill="#7F8284" d="M47.297,37.859c-0.193-0.207-0.193-0.525,0-0.73l14.77-16.078l-1.844,4.334L48.037,38.65L47.297,37.859z
					"/>
				<path fill="#7F8284" d="M80.887,2.891l-9.152,9.965l-0.867-0.184c-0.098-0.018-0.182-0.064-0.254-0.131
					c-0.221-0.201-0.234-0.541-0.031-0.762l8.822-9.6c0.004-0.008,0.016-0.016,0.018-0.023c0.219-0.209,0.559-0.201,0.764,0.012
					L80.887,2.891z"/>
				<path fill="#7F8284" d="M116.123,35.686c0.842,0.844,0.842,2.209,0,3.051L81.066,73.789c-0.842,0.842-2.207,0.842-3.049,0
					L42.961,38.736c-0.838-0.842-0.838-2.207,0-3.051L78.018,0.631c0.842-0.842,2.207-0.842,3.049,0L116.123,35.686z
					 M114.611,38.447c0.428-0.414,0.438-1.094,0.025-1.523h-0.004l-10.42-10.75c-0.412-0.428-1.096-0.439-1.521-0.023
					c-0.199,0.193-0.316,0.455-0.33,0.73l-0.6,15.074c-0.014,0.299,0.102,0.592,0.314,0.805l3.217,3.217
					c0.416,0.416,1.088,0.424,1.512,0.016L114.611,38.447z M101.938,50.691c0.416-0.398,0.441-1.053,0.066-1.484L90.289,35.854
					c-0.395-0.449-1.074-0.492-1.523-0.102c-0.035,0.031-0.066,0.064-0.1,0.102L76.77,49.455c-0.203,0.23-0.293,0.535-0.26,0.838
					l2.451,20.203c0.07,0.592,0.607,1.016,1.199,0.943c0.23-0.029,0.449-0.135,0.617-0.297L101.938,50.691z M100.012,27.33
					c0.084-0.514-0.209-1.01-0.697-1.186l-6.98-2.531c-0.561-0.203-1.178,0.088-1.381,0.648c-0.035,0.102-0.057,0.209-0.061,0.316
					l-0.281,6.221c-0.016,0.301,0.1,0.598,0.313,0.811l5.738,5.732c0.418,0.424,1.102,0.424,1.521,0
					c0.158-0.158,0.268-0.365,0.303-0.59L100.012,27.33z M97.406,19.598c0.076-0.195,0.027-0.416-0.117-0.564l-4.137-4.268
					c-0.414-0.428-1.096-0.438-1.521-0.021c-0.199,0.191-0.316,0.447-0.326,0.723l-0.072,1.578
					c-0.021,0.467,0.256,0.893,0.693,1.061l4.787,1.807C96.99,20.018,97.301,19.877,97.406,19.598z M89.486,11.439
					c0.004-0.285-0.105-0.564-0.305-0.766l-8.609-8.883c-0.412-0.426-1.096-0.436-1.521-0.021c-0.014,0.016-0.029,0.029-0.043,0.043
					l-8.824,9.602c-0.4,0.441-0.373,1.125,0.064,1.525c0.143,0.131,0.318,0.221,0.508,0.26l17.363,3.682
					c0.582,0.121,1.154-0.252,1.279-0.832c0.016-0.068,0.023-0.139,0.023-0.207L89.486,11.439z M89.35,23.422
					c0.01-0.514-0.344-0.965-0.842-1.074l-21.563-4.82c-0.555-0.127-1.107,0.199-1.268,0.74l-3.902,12.959
					c-0.125,0.42,0.016,0.871,0.352,1.146l12.795,10.434c0.432,0.352,1.057,0.32,1.447-0.07l12.535-12.537
					c0.195-0.195,0.307-0.463,0.314-0.736L89.35,23.422z M73.596,65.201c0.234-0.223,0.357-0.529,0.34-0.848L73.01,47.318
					c-0.014-0.268-0.129-0.523-0.32-0.711l-10.732-10.51c-0.424-0.414-1.105-0.404-1.521,0.02c-0.123,0.121-0.213,0.277-0.264,0.443
					L56.74,47.963c-0.111,0.367-0.018,0.766,0.242,1.049l0.865,0.92L72.074,65.15C72.479,65.582,73.162,65.604,73.596,65.201z
					 M62.561,21.26c0.115-0.27-0.012-0.588-0.285-0.703c-0.209-0.092-0.455-0.037-0.607,0.129l-14.77,16.078
					c-0.383,0.416-0.381,1.051,0.004,1.463l4.68,5.004c0.404,0.438,1.09,0.459,1.525,0.055c0.109-0.105,0.195-0.229,0.254-0.369
					L62.561,21.26z"/>
			</g>
		</g>
		<g>
			<g>
				<path fill="#7F8284" d="M8.584,99.488l-5.141-9.633v8.561c0,0.211,0.045,0.369,0.141,0.479s0.266,0.199,0.512,0.266v0.328H0
					V99.16c0.244-0.066,0.416-0.156,0.512-0.266s0.143-0.268,0.143-0.479V86.607c0-0.205-0.047-0.361-0.143-0.469
					C0.416,86.029,0.244,85.939,0,85.873v-0.328h5.373v0.328c-0.318,0.078-0.479,0.268-0.479,0.559c0,0.139,0.049,0.295,0.145,0.471
					l3.803,7.207l3.854-7.082c0.172-0.313,0.256-0.543,0.256-0.688c0-0.277-0.17-0.434-0.51-0.467v-0.328h5.271v0.328
					c-0.244,0.066-0.416,0.156-0.51,0.266c-0.098,0.107-0.143,0.264-0.143,0.469v11.809c0,0.211,0.045,0.369,0.143,0.479
					c0.094,0.109,0.266,0.199,0.51,0.266v0.328h-4.352V99.16c0.236-0.061,0.406-0.146,0.506-0.26
					c0.098-0.111,0.146-0.273,0.146-0.484v-8.561L8.584,99.488z"/>
				<path fill="#7F8284" d="M26.576,94.391v3.184h7.473c0.168,0,0.301-0.043,0.393-0.119c0.092-0.082,0.164-0.223,0.221-0.426h0.271
					v3.004h-0.271c-0.057-0.205-0.129-0.346-0.221-0.426c-0.092-0.082-0.225-0.119-0.393-0.119H23.492v-0.271
					c0.205-0.057,0.348-0.133,0.426-0.223c0.08-0.09,0.119-0.225,0.119-0.4v-9.83c0-0.178-0.039-0.311-0.119-0.402
					c-0.078-0.09-0.221-0.164-0.426-0.221v-0.273h10.352c0.172,0,0.301-0.039,0.391-0.117c0.092-0.086,0.166-0.225,0.223-0.426
					h0.271v3.006h-0.271c-0.057-0.203-0.131-0.344-0.223-0.426c-0.09-0.08-0.219-0.119-0.391-0.119h-7.268v2.758h4.713
					c0.172,0,0.303-0.041,0.393-0.119c0.092-0.082,0.164-0.223,0.221-0.428h0.273v2.938h-0.273
					c-0.057-0.197-0.129-0.338-0.221-0.422c-0.09-0.084-0.221-0.121-0.393-0.121H26.576z"/>
				<path fill="#7F8284" d="M47.201,89.785v8.809c0,0.176,0.039,0.311,0.117,0.4c0.082,0.09,0.223,0.166,0.428,0.223v0.271h-3.627
					v-0.271c0.205-0.057,0.346-0.133,0.426-0.223s0.119-0.225,0.119-0.4v-8.809h-3.609c-0.17,0-0.301,0.037-0.391,0.117
					c-0.092,0.076-0.164,0.219-0.223,0.428H40.17v-3.006h0.271c0.061,0.203,0.139,0.346,0.227,0.426
					c0.086,0.08,0.217,0.117,0.387,0.117h9.746c0.176,0,0.311-0.037,0.4-0.117c0.092-0.08,0.164-0.223,0.221-0.426h0.273v3.006
					h-0.273c-0.057-0.209-0.129-0.352-0.221-0.428c-0.09-0.08-0.225-0.117-0.4-0.117H47.201z"/>
				<path fill="#7F8284" d="M65.725,96.525h-5.283l-0.781,1.637c-0.107,0.227-0.162,0.402-0.162,0.535c0,0.252,0.189,0.42,0.57,0.52
					v0.271h-3.844v-0.271c0.227-0.047,0.4-0.127,0.518-0.242c0.119-0.113,0.258-0.332,0.41-0.662l4.273-8.93
					c0.137-0.281,0.203-0.508,0.203-0.682c0-0.262-0.166-0.447-0.494-0.561v-0.273h4.121v0.273
					c-0.336,0.096-0.502,0.266-0.502,0.504c0,0.164,0.055,0.352,0.16,0.561l4.428,8.957c0.189,0.375,0.352,0.639,0.494,0.779
					c0.143,0.135,0.33,0.229,0.57,0.275v0.271h-4.277v-0.271c0.375-0.064,0.564-0.242,0.564-0.529c0-0.119-0.059-0.295-0.172-0.525
					L65.725,96.525z M64.994,94.934l-1.885-4.137l-1.914,4.137H64.994z"/>
				<path fill="#7F8284" d="M78.834,97.574h7.141c0.178,0,0.311-0.043,0.402-0.119c0.09-0.082,0.164-0.223,0.221-0.426h0.271v3.004
					h-0.271c-0.057-0.205-0.131-0.346-0.221-0.426c-0.092-0.082-0.225-0.119-0.402-0.119H75.752v-0.271
					c0.205-0.057,0.346-0.133,0.426-0.223s0.117-0.225,0.117-0.4v-9.83c0-0.178-0.037-0.311-0.117-0.402
					c-0.08-0.09-0.221-0.164-0.426-0.221v-0.273h3.625v0.273c-0.201,0.053-0.346,0.123-0.424,0.215
					c-0.08,0.098-0.119,0.23-0.119,0.408V97.574z"/>
				<path fill="#7F8284" d="M96.352,93.828v4.598c0,0.203,0.049,0.363,0.15,0.475c0.096,0.113,0.264,0.199,0.506,0.26v0.328h-4.355
					V99.16c0.248-0.066,0.418-0.156,0.514-0.266c0.094-0.109,0.141-0.266,0.141-0.469V86.615c0-0.211-0.047-0.369-0.141-0.477
					c-0.096-0.109-0.266-0.199-0.514-0.266v-0.328h8.705c1.014,0,1.82,0.064,2.414,0.201c0.598,0.139,1.125,0.375,1.582,0.705
					c0.467,0.348,0.838,0.805,1.102,1.373c0.266,0.584,0.398,1.205,0.398,1.855c0,0.941-0.252,1.766-0.758,2.475
					c-0.434,0.604-1.012,1.035-1.73,1.291s-1.721,0.383-3.008,0.383H96.352z M96.352,91.529h4.646c0.93,0,1.578-0.098,1.953-0.293
					c0.238-0.131,0.43-0.338,0.576-0.621c0.146-0.281,0.221-0.596,0.221-0.936c0-0.334-0.074-0.641-0.221-0.922
					c-0.146-0.285-0.338-0.488-0.576-0.621c-0.367-0.195-1.02-0.293-1.953-0.293h-4.646V91.529z"/>
				<path fill="#7F8284" d="M116.764,97.574h7.143c0.176,0,0.309-0.043,0.4-0.119c0.092-0.082,0.166-0.223,0.221-0.426h0.273v3.004
					h-0.273c-0.055-0.205-0.129-0.346-0.221-0.426c-0.092-0.082-0.225-0.119-0.4-0.119h-10.225v-0.271
					c0.203-0.057,0.346-0.133,0.428-0.223c0.078-0.09,0.119-0.225,0.119-0.4v-9.83c0-0.178-0.041-0.311-0.119-0.402
					c-0.082-0.09-0.225-0.164-0.428-0.221v-0.273h3.625v0.273c-0.201,0.053-0.344,0.123-0.424,0.215
					c-0.08,0.098-0.119,0.23-0.119,0.408V97.574z"/>
				<path fill="#7F8284" d="M133.457,94.391v3.184h7.475c0.17,0,0.303-0.043,0.391-0.119c0.09-0.082,0.164-0.223,0.223-0.426h0.27
					v3.004h-0.27c-0.059-0.205-0.133-0.346-0.223-0.426c-0.088-0.082-0.221-0.119-0.391-0.119h-10.557v-0.271
					c0.203-0.057,0.346-0.133,0.428-0.223c0.078-0.09,0.119-0.225,0.119-0.4v-9.83c0-0.178-0.041-0.311-0.119-0.402
					c-0.082-0.09-0.225-0.164-0.428-0.221v-0.273h10.352c0.172,0,0.301-0.039,0.393-0.117c0.092-0.086,0.164-0.225,0.221-0.426
					h0.273v3.006h-0.273c-0.057-0.203-0.129-0.344-0.221-0.426c-0.092-0.08-0.221-0.119-0.393-0.119h-7.27v2.758h4.715
					c0.17,0,0.301-0.041,0.395-0.119c0.09-0.082,0.162-0.223,0.219-0.428h0.275v2.938h-0.275c-0.057-0.197-0.129-0.338-0.219-0.422
					c-0.094-0.084-0.225-0.121-0.395-0.121H133.457z"/>
				<path fill="#7F8284" d="M154.967,93.475l3.51,4.514c0.385,0.502,0.66,0.818,0.828,0.955c0.17,0.135,0.398,0.227,0.695,0.273
					v0.271h-4.611v-0.271c0.344-0.07,0.512-0.217,0.512-0.443c0-0.119-0.102-0.311-0.307-0.58l-2.168-2.807l-2.189,2.711
					c-0.236,0.303-0.35,0.518-0.35,0.641c0,0.285,0.191,0.443,0.57,0.479v0.271h-4.463v-0.271c0.26-0.031,0.461-0.104,0.607-0.223
					c0.143-0.119,0.436-0.457,0.871-1.006l3.553-4.416l-3.27-4.232c-0.422-0.549-0.701-0.881-0.84-0.992
					c-0.141-0.111-0.363-0.178-0.668-0.207l-0.01-0.273h4.664v0.273c-0.342,0.09-0.514,0.266-0.514,0.52
					c0,0.133,0.125,0.361,0.367,0.68l1.805,2.324l1.869-2.324c0.27-0.344,0.406-0.588,0.406-0.73c0-0.252-0.197-0.404-0.584-0.469
					v-0.273h4.535v0.273c-0.271,0.029-0.467,0.09-0.584,0.18c-0.115,0.1-0.416,0.438-0.895,1.02L154.967,93.475z"/>
			</g>
		</g>
	</g>
</g>
<g id="Capa_2">
	<g>
		<g id="XMLID_19_">
			<g>
				<path fill="#28353B" d="M82.192,75.693c-0.842,0.842-2.208,0.842-3.05,0l-0.264-0.265c1.07,0.225,2.18-0.104,2.953-0.878
					l35.056-35.055c0.361-0.361,0.632-0.807,0.791-1.29c0.38,0.821,0.21,1.793-0.43,2.433L82.192,75.693z"/>
				<path fill="#28353B" d="M79.496,70.434l-2.451-20.206c-0.019-0.151,0.032-0.304,0.13-0.418l11.896-13.603
					c0.018-0.014,0.033-0.032,0.051-0.051c0.224-0.195,0.564-0.173,0.758,0.051l1.099,1.251c-0.419-0.159-0.893-0.037-1.189,0.3
					L77.895,51.359c-0.202,0.229-0.297,0.535-0.261,0.839L79.9,70.89C79.684,70.834,79.521,70.654,79.496,70.434z"/>
				<path fill="#28353B" d="M102.301,41.977l0.6-15.073c0.007-0.137,0.065-0.271,0.166-0.365c0.209-0.206,0.553-0.202,0.759,0.011
					l1.352,1.396c-0.488-0.34-1.16-0.221-1.5,0.268c-0.115,0.17-0.184,0.369-0.19,0.574l-0.561,14.061l-0.47-0.469
					C102.351,42.272,102.294,42.124,102.301,41.977z"/>
				<path fill="#28353B" d="M92.765,15.142l1.352,1.395c-0.416-0.288-0.987-0.253-1.367,0.112c-0.195,0.191-0.314,0.448-0.325,0.723
					l-0.015,0.34l-0.292-0.108c-0.221-0.083-0.358-0.296-0.347-0.531l0.069-1.579c0.007-0.138,0.065-0.268,0.163-0.361
					C92.219,14.924,92.559,14.928,92.765,15.142z"/>
				<path fill="#28353B" d="M92.151,24.12l6.983,2.53c0.242,0.087,0.39,0.336,0.347,0.593l-0.069,0.43l-5.954-2.154
					c-0.56-0.203-1.178,0.087-1.381,0.647c-0.036,0.102-0.058,0.21-0.065,0.317l-0.234,5.216l-0.474-0.473
					c-0.104-0.104-0.163-0.254-0.155-0.405l0.279-6.217c0.003-0.054,0.014-0.108,0.032-0.159
					C91.561,24.163,91.873,24.019,92.151,24.12z"/>
				<path fill="#28353B" d="M61.295,38.463l-3.271,10.869l-0.647-0.69c-0.13-0.141-0.177-0.34-0.123-0.524l3.434-11.4
					c0.025-0.083,0.069-0.159,0.13-0.225c0.209-0.209,0.549-0.217,0.762-0.007l10.732,10.508c0.047,0.048,0.086,0.102,0.112,0.159
					l-9.344-9.148c-0.426-0.416-1.109-0.409-1.525,0.018C61.437,38.145,61.346,38.296,61.295,38.463z"/>
				<path fill="#28353B" d="M88.807,23.411l-0.011,0.654L68.07,19.428c-0.553-0.123-1.106,0.203-1.269,0.742L63.1,32.47
					l-0.633-0.513c-0.165-0.142-0.238-0.366-0.173-0.575l3.9-12.962c0.083-0.268,0.357-0.431,0.633-0.369l21.562,4.822
					C88.637,22.931,88.814,23.154,88.807,23.411z"/>
				<path fill="#28353B" d="M47.296,37.859c-0.192-0.207-0.192-0.524,0-0.73l14.77-16.078l-1.843,4.335L48.037,38.65L47.296,37.859z
					"/>
				<path fill="#28353B" d="M80.887,2.891l-9.152,9.966l-0.868-0.185c-0.097-0.018-0.181-0.064-0.252-0.13
					c-0.221-0.202-0.236-0.542-0.033-0.763l8.824-9.601c0.004-0.007,0.014-0.015,0.018-0.021c0.217-0.21,0.557-0.203,0.763,0.011
					L80.887,2.891z"/>
				<path fill="#99B899" d="M116.123,35.687c0.842,0.843,0.842,2.208,0,3.051L81.068,73.789c-0.842,0.842-2.208,0.842-3.051,0
					L42.962,38.737c-0.839-0.843-0.839-2.208,0-3.051L78.017,0.632c0.842-0.843,2.209-0.843,3.051,0L116.123,35.687z
					 M114.612,38.448c0.427-0.416,0.438-1.095,0.025-1.525h-0.003l-10.421-10.749c-0.412-0.427-1.095-0.438-1.522-0.022
					c-0.199,0.192-0.314,0.455-0.329,0.729l-0.6,15.073c-0.015,0.301,0.101,0.593,0.314,0.807l3.217,3.217
					c0.416,0.416,1.088,0.423,1.511,0.015L114.612,38.448z M101.939,50.691c0.416-0.398,0.441-1.053,0.065-1.484L90.289,35.853
					c-0.394-0.448-1.074-0.491-1.522-0.101c-0.036,0.032-0.068,0.064-0.101,0.101L76.77,49.455c-0.203,0.23-0.293,0.534-0.26,0.838
					l2.451,20.202c0.072,0.593,0.607,1.017,1.2,0.943c0.231-0.029,0.448-0.134,0.617-0.297L101.939,50.691z M100.013,27.33
					c0.083-0.514-0.209-1.009-0.698-1.186l-6.979-2.53c-0.561-0.203-1.179,0.086-1.381,0.646c-0.036,0.102-0.058,0.21-0.062,0.318
					L90.611,30.8c-0.015,0.3,0.101,0.596,0.313,0.81l5.737,5.733c0.419,0.423,1.103,0.423,1.522,0
					c0.159-0.16,0.268-0.365,0.303-0.59L100.013,27.33z M97.406,19.598c0.077-0.195,0.029-0.416-0.116-0.563l-4.139-4.27
					c-0.412-0.426-1.095-0.438-1.521-0.021c-0.199,0.19-0.314,0.448-0.326,0.723l-0.072,1.579c-0.022,0.467,0.257,0.893,0.694,1.059
					l4.786,1.808C96.99,20.018,97.302,19.876,97.406,19.598z M89.486,11.439c0.004-0.285-0.104-0.563-0.303-0.766l-8.61-8.882
					c-0.412-0.426-1.095-0.438-1.521-0.021c-0.015,0.014-0.029,0.028-0.044,0.043l-8.823,9.601
					c-0.401,0.441-0.373,1.124,0.064,1.525c0.141,0.13,0.318,0.221,0.506,0.26l17.365,3.681c0.582,0.123,1.152-0.25,1.279-0.832
					c0.015-0.068,0.021-0.137,0.021-0.206L89.486,11.439z M89.35,23.423c0.01-0.514-0.344-0.966-0.842-1.074l-21.563-4.822
					c-0.553-0.126-1.106,0.199-1.268,0.741l-3.901,12.959c-0.126,0.419,0.015,0.871,0.351,1.146l12.796,10.436
					c0.43,0.351,1.056,0.318,1.446-0.072L88.905,30.2c0.195-0.195,0.307-0.464,0.314-0.737L89.35,23.423z M73.597,65.2
					c0.235-0.222,0.358-0.528,0.34-0.847l-0.926-17.034c-0.014-0.269-0.129-0.524-0.322-0.713L61.957,36.099
					c-0.423-0.415-1.106-0.404-1.521,0.019c-0.123,0.122-0.213,0.277-0.264,0.444l-3.431,11.4c-0.112,0.369-0.018,0.767,0.242,1.05
					l0.864,0.92l14.228,15.218C72.479,65.582,73.163,65.604,73.597,65.2z M62.561,21.261c0.116-0.271-0.011-0.59-0.285-0.705
					c-0.21-0.09-0.456-0.036-0.607,0.131l-14.77,16.077c-0.383,0.416-0.379,1.052,0.004,1.464l4.681,5.003
					c0.404,0.438,1.088,0.459,1.525,0.055c0.108-0.105,0.195-0.229,0.253-0.369L62.561,21.261z"/>
			</g>
		</g>
		<g>
			<g>
				<path fill="#EA495F" d="M8.585,99.489l-5.142-9.634v8.56c0,0.212,0.045,0.369,0.141,0.479c0.096,0.108,0.266,0.198,0.511,0.266
					v0.329H0V99.16c0.246-0.067,0.417-0.157,0.511-0.266c0.096-0.11,0.143-0.268,0.143-0.479V86.607c0-0.205-0.047-0.361-0.143-0.47
					C0.417,86.028,0.246,85.939,0,85.872v-0.328h5.374v0.328c-0.319,0.079-0.479,0.268-0.479,0.56c0,0.138,0.048,0.295,0.143,0.47
					l3.804,7.208l3.854-7.083c0.171-0.313,0.255-0.541,0.255-0.686c0-0.279-0.17-0.436-0.51-0.469v-0.328h5.271v0.328
					c-0.245,0.067-0.416,0.156-0.51,0.266c-0.097,0.108-0.143,0.265-0.143,0.47v11.808c0,0.212,0.046,0.369,0.143,0.479
					c0.094,0.108,0.265,0.198,0.51,0.266v0.329h-4.351V99.16c0.237-0.061,0.407-0.147,0.506-0.26
					c0.098-0.112,0.147-0.273,0.147-0.485v-8.56L8.585,99.489z"/>
				<path fill="#EA495F" d="M26.576,94.39v3.186h7.473c0.168,0,0.3-0.044,0.393-0.12c0.091-0.082,0.163-0.222,0.219-0.427h0.273
					v3.004h-0.273c-0.056-0.204-0.128-0.345-0.219-0.426c-0.093-0.082-0.225-0.117-0.393-0.117H23.493v-0.273
					c0.205-0.057,0.347-0.132,0.426-0.222c0.08-0.09,0.119-0.225,0.119-0.4v-9.83c0-0.178-0.039-0.312-0.119-0.401
					c-0.079-0.092-0.221-0.165-0.426-0.222v-0.272h10.352c0.17,0,0.3-0.041,0.39-0.119c0.092-0.084,0.165-0.225,0.223-0.426h0.272
					v3.006h-0.272c-0.058-0.203-0.131-0.343-0.223-0.425c-0.09-0.079-0.22-0.12-0.39-0.12h-7.269v2.758h4.714
					c0.171,0,0.301-0.04,0.392-0.118c0.092-0.082,0.165-0.224,0.221-0.429h0.273v2.938h-0.273c-0.056-0.198-0.129-0.339-0.221-0.421
					c-0.09-0.085-0.221-0.123-0.392-0.123H26.576z"/>
				<path fill="#EA495F" d="M47.201,89.784v8.81c0,0.176,0.041,0.311,0.118,0.4c0.082,0.09,0.222,0.165,0.427,0.222v0.273h-3.625
					v-0.273c0.204-0.057,0.344-0.132,0.425-0.222c0.08-0.09,0.119-0.225,0.119-0.4v-8.81h-3.608c-0.171,0-0.301,0.037-0.392,0.117
					c-0.091,0.076-0.164,0.219-0.222,0.428H40.17v-3.006h0.272c0.061,0.204,0.139,0.348,0.226,0.428
					c0.088,0.079,0.218,0.117,0.389,0.117h9.746c0.176,0,0.31-0.038,0.399-0.117c0.092-0.08,0.165-0.224,0.221-0.428h0.273v3.006
					h-0.273c-0.057-0.209-0.129-0.352-0.221-0.428c-0.09-0.08-0.224-0.117-0.399-0.117H47.201z"/>
				<path fill="#EA495F" d="M65.725,96.525h-5.283l-0.782,1.636c-0.107,0.228-0.161,0.402-0.161,0.536
					c0,0.251,0.189,0.42,0.57,0.519v0.273h-3.844v-0.273c0.227-0.046,0.4-0.126,0.518-0.241c0.119-0.113,0.257-0.332,0.409-0.663
					l4.274-8.929c0.137-0.281,0.203-0.509,0.203-0.682c0-0.262-0.165-0.446-0.493-0.561v-0.272h4.121v0.272
					c-0.335,0.095-0.502,0.267-0.502,0.503c0,0.165,0.054,0.352,0.161,0.562l4.427,8.956c0.188,0.376,0.353,0.639,0.494,0.779
					c0.144,0.136,0.332,0.229,0.571,0.275v0.273h-4.278v-0.273c0.375-0.064,0.564-0.241,0.564-0.527
					c0-0.121-0.058-0.297-0.171-0.527L65.725,96.525z M64.994,94.934l-1.884-4.138l-1.914,4.138H64.994z"/>
				<path fill="#EA495F" d="M78.833,97.575h7.142c0.178,0,0.311-0.044,0.402-0.12c0.09-0.082,0.165-0.222,0.221-0.427h0.272v3.004
					h-0.272c-0.056-0.204-0.131-0.345-0.221-0.426c-0.091-0.082-0.225-0.117-0.402-0.117H75.753v-0.273
					c0.205-0.057,0.345-0.132,0.424-0.222c0.081-0.09,0.119-0.225,0.119-0.4v-9.83c0-0.178-0.038-0.312-0.119-0.401
					c-0.079-0.092-0.22-0.165-0.424-0.222v-0.272h3.625v0.272c-0.202,0.053-0.347,0.122-0.424,0.214
					c-0.081,0.098-0.121,0.231-0.121,0.409V97.575z"/>
				<path fill="#28353B" d="M96.352,93.829v4.597c0,0.202,0.049,0.362,0.149,0.475c0.097,0.112,0.266,0.199,0.506,0.26v0.329h-4.354
					V99.16c0.247-0.067,0.417-0.157,0.513-0.266c0.093-0.11,0.142-0.267,0.142-0.469v-11.81c0-0.212-0.048-0.37-0.142-0.479
					c-0.096-0.109-0.266-0.198-0.513-0.266v-0.328h8.704c1.013,0,1.82,0.065,2.415,0.202c0.598,0.138,1.125,0.375,1.583,0.704
					c0.466,0.35,0.836,0.807,1.102,1.373c0.265,0.585,0.397,1.205,0.397,1.856c0,0.94-0.251,1.766-0.757,2.476
					c-0.433,0.604-1.012,1.033-1.731,1.289c-0.718,0.257-1.72,0.385-3.008,0.385H96.352z M96.352,91.529h4.646
					c0.929,0,1.578-0.098,1.954-0.294c0.237-0.129,0.429-0.337,0.576-0.621c0.146-0.281,0.219-0.595,0.219-0.935
					c0-0.334-0.073-0.64-0.219-0.923c-0.146-0.284-0.339-0.487-0.576-0.619c-0.369-0.196-1.02-0.295-1.954-0.295h-4.646V91.529z"/>
				<path fill="#28353B" d="M116.764,97.575h7.144c0.175,0,0.308-0.044,0.399-0.12c0.091-0.082,0.165-0.222,0.22-0.427h0.274v3.004
					h-0.274c-0.055-0.204-0.129-0.345-0.22-0.426c-0.092-0.082-0.224-0.117-0.399-0.117h-10.226v-0.273
					c0.204-0.057,0.345-0.132,0.428-0.222c0.078-0.09,0.119-0.225,0.119-0.4v-9.83c0-0.178-0.042-0.312-0.119-0.401
					c-0.083-0.092-0.224-0.165-0.428-0.222v-0.272h3.625v0.272c-0.201,0.053-0.344,0.122-0.424,0.214
					c-0.079,0.098-0.119,0.231-0.119,0.409V97.575z"/>
				<path fill="#28353B" d="M133.457,94.39v3.186h7.475c0.169,0,0.302-0.044,0.39-0.12c0.091-0.082,0.166-0.222,0.224-0.427h0.27
					v3.004h-0.27c-0.058-0.204-0.133-0.345-0.224-0.426c-0.088-0.082-0.221-0.117-0.39-0.117h-10.556v-0.273
					c0.204-0.057,0.345-0.132,0.427-0.222c0.078-0.09,0.12-0.225,0.12-0.4v-9.83c0-0.178-0.042-0.312-0.12-0.401
					c-0.082-0.092-0.224-0.165-0.427-0.222v-0.272h10.35c0.172,0,0.302-0.041,0.394-0.119c0.091-0.084,0.165-0.225,0.22-0.426h0.274
					v3.006h-0.274c-0.055-0.203-0.128-0.343-0.22-0.425c-0.092-0.079-0.221-0.12-0.394-0.12h-7.269v2.758h4.716
					c0.17,0,0.301-0.04,0.394-0.118c0.09-0.082,0.163-0.224,0.22-0.429h0.273v2.938h-0.273c-0.057-0.198-0.13-0.339-0.22-0.421
					c-0.093-0.085-0.224-0.123-0.394-0.123H133.457z"/>
				<path fill="#28353B" d="M154.968,93.475l3.509,4.515c0.384,0.5,0.66,0.817,0.828,0.954c0.169,0.134,0.399,0.227,0.695,0.272
					v0.273h-4.612v-0.273c0.344-0.068,0.513-0.217,0.513-0.443c0-0.118-0.101-0.311-0.306-0.579l-2.168-2.807l-2.189,2.712
					c-0.236,0.302-0.351,0.516-0.351,0.64c0,0.285,0.193,0.443,0.572,0.478v0.273h-4.465v-0.273c0.26-0.03,0.462-0.104,0.609-0.222
					c0.143-0.119,0.435-0.457,0.872-1.005l3.552-4.416l-3.271-4.233c-0.421-0.549-0.701-0.881-0.839-0.991
					c-0.14-0.113-0.363-0.179-0.667-0.208l-0.01-0.272h4.664v0.272c-0.342,0.089-0.513,0.267-0.513,0.519
					c0,0.134,0.125,0.361,0.366,0.681l1.806,2.323l1.868-2.323c0.271-0.345,0.407-0.589,0.407-0.73c0-0.253-0.197-0.405-0.585-0.469
					v-0.272h4.536v0.272c-0.272,0.029-0.467,0.089-0.583,0.18c-0.115,0.099-0.416,0.437-0.896,1.02L154.968,93.475z"/>
			</g>
		</g>
	</g>
</g>
</svg>
