<?xml version="1.0" encoding="utf-8"?>
<!-- Generator: Adobe Illustrator 16.0.0, SVG Export Plug-In . SVG Version: 6.00 Build 0)  -->
<!DOCTYPE svg PUBLIC "-//W3C//DTD SVG 1.1//EN" "http://www.w3.org/Graphics/SVG/1.1/DTD/svg11.dtd" [
	<!ENTITY ns_flows "http://ns.adobe.com/Flows/1.0/">
	<!ENTITY ns_extend "http://ns.adobe.com/Extensibility/1.0/">
	<!ENTITY ns_ai "http://ns.adobe.com/AdobeIllustrator/10.0/">
	<!ENTITY ns_graphs "http://ns.adobe.com/Graphs/1.0/">
	<!ENTITY ns_vars "http://ns.adobe.com/Variables/1.0/">
	<!ENTITY ns_imrep "http://ns.adobe.com/ImageReplacement/1.0/">
	<!ENTITY ns_sfw "http://ns.adobe.com/SaveForWeb/1.0/">
	<!ENTITY ns_custom "http://ns.adobe.com/GenericCustomNamespace/1.0/">
	<!ENTITY ns_adobe_xpath "http://ns.adobe.com/XPath/1.0/">
]>
<svg version="1.1" id="Capa_1" xmlns:x="&ns_extend;" xmlns:i="&ns_ai;" xmlns:graph="&ns_graphs;"
	 xmlns="http://www.w3.org/2000/svg" xmlns:xlink="http://www.w3.org/1999/xlink" xmlns:a="http://ns.adobe.com/AdobeSVGViewerExtensions/3.0/"
	 x="0px" y="0px" width="198.254px" height="56.855px" viewBox="0 0 198.254 56.855" enable-background="new 0 0 198.254 56.855"
	 xml:space="preserve">
<metadata>
	<sfw  xmlns="&ns_sfw;">
		<slices></slices>
		<sliceSourceBounds  width="6564.467" height="4220.128" x="-4024.055" y="-2365.944" bottomLeftOrigin="true">
			</sliceSourceBounds>
	</sfw>
</metadata>
<g>
	<g>
		<path fill="#DD344A" d="M16.784,16.701c-1.243,1.221-2.275,2.623-3.075,4.15l1.562,2.184c1.967-1.232,3.409-3.193,4.022-5.494
			L16.784,16.701z"/>
		<path fill="#DD344A" d="M35.994,13.68c-1.554-0.789-3.212-1.322-4.915-1.596l-1.573,2.178c1.795,1.473,4.113,2.213,6.488,2.064
			V13.68z"/>
		<path fill="#DD344A" d="M44.957,31.037c0.264-1.721,0.253-3.463-0.019-5.166l-2.561-0.816c-0.836,2.164-0.818,4.6,0.065,6.809
			L44.957,31.037z"/>
		<path fill="#DD344A" d="M31.177,44.984c1.72-0.275,3.374-0.824,4.911-1.604l-0.01-2.686c-2.317-0.133-4.629,0.633-6.46,2.152
			L31.177,44.984z"/>
		<path fill="#DD344A" d="M13.668,36.146c0.791,1.551,1.818,2.959,3.031,4.182l2.554-0.832c-0.584-2.246-2.021-4.211-4.027-5.488
			L13.668,36.146z"/>
		<path fill="#DD344A" d="M40.638,29.131c-0.219-3.234,0.792-6.189,2.531-8.16c-0.798-1.537-1.82-2.936-3.039-4.145
			c-2.096,0.867-4.683,1.066-7.304,0.387c-3.136-0.814-5.618-2.703-6.939-4.973c-1.722,0.27-3.351,0.799-4.854,1.555
			c0.146,2.262-0.489,4.771-1.965,7.033c-1.771,2.715-4.353,4.465-6.926,4.994c-0.151,0.902-0.249,1.822-0.249,2.77
			c0,0.836,0.083,1.652,0.202,2.455c2.193,0.564,4.377,1.949,6.068,4.055c2.029,2.533,2.888,5.537,2.585,8.148
			c1.593,0.84,3.342,1.416,5.19,1.697c1.192-1.924,3.164-3.598,5.678-4.586c3.023-1.184,6.146-1.111,8.552-0.041
			c1.274-1.273,2.327-2.758,3.134-4.389C41.824,34.215,40.822,31.826,40.638,29.131 M28.489,33.539
			c-2.758,0-4.995-2.234-4.995-4.992c0-2.76,2.236-4.994,4.995-4.994c2.757,0,4.994,2.234,4.994,4.994
			C33.483,31.305,31.246,33.539,28.489,33.539"/>
		<path fill="#DD344A" d="M28.43,0C12.729,0,0,12.73,0,28.43s12.729,28.426,28.43,28.426c15.7,0,28.427-12.727,28.427-28.426
			S44.129,0,28.43,0 M28.43,53.385c-13.782,0-24.953-11.174-24.953-24.955c0-13.783,11.171-24.955,24.953-24.955
			c13.781,0,24.953,11.172,24.953,24.955C53.382,42.211,42.21,53.385,28.43,53.385"/>
	</g>
	<g>
		<path fill="#7F8284" d="M69.397,40.555c0,0.283,0.079,0.547,0.235,0.797c0.158,0.252,0.371,0.471,0.642,0.656
			c0.274,0.191,0.589,0.332,0.95,0.441c0.362,0.104,0.75,0.154,1.167,0.154c0.415,0,0.803-0.045,1.165-0.141
			c0.359-0.1,0.678-0.24,0.947-0.416c0.272-0.178,0.487-0.395,0.644-0.646c0.158-0.26,0.235-0.537,0.235-0.846
			c0-0.303-0.078-0.566-0.235-0.793c-0.157-0.225-0.372-0.422-0.644-0.588c-0.269-0.166-0.588-0.299-0.947-0.408
			c-0.362-0.104-0.75-0.191-1.165-0.26c-0.452-0.07-0.872-0.164-1.263-0.285c-0.391-0.123-0.735-0.281-1.032-0.479
			c-0.297-0.195-0.53-0.43-0.7-0.701c-0.17-0.273-0.254-0.588-0.254-0.955s0.083-0.695,0.254-0.992
			c0.17-0.297,0.401-0.555,0.694-0.768c0.293-0.209,0.636-0.375,1.032-0.488c0.395-0.115,0.817-0.17,1.269-0.17
			c0.447,0,0.871,0.063,1.266,0.189c0.395,0.129,0.739,0.301,1.031,0.516c0.294,0.215,0.524,0.473,0.694,0.77
			s0.256,0.611,0.256,0.943h-0.51c0-0.264-0.072-0.514-0.217-0.746c-0.144-0.232-0.34-0.436-0.586-0.605
			c-0.246-0.17-0.535-0.303-0.866-0.408c-0.332-0.102-0.688-0.15-1.068-0.15c-0.383,0-0.74,0.043-1.072,0.135
			c-0.332,0.09-0.62,0.215-0.867,0.383c-0.245,0.162-0.441,0.363-0.584,0.602c-0.145,0.238-0.218,0.504-0.218,0.791
			c0,0.281,0.075,0.529,0.224,0.744c0.149,0.217,0.348,0.404,0.599,0.557c0.251,0.152,0.542,0.281,0.873,0.381
			c0.33,0.104,0.68,0.178,1.045,0.229c0.482,0.076,0.938,0.18,1.362,0.313c0.424,0.133,0.795,0.297,1.114,0.504
			c0.319,0.201,0.57,0.449,0.751,0.736c0.183,0.291,0.274,0.625,0.274,1.006s-0.092,0.734-0.274,1.053
			c-0.182,0.318-0.432,0.592-0.751,0.809c-0.318,0.223-0.69,0.391-1.114,0.516c-0.424,0.123-0.879,0.188-1.362,0.188
			c-0.486,0-0.94-0.07-1.364-0.207c-0.424-0.133-0.798-0.316-1.114-0.549c-0.32-0.229-0.569-0.494-0.752-0.805
			c-0.183-0.311-0.272-0.643-0.272-1.004H69.397z"/>
		<polygon fill="#7F8284" points="84.172,33.869 84.172,34.379 80.606,34.379 80.606,42.912 80.094,42.912 80.094,34.379 
			76.53,34.379 76.53,33.869 		"/>
		<path fill="#7F8284" d="M92.324,33.869h0.508v5.578c0,0.51-0.094,0.986-0.285,1.436c-0.191,0.447-0.452,0.832-0.785,1.166
			c-0.333,0.328-0.72,0.59-1.166,0.781c-0.445,0.189-0.922,0.289-1.432,0.289s-0.988-0.1-1.435-0.289
			c-0.445-0.191-0.832-0.453-1.165-0.781c-0.33-0.334-0.592-0.719-0.784-1.166c-0.19-0.449-0.287-0.926-0.287-1.436v-5.578h0.511
			v5.578c0,0.436,0.083,0.844,0.248,1.229c0.166,0.389,0.39,0.725,0.674,1.01c0.286,0.285,0.621,0.508,1.008,0.672
			c0.384,0.166,0.795,0.248,1.229,0.248c0.433,0,0.843-0.082,1.229-0.248c0.387-0.164,0.721-0.387,1.007-0.672
			c0.283-0.285,0.51-0.621,0.674-1.01c0.166-0.385,0.25-0.793,0.25-1.229V33.869z"/>
		<path fill="#7F8284" d="M95.252,33.869h3.247c0.622,0,1.206,0.117,1.76,0.357c0.55,0.236,1.033,0.561,1.439,0.969
			c0.407,0.404,0.729,0.889,0.968,1.441c0.24,0.551,0.356,1.135,0.356,1.756c0,0.629-0.117,1.215-0.356,1.76
			c-0.239,0.549-0.561,1.027-0.968,1.438c-0.406,0.406-0.889,0.729-1.439,0.967c-0.554,0.238-1.138,0.355-1.76,0.355h-3.247V33.869z
			 M95.762,42.404h2.737c0.553,0,1.073-0.102,1.562-0.313c0.488-0.207,0.912-0.494,1.272-0.859c0.363-0.367,0.648-0.791,0.863-1.281
			c0.211-0.49,0.316-1.008,0.316-1.559c0-0.553-0.105-1.074-0.316-1.563c-0.215-0.486-0.5-0.914-0.863-1.271
			c-0.36-0.363-0.784-0.652-1.272-0.863c-0.488-0.209-1.008-0.316-1.562-0.316h-2.737V42.404z"/>
		<rect x="104.933" y="33.869" fill="#7F8284" width="0.51" height="9.043"/>
		<path fill="#7F8284" d="M107.341,38.391c0-0.65,0.123-1.266,0.367-1.842c0.248-0.57,0.584-1.074,1.014-1.5
			c0.428-0.428,0.928-0.766,1.503-1.012c0.571-0.248,1.186-0.369,1.839-0.369c0.656,0,1.27,0.121,1.843,0.369
			c0.57,0.246,1.07,0.584,1.501,1.012c0.428,0.426,0.767,0.93,1.011,1.5c0.248,0.576,0.371,1.191,0.371,1.842
			c0,0.654-0.123,1.271-0.371,1.842c-0.245,0.572-0.583,1.074-1.011,1.5c-0.432,0.434-0.932,0.77-1.501,1.014
			c-0.574,0.248-1.187,0.373-1.843,0.373c-0.653,0-1.268-0.125-1.839-0.373c-0.575-0.244-1.075-0.58-1.503-1.014
			c-0.43-0.426-0.767-0.928-1.014-1.5C107.464,39.662,107.341,39.045,107.341,38.391 M107.849,38.391
			c0,0.584,0.112,1.133,0.332,1.643c0.219,0.51,0.523,0.957,0.903,1.34c0.385,0.381,0.829,0.684,1.336,0.902
			c0.51,0.223,1.06,0.328,1.644,0.328c0.586,0,1.135-0.105,1.645-0.328c0.508-0.219,0.954-0.521,1.335-0.902
			c0.384-0.383,0.686-0.83,0.907-1.34c0.218-0.51,0.33-1.059,0.33-1.643s-0.112-1.131-0.33-1.641
			c-0.221-0.512-0.523-0.957-0.907-1.34c-0.381-0.381-0.828-0.682-1.335-0.902c-0.51-0.223-1.059-0.332-1.645-0.332
			c-0.584,0-1.134,0.109-1.644,0.332c-0.508,0.221-0.951,0.521-1.336,0.902c-0.379,0.383-0.684,0.828-0.903,1.34
			C107.961,37.26,107.849,37.807,107.849,38.391"/>
		<polygon fill="#DD344A" points="70.05,15.568 70.05,28.621 69.24,28.621 69.24,14.23 70.05,14.23 80.103,27.281 80.103,14.23 
			80.913,14.23 80.913,28.621 80.103,28.621 		"/>
		<polygon fill="#DD344A" points="94.898,14.23 94.898,15.043 85.776,15.043 85.776,21.02 94.29,21.02 94.29,21.832 85.776,21.832 
			85.776,27.809 94.898,27.809 94.898,28.621 84.967,28.621 84.967,14.23 		"/>
		<path fill="#DD344A" d="M108.719,14.23h0.811v8.877c0,0.809-0.15,1.574-0.456,2.279c-0.304,0.713-0.72,1.328-1.247,1.855
			c-0.526,0.525-1.146,0.941-1.855,1.248c-0.709,0.303-1.467,0.453-2.279,0.453c-0.811,0-1.57-0.15-2.28-0.453
			c-0.708-0.307-1.327-0.723-1.856-1.248c-0.526-0.527-0.94-1.143-1.245-1.855c-0.305-0.705-0.455-1.471-0.455-2.279V14.23h0.811
			v8.877c0,0.691,0.13,1.342,0.395,1.957c0.263,0.613,0.621,1.15,1.075,1.604c0.451,0.449,0.985,0.807,1.6,1.07
			c0.614,0.266,1.267,0.398,1.956,0.398c0.69,0,1.341-0.133,1.957-0.398c0.614-0.264,1.147-0.621,1.6-1.07
			c0.452-0.453,0.812-0.99,1.076-1.604c0.264-0.615,0.395-1.266,0.395-1.957V14.23z"/>
		<path fill="#DD344A" d="M119.705,14.23c0.635,0,1.231,0.121,1.794,0.367c0.559,0.242,1.049,0.572,1.467,0.99
			c0.419,0.42,0.75,0.914,0.992,1.469c0.247,0.566,0.368,1.16,0.368,1.797c0,0.568-0.096,1.102-0.285,1.611
			c-0.188,0.508-0.452,0.959-0.789,1.355c-0.339,0.402-0.738,0.732-1.197,1.006c-0.459,0.271-0.958,0.453-1.499,0.547l3.567,5.248
			h-0.973l-3.506-5.168h-5.453v5.168h-0.81V14.23H119.705z M119.705,22.641c0.525,0,1.019-0.096,1.479-0.291
			c0.458-0.195,0.861-0.465,1.206-0.813c0.343-0.344,0.617-0.746,0.82-1.203c0.204-0.461,0.304-0.953,0.304-1.48
			s-0.1-1.021-0.304-1.48c-0.203-0.461-0.477-0.861-0.82-1.207c-0.345-0.344-0.748-0.619-1.206-0.818
			c-0.46-0.205-0.954-0.305-1.479-0.305h-5.515v7.598H119.705z"/>
		<path fill="#DD344A" d="M138.875,28.621h-0.892l-1.925-4.416h-7.924l-1.904,4.416h-0.894l6.245-14.391h1.051L138.875,28.621z
			 M128.5,23.395h7.216l-3.61-8.311L128.5,23.395z"/>
		<path fill="#7F8284" d="M153.257,24.438l1.338,1.113c-1.378,1.662-3.484,2.715-5.835,2.715c-4.152,0-7.513-3.262-7.513-7.256
			c0-3.99,3.361-7.273,7.513-7.273c2.351,0,4.457,1.076,5.835,2.738l-1.338,1.113c-1.034-1.34-2.652-2.229-4.497-2.229
			c-3.157,0-5.733,2.43-5.733,5.65c0,3.201,2.576,5.635,5.733,5.635C150.605,26.645,152.224,25.771,153.257,24.438"/>
		<path fill="#7F8284" d="M171.253,21.01c0,3.994-3.36,7.256-7.553,7.256c-4.153,0-7.538-3.262-7.538-7.256
			c0-3.988,3.385-7.25,7.538-7.25C167.893,13.76,171.253,17.021,171.253,21.01 M169.472,21.01c0-3.117-2.573-5.652-5.772-5.652
			c-3.183,0-5.774,2.535-5.774,5.652c0,3.121,2.591,5.652,5.774,5.652C166.898,26.662,169.472,24.131,169.472,21.01"/>
		<path fill="#7F8284" d="M180.235,23.725c-0.304,0.021-0.627,0.041-0.951,0.041h-3.483v4.377h-1.743V13.865h5.854
			c3.911,0,5.247,2.305,5.247,4.818c0,2.529-1.175,4.066-3.182,4.701l3.605,4.758h-2.105L180.235,23.725z M175.801,22.33h3.423
			c2.591,0,4.131-1.176,4.131-3.547c0-1.781-0.951-3.443-3.665-3.443h-3.89V22.33z"/>
		<polygon fill="#7F8284" points="198.254,26.664 198.254,28.143 187.923,28.143 187.923,13.865 197.828,13.865 197.828,15.34 
			189.603,15.34 189.603,20.486 196.572,20.486 196.572,21.945 189.603,21.945 189.603,26.664 		"/>
	</g>
</g>
</svg>
