<?xml version="1.0" encoding="utf-8"?>
<!-- Generator: Adobe Illustrator 16.0.0, SVG Export Plug-In . SVG Version: 6.00 Build 0)  -->
<!DOCTYPE svg PUBLIC "-//W3C//DTD SVG 1.1//EN" "http://www.w3.org/Graphics/SVG/1.1/DTD/svg11.dtd" [
	<!ENTITY ns_flows "http://ns.adobe.com/Flows/1.0/">
	<!ENTITY ns_extend "http://ns.adobe.com/Extensibility/1.0/">
	<!ENTITY ns_ai "http://ns.adobe.com/AdobeIllustrator/10.0/">
	<!ENTITY ns_graphs "http://ns.adobe.com/Graphs/1.0/">
	<!ENTITY ns_vars "http://ns.adobe.com/Variables/1.0/">
	<!ENTITY ns_imrep "http://ns.adobe.com/ImageReplacement/1.0/">
	<!ENTITY ns_sfw "http://ns.adobe.com/SaveForWeb/1.0/">
	<!ENTITY ns_custom "http://ns.adobe.com/GenericCustomNamespace/1.0/">
	<!ENTITY ns_adobe_xpath "http://ns.adobe.com/XPath/1.0/">
]>
<svg version="1.1" xmlns:x="&ns_extend;" xmlns:i="&ns_ai;" xmlns:graph="&ns_graphs;"
	 xmlns="http://www.w3.org/2000/svg" xmlns:xlink="http://www.w3.org/1999/xlink" xmlns:a="http://ns.adobe.com/AdobeSVGViewerExtensions/3.0/"
	 x="0px" y="0px" width="94.035px" height="100.001px" viewBox="0 0 94.035 100.001" enable-background="new 0 0 94.035 100.001"
	 xml:space="preserve">
<metadata>
	<sfw  xmlns="&ns_sfw;">
		<slices></slices>
		<sliceSourceBounds  width="6564.467" height="4220.128" x="-4024.055" y="-2365.944" bottomLeftOrigin="true">
			</sliceSourceBounds>
	</sfw>
</metadata>
<g id="Capa_1" display="none">
	<g display="inline">
		<path fill="#7F8284" d="M44.363,0.021c20.328-0.643,38.111,16.52,38.146,37.727c0.035,21.318-17.955,37.799-37.881,37.963
			C24.375,75.877,6.416,58.217,6.492,37.621C6.566,17.506,24.086-0.715,44.363,0.021 M44.572,5.979
			C26.818,5.961,12.66,19.957,12.625,37.563C12.588,55.445,26.568,69.574,44.318,69.59c17.881,0.016,32.17-13.994,32.129-31.881
			C76.404,19.271,61.203,5.719,44.572,5.979"/>
		<path fill="#7F8284" d="M40.527,61.494c-2.797,1.326-4.74,1.42-6.908,1.477c-4.145,0.111-6.771-2.506-6.527-6.662
			c0.178-3.035-0.844-4.924-3.516-6.379c-3.441-1.875-4.43-7.129-2.139-10.604c0.77-1.164,0.748-1.953-0.006-3.107
			c-2.482-3.809-1.105-8.656,2.848-10.945c1.711-0.99,2.924-2.381,2.777-4.67c-0.186-2.869,0.176-5.795,3.074-7.215
			s5.998-1.344,8.934,0.24c0.281,0.15,0.535,0.35,0.857,0.564c2.063-3.068,7.57-4.408,10.752-2.635
			c1.387,0.773,2.674,2.307,3.25,3.789c0.617,1.588,1.475,2.143,2.934,2.211c1.227,0.059,2.459-0.027,3.684,0.055
			c2.83,0.189,5.15,2.418,5.285,5.242c0.105,2.227,0.492,4.561-1.143,6.508c-3.363,4-10.725,2.971-12.947-1.748
			c-0.344-0.729-1.1-1.447-1.84-1.768c-5.941-2.574-12.613,0.748-14.16,7.043c-0.832,3.381-0.805,6.789,0.146,10.166
			c1.701,6.021,8.041,9.156,13.83,6.729c0.842-0.354,1.709-1.184,2.088-2.012c1.732-3.781,5.084-4.297,9.484-3.617
			c3.004,0.465,4.574,2.895,4.602,6.459c0.041,5.35-1.959,7.352-7.354,7.377c-0.775,0.004-1.656-0.176-2.297,0.131
			c-0.822,0.393-1.813,1.059-2.098,1.838c-1.195,3.256-2.885,4.541-6.291,4.686C44.719,64.779,41.863,64.021,40.527,61.494
			 M55.379,24.479c-0.012,2.939,0.473,3.457,3.264,3.473c2.795,0.018,3.234-0.422,3.242-3.24c0.008-2.986-0.4-3.459-3.014-3.475
			C55.922,21.217,55.391,21.711,55.379,24.479 M61.896,51.025c0.002-2.938-0.395-3.41-2.848-3.404
			c-3.061,0.01-3.666,0.553-3.67,3.303c-0.006,2.869,0.609,3.426,3.764,3.404C61.496,54.314,61.893,53.838,61.896,51.025
			 M34.418,52.174c-2.639-0.006-3.355,0.484-3.373,2.303c-0.033,3.641,0.416,4.209,3.322,4.207c2.83,0,3.352-0.488,3.363-3.148
			C37.742,52.605,37.324,52.18,34.418,52.174 M50.213,57.807c0.008-3.01-0.277-3.314-3.111-3.332
			c-3.051-0.018-3.393,0.287-3.404,3.039c-0.014,3.066,0.357,3.469,3.225,3.473C49.854,60.99,50.203,60.65,50.213,57.807
			 M43.699,17.66c-0.014,3.141,0.256,3.43,3.197,3.436c2.939,0.004,3.295-0.311,3.314-2.93c0.023-3.107-0.375-3.563-3.127-3.582
			C44.08,14.564,43.709,14.9,43.699,17.66 M30.855,32.008c0.006-2.967-0.352-3.396-2.859-3.412c-3.205-0.021-3.662,0.385-3.66,3.254
			c0.002,2.875,0.354,3.225,3.248,3.236C30.67,35.098,30.85,34.93,30.855,32.008 M27.688,40.467
			c-2.684-0.105-3.246,0.313-3.346,2.488c-0.145,3.164,0.363,3.914,2.713,4.018c3.068,0.135,3.699-0.273,3.787-2.447
			C30.984,40.949,30.703,40.588,27.688,40.467 M34.461,16.887c-2.928-0.01-3.24,0.295-3.25,3.164
			c-0.008,2.992,0.307,3.336,3.082,3.342c2.926,0.008,3.441-0.486,3.441-3.291C37.734,17.336,37.287,16.898,34.461,16.887"/>
		<polygon fill="#7F8284" points="77.535,82.594 89.002,82.594 89.002,85.92 81.74,85.92 81.74,89.436 88.457,89.436 88.457,92.617 
			81.699,92.617 81.699,96.424 89.002,96.424 89.002,99.709 77.535,99.709 		"/>
		<polygon fill="#7F8284" points="28.697,82.594 40.164,82.594 40.164,85.92 32.904,85.92 32.904,89.436 39.621,89.436 
			39.621,92.617 32.861,92.617 32.861,96.424 40.164,96.424 40.164,99.709 28.697,99.709 		"/>
		<path fill="#7F8284" d="M65.943,82.678h-5.148v16.906h6.717c0,0,8.35,0.502,8.35-8.725C75.861,81.631,65.943,82.678,65.943,82.678
			 M66.445,96.49h-1.443V85.832h1.191c0,0,5.398-0.66,5.398,5.158S66.445,96.49,66.445,96.49"/>
		<polygon fill="#7F8284" points="59.164,82.641 54.205,82.641 50.521,91.115 46.629,82.641 41.775,82.641 41.775,99.588 
			45.814,99.588 45.814,88.41 48.869,95.588 51.756,95.588 54.979,88.033 54.979,99.588 59.164,99.588 		"/>
		<polygon fill="#7F8284" points="19.836,92.617 19.836,82.594 15.672,82.594 15.672,99.709 27.139,99.709 27.139,96.424 
			19.836,96.424 		"/>
		<path fill="#7F8284" d="M14.094,87.762h-0.408c0,0-2.951-3.389-6.529-1.977s-2.762,6.779-2.762,6.779s0.408,3.045,2.73,3.828
			c2.322,0.785,4.395,0.283,6.592-1.82l0.377,0.063v3.83c0,0-4.27,2.699-9.166,0.941S0,92.375,0,90.209
			c0-2.164,1.539-6.506,6.371-7.615c4.834-1.109,7.723,1.244,7.723,1.244V87.762z"/>
		<path fill="#7F8284" d="M94.035,83.857c0,0.887-0.695,1.582-1.6,1.582c-0.896,0-1.609-0.695-1.609-1.582
			c0-0.865,0.713-1.561,1.609-1.561C93.34,82.297,94.035,82.992,94.035,83.857 M91.225,83.857c0,0.695,0.516,1.248,1.219,1.248
			c0.688,0,1.191-0.553,1.191-1.238c0-0.695-0.504-1.256-1.199-1.256S91.225,83.172,91.225,83.857 M92.188,84.678h-0.361v-1.563
			c0.143-0.029,0.342-0.047,0.6-0.047c0.295,0,0.428,0.047,0.543,0.113c0.086,0.066,0.152,0.191,0.152,0.344
			c0,0.172-0.135,0.305-0.324,0.361v0.02c0.152,0.057,0.238,0.172,0.285,0.381c0.049,0.238,0.076,0.334,0.115,0.391h-0.391
			c-0.049-0.057-0.076-0.201-0.125-0.381c-0.027-0.172-0.123-0.248-0.322-0.248h-0.172V84.678z M92.197,83.791h0.17
			c0.201,0,0.363-0.066,0.363-0.229c0-0.143-0.105-0.238-0.334-0.238c-0.096,0-0.162,0.01-0.199,0.02V83.791z"/>
	</g>
</g>
<g id="Capa_2">
	<g>
		<path fill="#0054A2" d="M44.363,0.021c20.328-0.643,38.113,16.52,38.147,37.726c0.036,21.318-17.956,37.8-37.881,37.964
			C24.375,75.878,6.416,58.216,6.492,37.621C6.566,17.506,24.085-0.715,44.363,0.021 M44.573,5.977
			C26.819,5.959,12.661,19.956,12.625,37.562c-0.037,17.884,13.944,32.013,31.694,32.027c17.881,0.017,32.17-13.992,32.129-31.88
			C76.405,19.271,61.204,5.719,44.573,5.977"/>
		<path fill="#0054A2" d="M40.527,61.494c-2.797,1.326-4.741,1.419-6.907,1.477c-4.146,0.11-6.772-2.507-6.528-6.662
			c0.178-3.036-0.843-4.924-3.515-6.379c-3.442-1.875-4.432-7.13-2.139-10.604c0.769-1.165,0.746-1.953-0.007-3.109
			c-2.483-3.808-1.105-8.655,2.848-10.943c1.71-0.99,2.924-2.382,2.777-4.671c-0.185-2.868,0.177-5.794,3.076-7.214
			c2.898-1.42,5.998-1.344,8.934,0.239c0.28,0.151,0.534,0.35,0.857,0.564c2.061-3.068,7.571-4.407,10.751-2.635
			c1.387,0.773,2.675,2.307,3.25,3.789c0.617,1.589,1.474,2.143,2.934,2.212c1.226,0.058,2.459-0.027,3.683,0.055
			c2.831,0.189,5.15,2.418,5.285,5.242c0.105,2.227,0.494,4.561-1.142,6.507c-3.362,4-10.724,2.971-12.948-1.749
			c-0.343-0.727-1.099-1.446-1.839-1.768c-5.941-2.572-12.613,0.75-14.161,7.044c-0.831,3.382-0.805,6.79,0.147,10.166
			c1.7,6.023,8.04,9.157,13.829,6.729c0.842-0.354,1.709-1.184,2.089-2.012c1.731-3.78,5.084-4.296,9.485-3.616
			c3.002,0.464,4.573,2.895,4.6,6.459c0.041,5.35-1.958,7.351-7.354,7.376c-0.774,0.004-1.656-0.176-2.297,0.131
			c-0.822,0.393-1.812,1.059-2.098,1.838c-1.194,3.257-2.885,4.542-6.292,4.686C44.72,64.778,41.862,64.021,40.527,61.494
			 M55.379,24.479c-0.012,2.938,0.474,3.455,3.263,3.473c2.795,0.018,3.236-0.423,3.244-3.241c0.008-2.986-0.402-3.459-3.014-3.476
			C55.922,21.216,55.39,21.71,55.379,24.479 M61.896,51.025c0.003-2.938-0.393-3.411-2.847-3.404
			c-3.061,0.009-3.666,0.553-3.67,3.303c-0.005,2.868,0.61,3.425,3.764,3.404C61.497,54.313,61.893,53.838,61.896,51.025
			 M34.418,52.173c-2.638-0.006-3.357,0.484-3.373,2.303c-0.033,3.643,0.415,4.209,3.321,4.209c2.831-0.001,3.353-0.489,3.364-3.15
			C37.743,52.605,37.323,52.18,34.418,52.173 M50.212,57.807c0.009-3.01-0.277-3.315-3.11-3.332
			c-3.051-0.018-3.393,0.287-3.405,3.038c-0.014,3.067,0.359,3.469,3.226,3.473C49.854,60.989,50.204,60.651,50.212,57.807
			 M43.699,17.659c-0.013,3.141,0.256,3.43,3.198,3.436c2.939,0.005,3.295-0.31,3.314-2.93c0.023-3.107-0.375-3.563-3.127-3.581
			C44.081,14.563,43.71,14.9,43.699,17.659 M30.856,32.008c0.006-2.968-0.353-3.396-2.861-3.413
			c-3.205-0.021-3.661,0.385-3.659,3.255c0.001,2.874,0.354,3.225,3.248,3.235C30.671,35.097,30.85,34.928,30.856,32.008
			 M27.687,40.467c-2.683-0.106-3.245,0.312-3.344,2.488c-0.145,3.163,0.362,3.914,2.713,4.017c3.068,0.135,3.698-0.272,3.786-2.447
			C30.985,40.949,30.703,40.587,27.687,40.467 M34.46,16.887c-2.927-0.012-3.24,0.294-3.249,3.164
			c-0.009,2.992,0.307,3.335,3.082,3.341c2.927,0.007,3.442-0.485,3.441-3.291C37.734,17.336,37.288,16.896,34.46,16.887"/>
		<polygon fill="#0054A2" points="77.536,82.594 89.002,82.594 89.002,85.92 81.741,85.92 81.741,89.436 88.458,89.436 
			88.458,92.616 81.7,92.616 81.7,96.425 89.002,96.425 89.002,99.71 77.536,99.71 		"/>
		<polygon fill="#0054A2" points="28.698,82.594 40.165,82.594 40.165,85.92 32.904,85.92 32.904,89.436 39.621,89.436 
			39.621,92.616 32.862,92.616 32.862,96.425 40.165,96.425 40.165,99.71 28.698,99.71 		"/>
		<path fill="#0054A2" d="M65.943,82.677h-5.147v16.907h6.717c0,0,8.349,0.502,8.349-8.726S65.943,82.677,65.943,82.677
			 M66.446,96.491h-1.444v-10.66h1.192c0,0,5.399-0.659,5.399,5.158C71.593,96.808,66.446,96.491,66.446,96.491"/>
		<polygon fill="#0054A2" points="59.164,82.642 54.205,82.642 50.522,91.115 46.63,82.642 41.776,82.642 41.776,99.589 
			45.814,99.589 45.814,88.41 48.869,95.588 51.756,95.588 54.979,88.034 54.979,99.589 59.164,99.589 		"/>
		<polygon fill="#0054A2" points="19.836,92.616 19.836,82.594 15.672,82.594 15.672,99.71 27.139,99.71 27.139,96.425 
			19.836,96.425 		"/>
		<path fill="#0054A2" d="M14.093,87.762h-0.408c0,0-2.95-3.39-6.528-1.978c-3.578,1.413-2.762,6.779-2.762,6.779
			s0.408,3.045,2.731,3.83c2.322,0.784,4.394,0.282,6.591-1.82l0.377,0.063v3.829c0,0-4.269,2.699-9.165,0.941S0,92.376,0,90.21
			s1.538-6.508,6.372-7.616c4.833-1.109,7.721,1.245,7.721,1.245V87.762z"/>
		<path fill="#0054A2" d="M94.035,83.858c0,0.886-0.695,1.581-1.6,1.581c-0.896,0-1.609-0.695-1.609-1.581
			c0-0.866,0.714-1.562,1.609-1.562C93.34,82.297,94.035,82.992,94.035,83.858 M91.226,83.858c0,0.695,0.514,1.247,1.219,1.247
			c0.686,0,1.19-0.552,1.19-1.237c0-0.695-0.504-1.258-1.2-1.258S91.226,83.173,91.226,83.858 M92.188,84.677h-0.362v-1.562
			c0.143-0.028,0.343-0.047,0.6-0.047c0.295,0,0.429,0.047,0.543,0.113c0.086,0.067,0.152,0.19,0.152,0.343
			c0,0.172-0.133,0.306-0.324,0.362v0.02c0.152,0.057,0.238,0.171,0.286,0.381c0.048,0.237,0.076,0.333,0.114,0.39h-0.391
			c-0.047-0.057-0.076-0.199-0.124-0.38c-0.029-0.172-0.124-0.248-0.324-0.248h-0.171V84.677z M92.197,83.792h0.171
			c0.2,0,0.362-0.067,0.362-0.229c0-0.144-0.104-0.238-0.333-0.238c-0.095,0-0.162,0.009-0.2,0.019V83.792z"/>
	</g>
</g>
</svg>
