<?xml version="1.0" encoding="utf-8"?>
<!-- Generator: Adobe Illustrator 16.0.0, SVG Export Plug-In . SVG Version: 6.00 Build 0)  -->
<!DOCTYPE svg PUBLIC "-//W3C//DTD SVG 1.1//EN" "http://www.w3.org/Graphics/SVG/1.1/DTD/svg11.dtd" [
	<!ENTITY ns_flows "http://ns.adobe.com/Flows/1.0/">
	<!ENTITY ns_extend "http://ns.adobe.com/Extensibility/1.0/">
	<!ENTITY ns_ai "http://ns.adobe.com/AdobeIllustrator/10.0/">
	<!ENTITY ns_graphs "http://ns.adobe.com/Graphs/1.0/">
	<!ENTITY ns_vars "http://ns.adobe.com/Variables/1.0/">
	<!ENTITY ns_imrep "http://ns.adobe.com/ImageReplacement/1.0/">
	<!ENTITY ns_sfw "http://ns.adobe.com/SaveForWeb/1.0/">
	<!ENTITY ns_custom "http://ns.adobe.com/GenericCustomNamespace/1.0/">
	<!ENTITY ns_adobe_xpath "http://ns.adobe.com/XPath/1.0/">
]>
<svg version="1.1" xmlns:x="&ns_extend;" xmlns:i="&ns_ai;" xmlns:graph="&ns_graphs;"
	 xmlns="http://www.w3.org/2000/svg" xmlns:xlink="http://www.w3.org/1999/xlink" xmlns:a="http://ns.adobe.com/AdobeSVGViewerExtensions/3.0/"
	 x="0px" y="0px" width="86.958px" height="100px" viewBox="0 0 86.958 100" enable-background="new 0 0 86.958 100"
	 xml:space="preserve">
<metadata>
	<sfw  xmlns="&ns_sfw;">
		<slices></slices>
		<sliceSourceBounds  width="6564.467" height="4220.128" x="-4024.055" y="-2365.944" bottomLeftOrigin="true">
			</sliceSourceBounds>
	</sfw>
</metadata>
<g id="Capa_1" display="none">
	<g display="inline">
		<g>
			<polygon fill="#7F8284" points="72.795,14.125 72.795,42.328 58.338,27.768 30.769,0 10.865,0 86.92,76.598 86.92,0 41.627,0 
				55.651,14.125 			"/>
		</g>
		<g>
			<polygon fill="#7F8284" points="14.125,62.475 14.125,34.271 28.582,48.834 56.15,76.598 76.054,76.598 0,0 0,76.598 
				45.293,76.598 31.269,62.475 			"/>
		</g>
		<g>
			<path fill="#7F8284" d="M8.639,100H2.358H0.035V85.018h2.343v12.863h6.261V100z"/>
			<path fill="#7F8284" d="M19.889,96.791h-5.331L13.287,100h-2.584l6.521-15.668L23.726,100h-2.565L19.889,96.791z M19.041,94.691
				l-1.817-4.564l-1.817,4.564H19.041z"/>
			<path fill="#7F8284" d="M35,100l-5.937-6.783V100H26.72V85.018h2.343v6.18l4.805-6.18h2.949l-5.492,7.209L37.928,100H35z"/>
			<path fill="#7F8284" d="M48.433,96.992c-0.424,1.455-1.736,2.604-3.373,2.928c-0.303,0.061-0.605,0.08-0.909,0.08
				c-0.605,0-1.211-0.1-1.776-0.322c-0.949-0.383-1.776-1.01-2.484-1.918l1.858-1.455c0.424,0.566,0.93,0.971,1.474,1.172
				c0.444,0.182,0.929,0.223,1.374,0.121c0.767-0.143,1.393-0.646,1.574-1.252c0.202-0.688-0.262-1.293-0.687-1.695
				c-0.667-0.627-1.757-1.697-1.838-1.777l-1.837-1.738c-0.564-0.543-0.949-1.15-1.15-1.795c-0.203-0.627-0.223-1.293-0.041-1.898
				c0.181-0.646,0.564-1.211,1.11-1.676c0.505-0.426,1.131-0.727,1.797-0.848c0.727-0.164,1.494-0.102,2.223,0.16
				c0.766,0.303,1.453,0.809,2.039,1.514l-1.838,1.477c-0.768-0.93-1.556-0.93-1.979-0.85c-0.526,0.102-0.97,0.445-1.091,0.869
				c-0.081,0.283-0.061,0.746,0.565,1.352l2.504,2.402c0.363,0.365,0.807,0.789,1.131,1.092c0.646,0.586,1.089,1.252,1.313,1.957
				C48.615,95.578,48.635,96.305,48.433,96.992z"/>
			<path fill="#7F8284" d="M62.431,100h-2.342v-6.461h-5.977V100h-2.342V85.018h2.342v6.402h5.977v-6.402h2.342V100z"/>
			<path fill="#7F8284" d="M78.208,100v-7.955l-4.686,6.986l-4.704-6.986V100h-2.343V84.332l7.047,10.5l7.047-10.5V100H78.208z"/>
			<path fill="#7F8284" d="M84.614,100V85.018h2.344V100H84.614z"/>
		</g>
	</g>
</g>
<g id="Capa_2">
	<g>
		<g>
			<polygon fill="#FFC300" points="72.795,14.125 72.795,42.326 58.338,27.766 30.769,0 10.865,0 86.92,76.598 86.92,0 41.627,0 
				55.651,14.125 			"/>
		</g>
		<g>
			<polygon fill="#FFC300" points="14.125,62.474 14.125,34.271 28.582,48.832 56.15,76.598 76.054,76.598 0,0 0,76.598 
				45.293,76.598 31.269,62.474 			"/>
		</g>
		<g>
			<path fill="#FFC300" d="M8.639,100H2.358H0.035V85.018h2.343V97.88h6.261V100z"/>
			<path fill="#FFC300" d="M19.889,96.789h-5.331L13.287,100h-2.584l6.521-15.669L23.726,100h-2.565L19.889,96.789z M19.041,94.689
				l-1.818-4.563l-1.816,4.563H19.041z"/>
			<path fill="#FFC300" d="M35,100l-5.937-6.784V100H26.72V85.018h2.343v6.179l4.805-6.179h2.949l-5.493,7.208L37.928,100H35z"/>
			<path fill="#FFC300" d="M48.433,96.991c-0.424,1.455-1.736,2.604-3.373,2.929c-0.303,0.061-0.605,0.08-0.908,0.08
				c-0.605,0-1.212-0.101-1.777-0.322c-0.949-0.384-1.776-1.01-2.484-1.918l1.857-1.455c0.425,0.565,0.93,0.97,1.475,1.172
				c0.443,0.181,0.929,0.222,1.373,0.12c0.767-0.142,1.393-0.646,1.575-1.252c0.202-0.686-0.262-1.292-0.687-1.695
				c-0.667-0.626-1.757-1.696-1.838-1.777l-1.837-1.737c-0.564-0.545-0.949-1.15-1.15-1.796c-0.204-0.626-0.223-1.292-0.041-1.898
				c0.182-0.646,0.564-1.211,1.11-1.676c0.505-0.425,1.13-0.728,1.797-0.848c0.727-0.163,1.494-0.102,2.222,0.161
				c0.767,0.303,1.454,0.808,2.04,1.514l-1.837,1.476c-0.768-0.93-1.556-0.93-1.979-0.85c-0.526,0.101-0.97,0.445-1.091,0.869
				c-0.081,0.283-0.061,0.747,0.565,1.353l2.505,2.402c0.362,0.364,0.807,0.789,1.13,1.091c0.646,0.586,1.089,1.252,1.313,1.959
				C48.614,95.578,48.635,96.305,48.433,96.991z"/>
			<path fill="#FFC300" d="M62.431,100h-2.343v-6.462h-5.977V100h-2.342V85.018h2.342v6.4h5.977v-6.4h2.343V100z"/>
			<path fill="#FFC300" d="M78.208,100v-7.955l-4.685,6.985l-4.705-6.985V100h-2.343V84.331l7.048,10.5l7.047-10.5V100H78.208z"/>
			<path fill="#FFC300" d="M84.614,100V85.018h2.344V100H84.614z"/>
		</g>
	</g>
</g>
</svg>
