<?xml version="1.0" encoding="utf-8"?>
<!-- Generator: Adobe Illustrator 16.0.0, SVG Export Plug-In . SVG Version: 6.00 Build 0)  -->
<!DOCTYPE svg PUBLIC "-//W3C//DTD SVG 1.1//EN" "http://www.w3.org/Graphics/SVG/1.1/DTD/svg11.dtd" [
	<!ENTITY ns_flows "http://ns.adobe.com/Flows/1.0/">
	<!ENTITY ns_extend "http://ns.adobe.com/Extensibility/1.0/">
	<!ENTITY ns_ai "http://ns.adobe.com/AdobeIllustrator/10.0/">
	<!ENTITY ns_graphs "http://ns.adobe.com/Graphs/1.0/">
	<!ENTITY ns_vars "http://ns.adobe.com/Variables/1.0/">
	<!ENTITY ns_imrep "http://ns.adobe.com/ImageReplacement/1.0/">
	<!ENTITY ns_sfw "http://ns.adobe.com/SaveForWeb/1.0/">
	<!ENTITY ns_custom "http://ns.adobe.com/GenericCustomNamespace/1.0/">
	<!ENTITY ns_adobe_xpath "http://ns.adobe.com/XPath/1.0/">
]>
<svg version="1.1" id="Capa_1" xmlns:x="&ns_extend;" xmlns:i="&ns_ai;" xmlns:graph="&ns_graphs;"
	 xmlns="http://www.w3.org/2000/svg" xmlns:xlink="http://www.w3.org/1999/xlink" xmlns:a="http://ns.adobe.com/AdobeSVGViewerExtensions/3.0/"
	 x="0px" y="0px" width="538.195px" height="688.684px" viewBox="0 0 538.195 688.684" enable-background="new 0 0 538.195 688.684"
	 xml:space="preserve">
<metadata>
	<sfw  xmlns="&ns_sfw;">
		<slices></slices>
		<sliceSourceBounds  width="6564.467" height="4220.128" x="-4024.055" y="-2365.944" bottomLeftOrigin="true">
			</sliceSourceBounds>
	</sfw>
</metadata>
<g>
	<g>
		<g>
			<g>
				<path fill="#7F8284" d="M130.185,70.227L130.185,70.227c0-0.01-0.005-0.018-0.005-0.027c-0.002-0.121-0.024-0.242-0.071-0.357
					c-0.03-0.07-0.083-0.128-0.129-0.191c-0.031-0.042-0.047-0.091-0.086-0.13L117.973,57.6c-0.387-0.388-1.023-0.388-1.411,0
					c-0.387,0.388-0.387,1.022,0,1.41l10.219,10.217H94.184c-0.021,0-0.037,0.012-0.056,0.012c-0.489-4.323-4.155-7.685-8.61-7.685
					c-4.789,0-8.671,3.883-8.671,8.673c0,4.457,3.365,8.125,7.693,8.611c-0.004,0.034-0.02,0.063-0.02,0.099v26.793
					c0,0.549,0.448,0.998,0.997,0.998s0.998-0.449,0.998-0.998V78.937c0-0.035-0.017-0.064-0.021-0.099
					c4.004-0.45,7.18-3.625,7.633-7.627c0.019,0,0.035,0.011,0.056,0.011h32.78l-10.402,10.403c-0.387,0.388-0.387,1.022,0,1.409
					c0.388,0.39,1.024,0.39,1.411,0l11.921-11.919c0.219-0.219,0.3-0.512,0.273-0.797C130.17,70.285,130.185,70.258,130.185,70.227z
					 M85.518,77.893c-4.234,0-7.669-3.434-7.669-7.666c0-4.237,3.435-7.671,7.669-7.671s7.668,3.434,7.668,7.671
					C93.186,74.459,89.752,77.893,85.518,77.893z"/>
				<circle fill="#7F8284" cx="85.518" cy="70.225" r="2.233"/>
			</g>
		</g>
		<circle fill="none" stroke="#7F8284" stroke-width="3.1372" stroke-miterlimit="10" cx="85.518" cy="70.226" r="8.233"/>
	</g>
	<g>
		<g>
			<g>
				<path fill="#7F8284" d="M85.221,628.087L85.221,628.087c-0.01,0-0.018,0.005-0.027,0.005c-0.121,0.002-0.242,0.024-0.357,0.071
					c-0.07,0.03-0.128,0.083-0.191,0.129c-0.042,0.031-0.091,0.047-0.13,0.086l-11.921,11.921c-0.388,0.387-0.388,1.023,0,1.411
					c0.388,0.387,1.022,0.387,1.41,0l10.217-10.219v32.597c0,0.021,0.012,0.037,0.012,0.056c-4.323,0.489-7.685,4.155-7.685,8.61
					c0,4.789,3.883,8.671,8.673,8.671c4.457,0,8.125-3.365,8.611-7.693c0.034,0.004,0.063,0.02,0.099,0.02h26.793
					c0.549,0,0.998-0.448,0.998-0.997s-0.449-0.998-0.998-0.998H93.931c-0.035,0-0.064,0.017-0.099,0.021
					c-0.45-4.004-3.625-7.18-7.627-7.633c0-0.019,0.011-0.035,0.011-0.056v-32.78l10.403,10.402c0.388,0.387,1.022,0.387,1.409,0
					c0.39-0.388,0.39-1.024,0-1.411l-11.919-11.921c-0.219-0.219-0.512-0.3-0.797-0.273
					C85.279,628.102,85.252,628.087,85.221,628.087z M92.887,672.754c0,4.234-3.434,7.669-7.666,7.669
					c-4.237,0-7.671-3.435-7.671-7.669s3.434-7.668,7.671-7.668C89.453,665.086,92.887,668.52,92.887,672.754z"/>
				<circle fill="#7F8284" cx="85.219" cy="672.754" r="2.233"/>
			</g>
		</g>
		<circle fill="none" stroke="#7F8284" stroke-width="3.1372" stroke-miterlimit="10" cx="85.22" cy="672.754" r="8.233"/>
	</g>
	<g>
		<g>
			<g>
				<path fill="#7F8284" d="M428.795,673.051L428.795,673.051c0,0.01,0.005,0.018,0.005,0.027c0.002,0.121,0.024,0.242,0.071,0.357
					c0.03,0.07,0.083,0.128,0.129,0.191c0.031,0.042,0.047,0.091,0.086,0.13l11.921,11.921c0.387,0.388,1.023,0.388,1.411,0
					c0.387-0.388,0.387-1.022,0-1.41l-10.219-10.217h32.597c0.021,0,0.037-0.012,0.056-0.012c0.489,4.323,4.155,7.685,8.61,7.685
					c4.789,0,8.671-3.883,8.671-8.673c0-4.457-3.365-8.125-7.693-8.611c0.004-0.034,0.02-0.063,0.02-0.099v-26.793
					c0-0.549-0.448-0.998-0.997-0.998s-0.998,0.449-0.998,0.998v26.793c0,0.035,0.017,0.064,0.021,0.099
					c-4.004,0.45-7.18,3.625-7.633,7.627c-0.019,0-0.035-0.011-0.056-0.011h-32.78l10.402-10.403c0.387-0.388,0.387-1.022,0-1.409
					c-0.388-0.39-1.024-0.39-1.411,0l-11.921,11.919c-0.219,0.219-0.3,0.512-0.273,0.797
					C428.81,672.992,428.795,673.02,428.795,673.051z M473.462,665.385c4.234,0,7.669,3.434,7.669,7.666
					c0,4.237-3.435,7.671-7.669,7.671s-7.668-3.434-7.668-7.671C465.794,668.818,469.228,665.385,473.462,665.385z"/>
				<circle fill="#7F8284" cx="473.462" cy="673.052" r="2.233"/>
			</g>
		</g>
		<circle fill="none" stroke="#7F8284" stroke-width="3.1372" stroke-miterlimit="10" cx="473.462" cy="673.052" r="8.233"/>
	</g>
	<g>
		<g>
			<g>
				<path fill="#7F8284" d="M473.759,113.835L473.759,113.835c0.01,0,0.018-0.005,0.027-0.005c0.121-0.002,0.242-0.024,0.357-0.071
					c0.07-0.03,0.128-0.083,0.191-0.129c0.042-0.031,0.091-0.047,0.13-0.086l11.921-11.921c0.388-0.387,0.388-1.023,0-1.411
					c-0.388-0.387-1.022-0.387-1.41,0l-10.217,10.219V77.834c0-0.021-0.012-0.037-0.012-0.056c4.323-0.489,7.685-4.155,7.685-8.61
					c0-4.789-3.883-8.671-8.673-8.671c-4.457,0-8.125,3.365-8.611,7.693c-0.034-0.004-0.063-0.02-0.099-0.02h-26.793
					c-0.549,0-0.998,0.448-0.998,0.997s0.449,0.998,0.998,0.998h26.793c0.035,0,0.064-0.017,0.099-0.021
					c0.45,4.004,3.625,7.18,7.627,7.633c0,0.019-0.011,0.035-0.011,0.056v32.78l-10.403-10.402c-0.388-0.387-1.022-0.387-1.409,0
					c-0.39,0.388-0.39,1.024,0,1.411l11.919,11.921c0.219,0.219,0.512,0.3,0.797,0.273
					C473.7,113.82,473.728,113.835,473.759,113.835z M466.093,69.168c0-4.234,3.434-7.669,7.666-7.669
					c4.237,0,7.671,3.435,7.671,7.669s-3.434,7.668-7.671,7.668C469.526,76.836,466.093,73.402,466.093,69.168z"/>
				<circle fill="#7F8284" cx="473.76" cy="69.168" r="2.233"/>
			</g>
		</g>
		<circle fill="none" stroke="#7F8284" stroke-width="3.1372" stroke-miterlimit="10" cx="473.76" cy="69.168" r="8.233"/>
	</g>
	<path id="XMLID_310_" fill="#DA344A" d="M118.885,218.765l-2.077-28.028h-3.556l-2.562,28.028h-0.703l-2.078-28.028h-3.556
		l-2.563,28.028h-0.701h-8.197H87.76l-14.638-12.778l-0.086,9.337l-10.694-9.337l-0.073,7.855l-8.997-7.855l-0.118,12.778h-0.008
		v31.813h45.689v-14.545h8.044v14.545H119.2v-31.813H118.885z"/>
	<path id="XMLID_264_" fill="#DA344A" d="M117.626,508.064l2.207-4.445c0,0-5.565,1.529-6.611,1.706
		c-0.742,0.125-1.358-0.456-1.655-0.804c0.036-0.552,0.061-1.106,0.061-1.666c0-0.565-0.024-1.124-0.062-1.68l0.011,0.046
		l5.936-4.228l0.553-4.933c0,0-4.707,3.341-5.629,3.864c-0.652,0.369-1.425,0.039-1.824-0.187c-0.311-1.068-0.688-2.107-1.131-3.113
		l0.005,0.007l4.132-6.004l-1.168-4.824c0,0-3.279,4.75-3.967,5.557c-0.487,0.571-1.33,0.523-1.782,0.448
		c-0.663-0.904-1.388-1.762-2.162-2.568l0.045,0.034l1.829-7.055l-2.746-4.135c0,0-1.459,5.585-1.828,6.579
		c-0.262,0.701-1.064,0.946-1.517,1.029c-0.915-0.612-1.873-1.165-2.867-1.657l0.007,0.002l-0.694-7.255l-3.996-2.944
		c0,0,0.54,5.746,0.533,6.806c-0.007,0.748-0.678,1.254-1.073,1.486c-1.067-0.26-2.16-0.455-3.275-0.576h0.021l-3.133-6.582
		l-4.764-1.4c0,0,2.474,5.216,2.829,6.215c0.251,0.706-0.21,1.411-0.5,1.765c-1.112,0.119-2.202,0.313-3.267,0.573l0.012-0.005
		l-5.195-5.112l-4.954,0.313c0,0,4.107,4.056,4.782,4.873c0.478,0.575,0.289,1.394,0.135,1.827
		c-0.995,0.491-1.954,1.045-2.871,1.657l0.007-0.008l-6.63-3.026l-4.549,1.988c0,0,5.247,2.406,6.161,2.942
		c0.65,0.382,0.749,1.227,0.751,1.683c-0.766,0.8-1.482,1.647-2.141,2.543l0.014-0.024l-7.267-0.577l-3.593,3.426
		c0,0,5.753,0.465,6.796,0.657c0.735,0.135,1.116,0.884,1.277,1.313c-0.444,1.008-0.824,2.048-1.137,3.117l0.002-0.013l-7.024,1.943
		l-2.205,4.446c0,0,5.564-1.53,6.61-1.705c0.742-0.126,1.358,0.455,1.654,0.804c-0.035,0.552-0.06,1.105-0.06,1.667
		c0,0.563,0.024,1.123,0.062,1.678l-0.011-0.047l-5.936,4.229l-0.553,4.933c0,0,4.707-3.342,5.629-3.864
		c0.651-0.369,1.426-0.039,1.824,0.187c0.311,1.068,0.688,2.107,1.131,3.112l-0.005-0.005l-4.132,6.003l1.168,4.824
		c0,0,3.28-4.75,3.968-5.556c0.487-0.572,1.329-0.525,1.78-0.45c0.664,0.904,1.389,1.762,2.164,2.569l-0.046-0.034l-1.829,7.054
		l2.746,4.136c0,0,1.459-5.587,1.829-6.579c0.261-0.701,1.064-0.946,1.515-1.03c0.916,0.612,1.874,1.166,2.868,1.658l-0.008-0.002
		l0.695,7.255l3.996,2.945c0,0-0.54-5.747-0.533-6.808c0.007-0.749,0.678-1.253,1.073-1.487c1.067,0.262,2.16,0.457,3.276,0.578
		l-0.023,0.001l3.135,6.581l4.763,1.399c0,0-2.475-5.214-2.829-6.214c-0.251-0.707,0.21-1.411,0.501-1.765
		c1.111-0.12,2.2-0.315,3.265-0.573l-0.011,0.004l5.195,5.112l4.954-0.313c0,0-4.107-4.056-4.782-4.873
		c-0.477-0.576-0.289-1.394-0.135-1.826c0.995-0.491,1.955-1.044,2.871-1.657l-0.007,0.008l6.631,3.025l4.548-1.987
		c0,0-5.247-2.406-6.161-2.942c-0.65-0.382-0.749-1.226-0.751-1.683c0.766-0.801,1.481-1.648,2.139-2.543l-0.012,0.024l7.266,0.576
		l3.595-3.424c0,0-5.754-0.466-6.797-0.658c-0.735-0.135-1.117-0.885-1.277-1.314c0.444-1.006,0.824-2.047,1.136-3.116l-0.001,0.012
		L117.626,508.064z M86.172,508.316c-3.016,0-5.461-2.445-5.461-5.461c0-3.018,2.445-5.463,5.461-5.463
		c3.018,0,5.464,2.445,5.464,5.463C91.636,505.871,89.189,508.316,86.172,508.316z"/>
	<g>
		<path fill="#7F8284" d="M2.361,154.721H0v-13.425h2.361V154.721z"/>
		<path fill="#7F8284" d="M18.967,141.296v13.425h-2.343v-8.303l-4.476,6.665l-4.475-6.665v8.303H5.332v-13.425h1.161l5.655,8.169
			l5.656-8.169H18.967z"/>
		<path fill="#7F8284" d="M27.361,141.296c3.827,0,5.141,2.266,5.141,4.723c0,3.561-2.322,4.988-5.655,4.988h-2.59v3.714h-2.343
			v-13.425H27.361z M26.618,149.103c2.267,0,3.446-1.104,3.446-2.932c0-1.505-0.78-2.895-3.065-2.895h-2.742v5.826H26.618z"/>
		<path fill="#7F8284" d="M44.021,152.798v1.923h-9.445v-13.425h2.342v11.502H44.021z"/>
		<path fill="#7F8284" d="M56.188,152.74v1.98H46.094v-13.425h9.693v1.98h-7.408v3.979h6.228v1.904h-6.228v3.58H56.188z"/>
		<path fill="#7F8284" d="M72.143,141.296v13.425H69.8v-8.303l-4.476,6.665l-4.475-6.665v8.303h-2.342v-13.425h1.161l5.655,8.169
			l5.656-8.169H72.143z"/>
		<path fill="#7F8284" d="M85.184,152.74v1.98H75.09v-13.425h9.693v1.98h-7.408v3.979h6.228v1.904h-6.228v3.58H85.184z"/>
		<path fill="#7F8284" d="M99.367,141.296v13.425h-1.162l-8.359-9.198v9.198h-2.342v-13.425h1.161l8.36,9.197v-9.197H99.367z"/>
		<path fill="#7F8284" d="M112.713,143.276h-4.398v11.444h-2.343v-11.444h-4.399v-1.98h11.141V143.276z"/>
		<path fill="#7F8284" d="M122.041,151.75h-6.322l-1.295,2.971h-2.476l6.341-13.425h1.2l6.341,13.425h-2.456L122.041,151.75z
			 M116.557,149.846h4.666l-2.343-5.256L116.557,149.846z"/>
		<path fill="#7F8284" d="M136.93,150.817l1.809,1.484c-1.295,1.563-3.294,2.553-5.521,2.553c-3.904,0-7.084-3.066-7.084-6.837
			s3.18-6.855,7.084-6.855c2.228,0,4.227,1.009,5.521,2.571l-1.809,1.484c-0.838-1.143-2.189-1.904-3.713-1.904
			c-2.553,0-4.666,1.943-4.666,4.704c0,2.724,2.113,4.685,4.666,4.685C134.74,152.702,136.092,151.96,136.93,150.817z"/>
		<path fill="#7F8284" d="M143.326,154.721h-2.361v-13.425h2.361V154.721z"/>
		<path fill="#7F8284" d="M159.969,148.018c0,3.771-3.181,6.837-7.123,6.837c-3.941,0-7.121-3.066-7.121-6.837
			s3.18-6.837,7.121-6.837C156.788,141.181,159.969,144.247,159.969,148.018z M157.568,148.018c0-2.59-2.113-4.704-4.723-4.704
			c-2.608,0-4.723,2.114-4.723,4.704c0,2.608,2.114,4.704,4.723,4.704C155.455,152.722,157.568,150.626,157.568,148.018z
			 M153.513,140.4h-1.447l2.419-3.275l2.475,0.21L153.513,140.4z"/>
		<path fill="#7F8284" d="M174.209,141.296v13.425h-1.162l-8.359-9.198v9.198h-2.342v-13.425h1.161l8.36,9.197v-9.197H174.209z"/>
	</g>
	<g id="XMLID_267_">
		<g id="XMLID_292_">
			<path id="XMLID_294_" fill="#DA344A" d="M289.191,611.211c0,0-0.504-0.089-0.892,0.894c-0.623,1.578,0.229,52.106-36.239,45.032
				c0,0-5.488-1.605-6.769-0.322c-1.279,1.279-0.676,2.137-0.676,2.137c0.557,2.259,47.153,20.117,46.36-46.55
				C290.977,612.401,291.058,611.211,289.191,611.211z"/>
			<path id="XMLID_293_" fill="#DA344A" d="M274.073,661.185l3.591,14.553h-26.938l2.833-11.486
				c-1.194-0.197-2.376-0.447-3.519-0.753l-3.021,12.239h-0.017v0.072l-3.177,12.874h3.704l2.327-9.43h28.675l2.325,9.43h3.705
				l-7.291-29.549C276.252,659.896,275.182,660.575,274.073,661.185z"/>
		</g>
		<path id="XMLID_269_" fill="#DA344A" d="M279.953,615.04l-1.873,0.132c0.247,3.608-0.088,7.449-1.1,11.323
			c-3.379,12.958-13.113,21.93-22.881,21.89v-3.207l-9.626,4.248l9.626,4.246v-2.899c10.539-0.119,20.984-9.837,24.632-23.819
			C279.794,622.883,280.169,618.849,279.953,615.04z"/>
		<path id="XMLID_268_" fill="#DA344A" d="M293.196,651.295c0.813-10.245,4.12-19.327,9.222-26.868l2.135,0.87l-0.668-8.119
			l-6.121,5.353l2.527,1.029c-4.993,7.869-8.276,17.365-9.102,27.76c-0.968,12.178,1.587,23.678,6.672,33.136h3.02
			C295.395,675.281,292.225,663.522,293.196,651.295z"/>
	</g>
	<g>
		<path fill="#7F8284" d="M214.246,579.869h-5.541v-13.425h5.104c3.732,0,6.76,3.008,6.76,6.722
			C220.568,576.728,217.77,579.869,214.246,579.869z M214.037,577.774c2.304,0,4.208-2.152,4.208-4.608
			c0-2.552-1.999-4.628-4.437-4.628h-2.818v9.236H214.037z"/>
		<path fill="#7F8284" d="M233.02,577.889v1.98h-10.092v-13.425h9.692v1.98h-7.407v3.979h6.227v1.904h-6.227v3.58H233.02z"/>
		<path fill="#7F8284" d="M245.3,576.042c0,2.514-2.038,3.998-5.104,3.998c-2.267,0-3.37-0.209-5.503-1.275l0.856-1.771
			c1.828,0.877,2.989,1.066,4.723,1.066c1.638,0,2.666-0.666,2.666-1.828c0-1.104-1.085-1.58-3.085-2.057
			c-2.762-0.646-4.989-1.371-4.989-3.961c0-2.285,1.847-3.903,4.875-3.903c1.942,0,3.771,0.495,5.046,1.085l-0.951,1.81
			c-1.162-0.515-2.876-0.914-4.152-0.914c-1.561,0-2.456,0.743-2.456,1.752c0,1.124,1.161,1.581,3.257,2.075
			C243.301,572.747,245.3,573.623,245.3,576.042z"/>
		<path fill="#7F8284" d="M256.21,576.898h-6.322l-1.295,2.971h-2.476l6.342-13.425h1.199L260,579.869h-2.457L256.21,576.898z
			 M250.726,574.994h4.665l-2.342-5.256L250.726,574.994z"/>
		<path fill="#7F8284" d="M267.499,576.137c-0.21,0.019-0.438,0.019-0.647,0.019h-2.78v3.714h-2.343v-13.425h5.789
			c3.828,0,5.143,2.266,5.143,4.723c0,2.322-1.01,3.827-2.838,4.513l3.237,4.189h-2.818L267.499,576.137z M264.071,574.271h2.685
			c2.267,0,3.447-1.123,3.447-2.951c0-1.505-0.781-2.895-3.047-2.895h-3.085V574.271z"/>
		<path fill="#7F8284" d="M280.75,576.137c-0.209,0.019-0.438,0.019-0.647,0.019h-2.78v3.714h-2.342v-13.425h5.789
			c3.827,0,5.141,2.266,5.141,4.723c0,2.322-1.009,3.827-2.837,4.513l3.237,4.189h-2.818L280.75,576.137z M277.322,574.271h2.686
			c2.266,0,3.446-1.123,3.446-2.951c0-1.505-0.78-2.895-3.047-2.895h-3.085V574.271z"/>
		<path fill="#7F8284" d="M301.904,573.166c0,3.771-3.181,6.837-7.123,6.837c-3.941,0-7.121-3.066-7.121-6.837
			s3.18-6.837,7.121-6.837C298.724,566.329,301.904,569.396,301.904,573.166z M299.504,573.166c0-2.59-2.113-4.704-4.723-4.704
			c-2.608,0-4.723,2.114-4.723,4.704c0,2.608,2.114,4.704,4.723,4.704C297.391,577.87,299.504,575.774,299.504,573.166z"/>
		<path fill="#7F8284" d="M313.727,577.946v1.923h-9.445v-13.425h2.342v11.502H313.727z"/>
		<path fill="#7F8284" d="M325.244,577.946v1.923h-9.445v-13.425h2.343v11.502H325.244z"/>
		<path fill="#7F8284" d="M340.229,573.166c0,3.771-3.18,6.837-7.121,6.837c-3.942,0-7.123-3.066-7.123-6.837
			s3.181-6.837,7.123-6.837C337.049,566.329,340.229,569.396,340.229,573.166z M337.83,573.166c0-2.59-2.114-4.704-4.723-4.704
			c-2.609,0-4.723,2.114-4.723,4.704c0,2.608,2.113,4.704,4.723,4.704C335.716,577.87,337.83,575.774,337.83,573.166z"/>
	</g>
	<g>
		<path fill="#7F8284" d="M25.705,396.452c3.828,0,5.143,2.267,5.143,4.723c0,3.562-2.324,4.99-5.656,4.99h-2.59v3.713H20.26
			v-13.426H25.705z M24.963,404.261c2.266,0,3.447-1.105,3.447-2.934c0-1.504-0.781-2.895-3.066-2.895h-2.742v5.828H24.963z"/>
		<path fill="#7F8284" d="M38.69,406.146c-0.21,0.02-0.438,0.02-0.647,0.02h-2.78v3.713H32.92v-13.426h5.789
			c3.828,0,5.143,2.267,5.143,4.723c0,2.324-1.01,3.828-2.838,4.514l3.237,4.189h-2.818L38.69,406.146z M35.263,404.279h2.685
			c2.267,0,3.447-1.124,3.447-2.952c0-1.504-0.781-2.895-3.047-2.895h-3.085V404.279z"/>
		<path fill="#7F8284" d="M59.844,403.175c0,3.771-3.18,6.836-7.121,6.836c-3.942,0-7.123-3.065-7.123-6.836
			s3.181-6.836,7.123-6.836C56.664,396.339,59.844,399.404,59.844,403.175z M57.445,403.175c0-2.59-2.114-4.703-4.723-4.703
			c-2.609,0-4.723,2.113-4.723,4.703c0,2.609,2.113,4.703,4.723,4.703C55.331,407.878,57.445,405.784,57.445,403.175z"/>
		<path fill="#7F8284" d="M72.066,398.433h-4.398v11.445h-2.343v-11.445h-4.399v-1.98h11.141V398.433z"/>
		<path fill="#7F8284" d="M87.316,403.175c0,3.771-3.18,6.836-7.121,6.836c-3.942,0-7.123-3.065-7.123-6.836
			s3.181-6.836,7.123-6.836C84.137,396.339,87.316,399.404,87.316,403.175z M84.918,403.175c0-2.59-2.114-4.703-4.723-4.703
			c-2.609,0-4.723,2.113-4.723,4.703c0,2.609,2.113,4.703,4.723,4.703C82.804,407.878,84.918,405.784,84.918,403.175z"/>
		<path fill="#7F8284" d="M99.539,398.433h-4.398v11.445h-2.343v-11.445h-4.399v-1.98h11.141V398.433z"/>
		<path fill="#7F8284" d="M104.088,409.878h-2.361v-13.426h2.361V409.878z"/>
		<path fill="#7F8284" d="M112.504,396.452c3.827,0,5.141,2.267,5.141,4.723c0,3.562-2.322,4.99-5.655,4.99h-2.59v3.713h-2.343
			v-13.426H112.504z M111.761,404.261c2.267,0,3.446-1.105,3.446-2.934c0-1.504-0.78-2.895-3.065-2.895h-2.742v5.828H111.761z"/>
		<path fill="#7F8284" d="M133.391,403.175c0,3.771-3.18,6.836-7.121,6.836c-3.942,0-7.123-3.065-7.123-6.836
			s3.181-6.836,7.123-6.836C130.211,396.339,133.391,399.404,133.391,403.175z M130.992,403.175c0-2.59-2.114-4.703-4.723-4.703
			c-2.609,0-4.723,2.113-4.723,4.703c0,2.609,2.113,4.703,4.723,4.703C128.878,407.878,130.992,405.784,130.992,403.175z"/>
		<path fill="#7F8284" d="M153.363,396.452l-5.199,8.855v4.57h-2.342v-4.57l-5.18-8.855h2.666l3.693,6.398l3.676-6.398H153.363z"/>
		<path fill="#7F8284" d="M21.203,430.745v1.98H11.111V419.3h9.692v1.98h-7.407v3.98h6.227v1.904h-6.227v3.58H21.203z"/>
		<path fill="#7F8284" d="M33.578,419.3h2.553l-6.246,13.426h-1.124L22.515,419.3h2.552l4.246,9.541L33.578,419.3z"/>
		<path fill="#7F8284" d="M44.983,429.755h-6.322l-1.295,2.971h-2.476l6.342-13.426h1.199l6.342,13.426h-2.457L44.983,429.755z
			 M39.499,427.851h4.665l-2.342-5.256L39.499,427.851z"/>
		<path fill="#7F8284" d="M59.947,430.802v1.924h-9.445V419.3h2.343v11.502H59.947z"/>
		<path fill="#7F8284" d="M73.219,427.337c0,3.065-2.02,5.521-5.847,5.521c-3.809,0-5.827-2.438-5.827-5.521V419.3h2.285v7.465
			c0,2.59,1.219,4,3.542,4s3.562-1.429,3.562-4V419.3h2.285V427.337z"/>
		<path fill="#7F8284" d="M84.394,429.755h-6.322l-1.295,2.971h-2.476l6.342-13.426h1.199l6.342,13.426h-2.457L84.394,429.755z
			 M78.909,427.851h4.665l-2.342-5.256L78.909,427.851z"/>
		<path fill="#7F8284" d="M99.282,428.821l1.81,1.486c-1.295,1.561-3.295,2.551-5.523,2.551c-3.903,0-7.084-3.065-7.084-6.836
			s3.181-6.855,7.084-6.855c2.229,0,4.229,1.01,5.523,2.57l-1.81,1.486c-0.838-1.143-2.19-1.904-3.714-1.904
			c-2.551,0-4.665,1.941-4.665,4.703c0,2.723,2.114,4.685,4.665,4.685C97.092,430.707,98.444,429.964,99.282,428.821z"/>
		<path fill="#7F8284" d="M105.678,432.726h-2.361V419.3h2.361V432.726z"/>
		<path fill="#7F8284" d="M122.32,426.022c0,3.771-3.18,6.836-7.121,6.836c-3.942,0-7.123-3.065-7.123-6.836
			s3.181-6.836,7.123-6.836C119.141,419.187,122.32,422.252,122.32,426.022z M119.922,426.022c0-2.59-2.114-4.703-4.723-4.703
			c-2.609,0-4.723,2.113-4.723,4.703c0,2.609,2.113,4.703,4.723,4.703C117.808,430.726,119.922,428.632,119.922,426.022z"/>
		<path fill="#7F8284" d="M136.562,419.3v13.426H135.4l-8.36-9.197v9.197h-2.343V419.3h1.162l8.359,9.198V419.3H136.562z"/>
		<path fill="#7F8284" d="M149.584,430.745v1.98H139.49V419.3h9.693v1.98h-7.408v3.98h6.228v1.904h-6.228v3.58H149.584z"/>
		<path fill="#7F8284" d="M161.863,428.897c0,2.514-2.037,4-5.104,4c-2.266,0-3.371-0.21-5.504-1.276l0.857-1.771
			c1.828,0.875,2.99,1.066,4.723,1.066c1.638,0,2.666-0.667,2.666-1.828c0-1.105-1.086-1.581-3.085-2.057
			c-2.761-0.648-4.989-1.371-4.989-3.961c0-2.285,1.848-3.904,4.875-3.904c1.942,0,3.771,0.495,5.047,1.086l-0.953,1.809
			c-1.161-0.514-2.875-0.914-4.15-0.914c-1.563,0-2.457,0.742-2.457,1.752c0,1.123,1.162,1.58,3.256,2.076
			C159.863,425.604,161.863,426.479,161.863,428.897z"/>
	</g>
	<g id="XMLID_295_">
		<g id="XMLID_297_">
			<g id="XMLID_298_">
				<path id="XMLID_307_" fill="#DA344A" d="M460.283,508.908l6.301,9.917l32.723-20.79l-6.301-9.914L460.283,508.908z
					 M497.567,497.75l-30.505,19.379l-5.04-7.932l30.505-19.381L497.567,497.75z"/>
				<g id="XMLID_303_">
					<path id="XMLID_304_" fill="#DA344A" d="M493.495,487.81l6.3,9.917l6.858-4.357l-6.3-9.917L493.495,487.81z M505.369,492.793
						l-5.521,3.507l-5.039-7.933l5.519-3.507L505.369,492.793z"/>
				</g>
				<path id="XMLID_302_" fill="#DA344A" d="M505.823,479.977l-2.742,1.744l-2.333,1.48c-0.022,0.016-0.03,0.046-0.016,0.069
					l1.483,2.333l3.28,5.166l1.483,2.334c0.014,0.022,0.045,0.029,0.068,0.014l2.333-1.481l2.742-1.742
					c1.311-0.833,1.7-2.572,0.867-3.885l-3.282-5.165C508.874,479.533,507.135,479.144,505.823,479.977z"/>
				<path id="XMLID_299_" fill="#DA344A" d="M459.766,509.238l-5.438,10.414h0.005l-0.003,0.002l0.037-0.004l11.698-0.496
					L459.766,509.238z M464.337,518.238l-6.595,0.433l-1.038-1.637l3.156-5.842L464.337,518.238z"/>
			</g>
		</g>
		<polygon id="XMLID_296_" fill="#DA344A" points="485.552,509.714 485.552,528.722 474.026,538.682 474.015,538.691 
			435.316,538.691 435.316,473.521 485.552,473.521 485.552,489.916 488.685,487.927 488.685,469.455 432.185,469.455 
			432.185,542.756 475.708,542.756 488.685,531.506 488.685,507.724 		"/>
	</g>
	<g>
		<path fill="#7F8284" d="M443.243,409.418h-5.364v-12.995h4.94c3.612,0,6.544,2.912,6.544,6.507
			C449.363,406.377,446.653,409.418,443.243,409.418z M443.04,407.391c2.23,0,4.074-2.083,4.074-4.461
			c0-2.47-1.936-4.479-4.295-4.479h-2.729v8.94H443.04z"/>
		<path fill="#7F8284" d="M453.967,409.418h-2.286v-12.995h2.286V409.418z"/>
		<path fill="#7F8284" d="M466.48,405.713c0,2.434-1.973,3.871-4.939,3.871c-2.194,0-3.263-0.203-5.327-1.235l0.829-1.714
			c1.77,0.848,2.894,1.032,4.571,1.032c1.585,0,2.581-0.646,2.581-1.77c0-1.069-1.051-1.53-2.986-1.991
			c-2.673-0.626-4.83-1.327-4.83-3.834c0-2.212,1.788-3.778,4.719-3.778c1.881,0,3.65,0.479,4.885,1.051l-0.921,1.751
			c-1.125-0.498-2.784-0.885-4.019-0.885c-1.512,0-2.378,0.719-2.378,1.696c0,1.087,1.124,1.529,3.152,2.009
			C464.545,402.524,466.48,403.372,466.48,405.713z"/>
		<path fill="#7F8284" d="M478.476,407.501v1.917h-9.77v-12.995h9.383v1.917h-7.171v3.853h6.027v1.844h-6.027v3.465H478.476z"/>
		<path fill="#7F8284" d="M492.203,396.423v12.995h-1.124l-8.092-8.903v8.903h-2.268v-12.995h1.125l8.092,8.903v-8.903H492.203z
			 M482.729,395.575c0.092-1.696,0.939-2.654,2.138-2.654c1.125,0,2.176,0.793,2.949,0.793c0.553,0,1.014-0.461,1.217-1.217
			l1.032,0.129c-0.092,1.659-0.995,2.654-2.046,2.654c-1.106,0-2.212-0.812-2.949-0.812c-0.664,0-1.069,0.479-1.29,1.217
			L482.729,395.575z"/>
		<path fill="#7F8284" d="M508.272,402.93c0,3.649-3.079,6.617-6.895,6.617s-6.894-2.968-6.894-6.617s3.078-6.617,6.894-6.617
			S508.272,399.28,508.272,402.93z M505.949,402.93c0-2.507-2.046-4.553-4.571-4.553c-2.524,0-4.571,2.046-4.571,4.553
			c0,2.525,2.047,4.553,4.571,4.553C503.903,407.482,505.949,405.455,505.949,402.93z"/>
		<path fill="#7F8284" d="M418.147,427.752l1.751,1.438c-1.253,1.512-3.188,2.47-5.345,2.47c-3.779,0-6.857-2.968-6.857-6.617
			s3.078-6.636,6.857-6.636c2.156,0,4.092,0.977,5.345,2.488l-1.751,1.438c-0.811-1.105-2.119-1.843-3.594-1.843
			c-2.471,0-4.517,1.88-4.517,4.553c0,2.636,2.046,4.534,4.517,4.534C416.028,429.576,417.337,428.857,418.147,427.752z"/>
		<path fill="#7F8284" d="M434.881,425.042c0,3.649-3.078,6.617-6.895,6.617c-3.815,0-6.894-2.968-6.894-6.617
			s3.078-6.617,6.894-6.617C431.803,418.425,434.881,421.393,434.881,425.042z M432.558,425.042c0-2.507-2.046-4.553-4.571-4.553
			s-4.571,2.046-4.571,4.553c0,2.525,2.046,4.553,4.571,4.553S432.558,427.567,432.558,425.042z"/>
		<path fill="#7F8284" d="M448.662,418.535v12.995h-1.124l-8.092-8.903v8.903h-2.268v-12.995h1.125l8.092,8.903v-8.903H448.662z"/>
		<path fill="#7F8284" d="M461.395,427.752l1.751,1.438c-1.253,1.512-3.188,2.47-5.345,2.47c-3.779,0-6.857-2.968-6.857-6.617
			s3.078-6.636,6.857-6.636c2.156,0,4.092,0.977,5.345,2.488l-1.751,1.438c-0.811-1.105-2.119-1.843-3.594-1.843
			c-2.471,0-4.517,1.88-4.517,4.553c0,2.636,2.046,4.534,4.517,4.534C459.275,429.576,460.584,428.857,461.395,427.752z"/>
		<path fill="#7F8284" d="M475.03,429.613v1.917h-9.77v-12.995h9.383v1.917h-7.171v3.853h6.027v1.843h-6.027v3.466H475.03z"/>
		<path fill="#7F8284" d="M482.547,418.535c3.705,0,4.977,2.193,4.977,4.571c0,3.447-2.249,4.829-5.475,4.829h-2.507v3.595h-2.268
			v-12.995H482.547z M481.828,426.093c2.193,0,3.336-1.069,3.336-2.839c0-1.456-0.756-2.802-2.968-2.802h-2.654v5.641H481.828z"/>
		<path fill="#7F8284" d="M499.611,420.452h-4.258v11.078h-2.268v-11.078h-4.258v-1.917h10.783V420.452z"/>
		<path fill="#7F8284" d="M512.896,426.313c0,2.968-1.953,5.346-5.658,5.346c-3.687,0-5.641-2.359-5.641-5.346v-7.778h2.212v7.226
			c0,2.507,1.18,3.871,3.429,3.871c2.248,0,3.446-1.383,3.446-3.871v-7.226h2.212V426.313z"/>
		<path fill="#7F8284" d="M523.713,428.655h-6.119l-1.254,2.875h-2.396l6.139-12.995h1.161l6.138,12.995h-2.378L523.713,428.655z
			 M518.404,426.812h4.516l-2.267-5.088L518.404,426.812z"/>
		<path fill="#7F8284" d="M538.195,429.669v1.861h-9.143v-12.995h2.268v11.134H538.195z"/>
	</g>
	<g id="XMLID_318_">
		<g id="XMLID_320_">
			<path id="XMLID_321_" fill="#DA344A" d="M445.772,185.585v70.145h41.649l12.419-10.767v-59.378H445.772z M448.771,189.475h48.07
				v52.824l-11.028,9.53l-0.012,0.01h-37.03V189.475z"/>
		</g>
		<polygon id="XMLID_319_" fill="#DA344A" points="468.75,229.49 489.813,199.776 487.773,198.33 466.774,227.955 459.643,222.413 
			458.108,224.388 467.236,231.479 467.338,231.349 468.432,229.942 		"/>
	</g>
	<g>
		<path fill="#7F8284" d="M436.081,146.228c2.19,0.267,3.618,2.133,3.618,4.246c0,2.229-1.409,4.247-4.057,4.247h-7.197v-13.425
			h5.693c1.619,0,2.933,1.219,2.933,2.761C437.071,144.856,436.729,145.694,436.081,146.228z M430.73,145.999h2.875
			c0.99,0,1.371-0.742,1.371-1.352c0-0.781-0.647-1.371-1.676-1.371h-2.57V145.999z M434.405,152.74c1.98,0,2.837-1.085,2.837-2.495
			c0-1.256-0.875-2.532-2.818-2.532h-3.693v5.027H434.405z"/>
		<path fill="#7F8284" d="M447.656,150.988c-0.209,0.019-0.438,0.019-0.647,0.019h-2.78v3.714h-2.342v-13.425h5.789
			c3.827,0,5.141,2.266,5.141,4.723c0,2.322-1.009,3.827-2.837,4.513l3.237,4.189h-2.818L447.656,150.988z M444.229,149.122h2.686
			c2.266,0,3.446-1.123,3.446-2.951c0-1.505-0.78-2.895-3.047-2.895h-3.085V149.122z"/>
		<path fill="#7F8284" d="M457.537,154.721h-2.361v-13.425h2.361V154.721z"/>
		<path fill="#7F8284" d="M470.6,152.74v1.98h-10.094v-13.425h9.693v1.98h-7.408v3.979h6.228v1.904h-6.228v3.58H470.6z"/>
		<path fill="#7F8284" d="M475.205,143.276v5.256h6.569v1.961h-6.569v4.228h-2.285v-13.425h9.902v1.98H475.205z"/>
		<path fill="#7F8284" d="M487.408,154.721h-2.361v-13.425h2.361V154.721z"/>
		<path fill="#7F8284" d="M502.242,141.296v13.425h-1.162l-8.359-9.198v9.198h-2.342v-13.425h1.161l8.36,9.197v-9.197H502.242z"/>
		<path fill="#7F8284" d="M517.568,148.112v4.78c-1.504,1.2-3.561,1.962-5.846,1.962c-3.924,0-7.123-3.066-7.123-6.837
			s3.199-6.837,7.123-6.837c2.228,0,4.074,0.743,5.351,1.924l-1.466,1.6c-0.953-0.876-2.305-1.391-3.885-1.391
			c-2.609,0-4.723,2.114-4.723,4.704c0,2.685,2.113,4.817,4.723,4.817c1.352,0,2.551-0.418,3.484-1.085v-1.714h-3.771v-1.924
			H517.568z"/>
	</g>
	<g>
		<path fill="#7F8284" d="M88.435,328.968c0,1.198-0.971,2.172-2.174,2.172c-1.197,0-2.17-0.974-2.17-2.172
			c0-1.2,0.973-2.171,2.17-2.171C87.464,326.797,88.435,327.768,88.435,328.968z"/>
		<path fill="none" stroke="#7F8284" stroke-width="3.05" stroke-miterlimit="10" d="M94.268,328.968
			c0,4.421-3.584,8.008-8.007,8.008s-8.003-3.587-8.003-8.008c0-4.419,3.58-8.006,8.003-8.006S94.268,324.549,94.268,328.968z"/>
		<path fill="#7F8284" d="M98.539,297.414l-11.591-11.589c-0.038-0.037-0.086-0.054-0.126-0.084
			c-0.063-0.047-0.12-0.095-0.188-0.122c-0.11-0.049-0.226-0.07-0.346-0.072c-0.012,0-0.018-0.004-0.027-0.004
			c-0.028,0-0.058,0.014-0.088,0.016c-0.276-0.024-0.564,0.054-0.775,0.267l-11.589,11.589c-0.376,0.378-0.376,0.996,0,1.373
			c0.375,0.378,0.993,0.378,1.37,0l10.115-10.111v31.865c0,0.024,0.01,0.039,0.01,0.056c-3.314,0.377-6.04,2.678-7.046,5.758v5.232
			c1.103,3.372,4.265,5.813,8.003,5.813c4.658,0,8.434-3.773,8.434-8.432c0-4.33-3.269-7.894-7.471-8.371
			c0-0.017,0.01-0.031,0.01-0.056v-31.688l9.935,9.934c0.376,0.378,0.994,0.378,1.371,0
			C98.913,298.41,98.913,297.792,98.539,297.414z M93.721,328.968c0,4.119-3.341,7.458-7.46,7.458c-4.114,0-7.452-3.339-7.452-7.458
			c0-4.116,3.338-7.455,7.452-7.455C90.38,321.513,93.721,324.852,93.721,328.968z"/>
		<path fill="#7F8284" d="M85.299,336.976h1.93c0.001,0.008,0.005,0.016,0.005,0.024v26.05c0,0.53-0.438,0.97-0.971,0.97
			c-0.532,0-0.969-0.439-0.969-0.97V337C85.294,336.991,85.298,336.983,85.299,336.976z"/>
	</g>
	<g>
		<g>
			<path fill="#7F8284" d="M200.357,17.596h-2.361V4.17h2.361V17.596z"/>
			<path fill="#7F8284" d="M215.19,4.17v13.426h-1.161l-8.36-9.197v9.197h-2.343V4.17h1.162l8.359,9.198V4.17H215.19z"/>
			<path fill="#7F8284" d="M228.174,4.17h2.553l-6.246,13.426h-1.124L217.11,4.17h2.552l4.246,9.541L228.174,4.17z"/>
			<path fill="#7F8284" d="M242.682,15.615v1.98H232.59V4.17h9.692v1.98h-7.407v3.98h6.227v1.904h-6.227v3.58H242.682z"/>
			<path fill="#7F8284" d="M254.962,13.768c0,2.514-2.038,4-5.104,4c-2.267,0-3.37-0.21-5.503-1.276l0.856-1.771
				c1.828,0.875,2.989,1.066,4.723,1.066c1.638,0,2.666-0.667,2.666-1.828c0-1.105-1.085-1.581-3.085-2.057
				c-2.762-0.648-4.989-1.371-4.989-3.961c0-2.285,1.847-3.904,4.875-3.904c1.942,0,3.771,0.495,5.046,1.086l-0.951,1.809
				c-1.162-0.514-2.876-0.914-4.152-0.914c-1.561,0-2.456,0.742-2.456,1.752c0,1.123,1.161,1.58,3.257,2.076
				C252.963,10.474,254.962,11.35,254.962,13.768z"/>
			<path fill="#7F8284" d="M267.3,6.15H262.9v11.445h-2.342V6.15h-4.398V4.17h11.14V6.15z"/>
			<path fill="#7F8284" d="M271.848,17.596h-2.361V4.17h2.361V17.596z"/>
			<path fill="#7F8284" d="M286.835,10.988v4.779c-1.505,1.199-3.562,1.961-5.847,1.961c-3.922,0-7.121-3.065-7.121-6.836
				s3.199-6.836,7.121-6.836c2.229,0,4.076,0.742,5.352,1.923l-1.467,1.6c-0.951-0.876-2.304-1.39-3.885-1.39
				c-2.608,0-4.723,2.113-4.723,4.703c0,2.686,2.114,4.818,4.723,4.818c1.353,0,2.553-0.42,3.485-1.086v-1.714h-3.771v-1.923
				H286.835z"/>
			<path fill="#7F8284" d="M298.258,14.625h-6.322l-1.295,2.971h-2.476l6.341-13.426h1.2l6.341,13.426h-2.456L298.258,14.625z
				 M292.773,12.721h4.666l-2.343-5.256L292.773,12.721z"/>
			<path fill="#7F8284" d="M313.146,13.691l1.81,1.486c-1.295,1.561-3.295,2.551-5.523,2.551c-3.903,0-7.084-3.065-7.084-6.836
				s3.181-6.855,7.084-6.855c2.229,0,4.229,1.01,5.523,2.57l-1.81,1.486c-0.838-1.143-2.19-1.904-3.714-1.904
				c-2.551,0-4.665,1.941-4.665,4.703c0,2.723,2.114,4.685,4.665,4.685C310.955,15.577,312.308,14.834,313.146,13.691z"/>
			<path fill="#7F8284" d="M319.541,17.596h-2.361V4.17h2.361V17.596z"/>
			<path fill="#7F8284" d="M336.184,10.893c0,3.771-3.18,6.836-7.121,6.836c-3.942,0-7.123-3.065-7.123-6.836
				s3.181-6.836,7.123-6.836C333.004,4.057,336.184,7.122,336.184,10.893z M333.785,10.893c0-2.59-2.114-4.703-4.723-4.703
				c-2.609,0-4.723,2.113-4.723,4.703c0,2.609,2.113,4.703,4.723,4.703C331.671,15.596,333.785,13.502,333.785,10.893z
				 M329.729,3.275h-1.447L330.699,0l2.477,0.209L329.729,3.275z"/>
			<path fill="#7F8284" d="M350.425,4.17v13.426h-1.161l-8.36-9.197v9.197h-2.343V4.17h1.162l8.359,9.198V4.17H350.425z"/>
			<path fill="#7F8284" d="M244.814,27.018c3.828,0,5.143,2.267,5.143,4.723c0,3.562-2.324,4.99-5.656,4.99h-2.59v3.713h-2.342
				V27.018H244.814z M244.072,34.826c2.266,0,3.447-1.105,3.447-2.934c0-1.504-0.781-2.895-3.066-2.895h-2.742v5.828H244.072z"/>
			<path fill="#7F8284" d="M257.8,36.711c-0.21,0.02-0.438,0.02-0.647,0.02h-2.78v3.713h-2.343V27.018h5.789
				c3.828,0,5.143,2.267,5.143,4.723c0,2.324-1.01,3.828-2.838,4.514l3.237,4.189h-2.818L257.8,36.711z M254.372,34.845h2.685
				c2.267,0,3.447-1.124,3.447-2.952c0-1.504-0.781-2.895-3.047-2.895h-3.085V34.845z"/>
			<path fill="#7F8284" d="M275.373,38.463v1.98h-10.092V27.018h9.692v1.98h-7.407v3.98h6.227v1.904h-6.227v3.58H275.373z"/>
			<path fill="#7F8284" d="M287.748,27.018h2.553l-6.246,13.426h-1.124l-6.246-13.426h2.552l4.246,9.541L287.748,27.018z"/>
			<path fill="#7F8284" d="M294.563,40.443h-2.361V27.018h2.361V40.443z"/>
			<path fill="#7F8284" d="M306.426,37.473h-6.322l-1.295,2.971h-2.476l6.341-13.426h1.2l6.341,13.426h-2.456L306.426,37.473z
				 M300.941,35.568h4.666l-2.343-5.256L300.941,35.568z"/>
		</g>
	</g>
	<g id="XMLID_2_">
		<path id="XMLID_4_" fill="#DA344A" d="M303.384,131.868l-19.988-22.605c2.362-2.519,4.182-5.616,5.198-9.163
			c3.418-11.923-3.477-24.358-15.399-27.776c-11.922-3.418-24.358,3.477-27.776,15.399c-3.417,11.923,3.477,24.359,15.4,27.776
			c7.128,2.043,14.438,0.398,19.896-3.802l19.956,22.569c0.663,0.748,1.808,0.818,2.556,0.157l0,0
			C303.976,133.761,304.046,132.616,303.384,131.868z M261.744,112.268c-10.138-2.907-15.999-13.481-13.094-23.618
			c2.905-10.139,13.479-16,23.617-13.094s16,13.479,13.095,23.617C282.456,109.31,271.882,115.173,261.744,112.268z"/>
	</g>
	<g>
		<path fill="#7F8284" d="M474.34,327.507c0-1.198-0.971-2.172-2.174-2.172c-1.197,0-2.17,0.974-2.17,2.172
			c0,1.2,0.973,2.171,2.17,2.171C473.369,329.678,474.34,328.707,474.34,327.507z"/>
		<path fill="none" stroke="#7F8284" stroke-width="3.05" stroke-miterlimit="10" d="M480.173,327.507
			c0-4.421-3.584-8.008-8.007-8.008s-8.003,3.587-8.003,8.008c0,4.419,3.58,8.006,8.003,8.006S480.173,331.926,480.173,327.507z"/>
		<path fill="#7F8284" d="M484.444,357.688c-0.377-0.378-0.995-0.378-1.371,0l-9.935,9.934v-31.688c0-0.024-0.01-0.039-0.01-0.056
			c4.202-0.478,7.471-4.041,7.471-8.371c0-4.658-3.775-8.432-8.434-8.432c-3.738,0-6.9,2.44-8.003,5.813v5.232
			c1.006,3.08,3.731,5.381,7.046,5.758c0,0.017-0.01,0.031-0.01,0.056v31.865l-10.115-10.111c-0.377-0.378-0.995-0.378-1.37,0
			c-0.376,0.377-0.376,0.995,0,1.373l11.589,11.589c0.211,0.213,0.499,0.291,0.775,0.267c0.03,0.002,0.06,0.016,0.088,0.016
			c0.01,0,0.016-0.004,0.027-0.004c0.12-0.002,0.235-0.023,0.346-0.072c0.068-0.027,0.125-0.075,0.188-0.122
			c0.04-0.03,0.088-0.047,0.126-0.084l11.591-11.589C484.818,358.683,484.818,358.064,484.444,357.688z M472.166,334.962
			c-4.114,0-7.452-3.339-7.452-7.455c0-4.119,3.338-7.458,7.452-7.458c4.119,0,7.46,3.339,7.46,7.458
			C479.626,331.623,476.285,334.962,472.166,334.962z"/>
		<path fill="#7F8284" d="M471.204,319.499h1.93c0.001-0.008,0.005-0.016,0.005-0.024v-26.05c0-0.53-0.438-0.97-0.971-0.97
			c-0.532,0-0.969,0.439-0.969,0.97v26.05C471.199,319.483,471.203,319.491,471.204,319.499z"/>
	</g>
</g>
</svg>
