<?xml version="1.0" encoding="utf-8"?>
<!-- Generator: Adobe Illustrator 16.0.0, SVG Export Plug-In . SVG Version: 6.00 Build 0)  -->
<!DOCTYPE svg PUBLIC "-//W3C//DTD SVG 1.1//EN" "http://www.w3.org/Graphics/SVG/1.1/DTD/svg11.dtd" [
	<!ENTITY ns_flows "http://ns.adobe.com/Flows/1.0/">
	<!ENTITY ns_extend "http://ns.adobe.com/Extensibility/1.0/">
	<!ENTITY ns_ai "http://ns.adobe.com/AdobeIllustrator/10.0/">
	<!ENTITY ns_graphs "http://ns.adobe.com/Graphs/1.0/">
	<!ENTITY ns_vars "http://ns.adobe.com/Variables/1.0/">
	<!ENTITY ns_imrep "http://ns.adobe.com/ImageReplacement/1.0/">
	<!ENTITY ns_sfw "http://ns.adobe.com/SaveForWeb/1.0/">
	<!ENTITY ns_custom "http://ns.adobe.com/GenericCustomNamespace/1.0/">
	<!ENTITY ns_adobe_xpath "http://ns.adobe.com/XPath/1.0/">
]>
<svg version="1.1" id="Capa_1" xmlns:x="&ns_extend;" xmlns:i="&ns_ai;" xmlns:graph="&ns_graphs;"
	 xmlns="http://www.w3.org/2000/svg" xmlns:xlink="http://www.w3.org/1999/xlink" xmlns:a="http://ns.adobe.com/AdobeSVGViewerExtensions/3.0/"
	 x="0px" y="0px" width="30px" height="30px" viewBox="0 0 30 30" enable-background="new 0 0 30 30" xml:space="preserve">
<metadata>
	<sfw  xmlns="&ns_sfw;">
		<slices></slices>
		<sliceSourceBounds  width="6564.467" height="4220.128" x="-4024.055" y="-2365.944" bottomLeftOrigin="true">
			</sliceSourceBounds>
	</sfw>
</metadata>
<g>
	<g>
		<path fill="#FFFFFF" d="M11.082,14.021v2.35h3.889c-0.157,1.01-1.176,2.957-3.889,2.957c-2.34,0-4.25-1.938-4.25-4.328
			s1.91-4.328,4.25-4.328c1.332,0,2.224,0.566,2.732,1.057l1.861-1.791c-1.195-1.117-2.743-1.793-4.594-1.793
			c-3.79,0-6.855,3.064-6.855,6.855s3.065,6.855,6.855,6.855c3.957,0,6.582-2.781,6.582-6.699c0-0.451-0.049-0.793-0.108-1.135
			H11.082L11.082,14.021z"/>
		<path fill="#FFFFFF" d="M25.773,14.021h-1.959v-1.961h-1.959v1.961h-1.959v1.959h1.959v1.959h1.959V15.98h1.959"/>
	</g>
	<g>
		<path fill="#FFFFFF" d="M15,0C6.715,0,0,6.715,0,15c0,8.283,6.715,15,15,15s15-6.717,15-15C30,6.715,23.285,0,15,0 M15,28.166
			C7.729,28.166,1.834,22.271,1.834,15C1.834,7.727,7.729,1.832,15,1.832S28.166,7.727,28.166,15
			C28.166,22.271,22.271,28.166,15,28.166"/>
	</g>
</g>
</svg>
