<?xml version="1.0" encoding="utf-8"?>
<!-- Generator: Adobe Illustrator 16.0.0, SVG Export Plug-In . SVG Version: 6.00 Build 0)  -->
<!DOCTYPE svg PUBLIC "-//W3C//DTD SVG 1.1//EN" "http://www.w3.org/Graphics/SVG/1.1/DTD/svg11.dtd" [
	<!ENTITY ns_flows "http://ns.adobe.com/Flows/1.0/">
	<!ENTITY ns_extend "http://ns.adobe.com/Extensibility/1.0/">
	<!ENTITY ns_ai "http://ns.adobe.com/AdobeIllustrator/10.0/">
	<!ENTITY ns_graphs "http://ns.adobe.com/Graphs/1.0/">
	<!ENTITY ns_vars "http://ns.adobe.com/Variables/1.0/">
	<!ENTITY ns_imrep "http://ns.adobe.com/ImageReplacement/1.0/">
	<!ENTITY ns_sfw "http://ns.adobe.com/SaveForWeb/1.0/">
	<!ENTITY ns_custom "http://ns.adobe.com/GenericCustomNamespace/1.0/">
	<!ENTITY ns_adobe_xpath "http://ns.adobe.com/XPath/1.0/">
]>
<svg version="1.1" id="Capa_1" xmlns:x="&ns_extend;" xmlns:i="&ns_ai;" xmlns:graph="&ns_graphs;"
	 xmlns="http://www.w3.org/2000/svg" xmlns:xlink="http://www.w3.org/1999/xlink" xmlns:a="http://ns.adobe.com/AdobeSVGViewerExtensions/3.0/"
	 x="0px" y="0px" width="50.001px" height="49.994px" viewBox="0 0 50.001 49.994" enable-background="new 0 0 50.001 49.994"
	 xml:space="preserve">
<metadata>
	<sfw  xmlns="&ns_sfw;">
		<slices></slices>
		<sliceSourceBounds  width="340.765" height="50" y="-140.029" x="812.105" bottomLeftOrigin="true"></sliceSourceBounds>
	</sfw>
</metadata>
<g>
	<path fill="#7F8284" d="M39.519,20.17c-0.07-2.227-0.629-4.314-2.055-6.096c-0.124-0.02-0.268-0.053-0.393-0.07
		c-0.016,0.049-0.072,0.113-0.104,0.164c0.031-0.051,0.088-0.115,0.104-0.164c-1.291-1.627-3.082-2.17-5.008-2.219
		c-4.24-0.08-8.479-0.15-12.711-0.006c-4.334,0.133-7.213,2.988-7.361,7.336c-0.146,4.223-0.09,8.457-0.023,12.688
		c0.034,1.936,0.57,3.729,2.197,5.027c0.013,0.145,0.036,0.271,0.063,0.402c1.547,1.125,3.23,1.824,5.189,1.953
		c4.445,0.291,8.891,0.41,13.33-0.105c3.549-0.418,6.043-2.918,6.504-6.484C39.808,28.465,39.609,24.311,39.519,20.17
		 M36.938,30.705c-0.104,4.045-2.025,5.953-6.09,6.049c-3.475,0.084-6.959,0.061-10.444-0.016c-1.671-0.031-3.341-0.236-4.489-1.721
		c-0.107-0.01-0.217-0.021-0.324-0.031c-0.838-1.295-1.266-2.734-1.285-4.285c0.002-3.545-0.07-7.105,0.049-10.631
		c0.125-3.951,1.996-5.809,5.943-5.936c3.537-0.104,7.1-0.037,10.654-0.004c1.537,0.018,2.977,0.459,4.282,1.303
		c0.763-0.027,1.222-0.498,1.606-1.051c-0.385,0.553-0.844,1.023-1.606,1.051c-0.011,0.111,0,0.217,0.021,0.324
		c1.473,1.148,1.674,2.832,1.699,4.502C37.009,23.738,37.022,27.225,36.938,30.705"/>
	<path fill="#7F8284" d="M30.595,20.494c-2.93-2.811-7.057-2.885-9.889-0.166c-2.893,2.777-2.893,7.049-0.018,10.045
		c0.023-0.023,0.077-0.049,0.114-0.066c-0.037,0.018-0.091,0.043-0.114,0.066c0.004,0.145,0.033,0.281,0.08,0.424
		c1.802,1.184,3.656,2.088,5.92,1.723c4.917-0.826,8.345-6.568,4.331-11.924C30.882,20.547,30.731,20.506,30.595,20.494
		 M21.138,30.08c0.188-0.135,0.348-0.279,0.484-0.465C21.485,29.801,21.325,29.945,21.138,30.08 M28.827,28.801
		c-1.645,1.523-3.766,1.619-5.929,0.217c-0.288-0.189-0.576-0.348-0.841-0.518c-1.406-2.85-1.285-4.785,0.416-6.389
		c1.656-1.549,3.454-1.609,6.227-0.227c0.167,0.266,0.348,0.549,0.521,0.822C30.665,24.971,30.527,27.164,28.827,28.801"/>
	<path fill="#7F8284" d="M32.138,16.73c-1.092,0.859-0.779,1.816-0.09,2.76c1.733,0.336,2.821-0.094,2.613-2.133
		C33.935,16.666,33.206,15.916,32.138,16.73"/>
	<path fill="#7F8284" d="M25.044,0C11.249-0.035,0.03,11.131,0.001,24.939c-0.027,13.82,11.141,25.033,24.953,25.055
		c13.802,0.018,25.023-11.141,25.047-24.959C50.027,11.215,38.839,0.025,25.044,0 M24.957,46.945
		C12.835,46.92,3.026,37.082,3.058,24.963C3.07,12.848,12.919,3.018,25.038,3.057c12.131,0.018,21.933,9.859,21.912,21.961
		C46.911,37.148,37.079,46.959,24.957,46.945"/>
</g>
</svg>
