<?xml version="1.0" encoding="utf-8"?>
<!-- Generator: Adobe Illustrator 16.0.0, SVG Export Plug-In . SVG Version: 6.00 Build 0)  -->
<!DOCTYPE svg PUBLIC "-//W3C//DTD SVG 1.1//EN" "http://www.w3.org/Graphics/SVG/1.1/DTD/svg11.dtd" [
	<!ENTITY ns_flows "http://ns.adobe.com/Flows/1.0/">
	<!ENTITY ns_extend "http://ns.adobe.com/Extensibility/1.0/">
	<!ENTITY ns_ai "http://ns.adobe.com/AdobeIllustrator/10.0/">
	<!ENTITY ns_graphs "http://ns.adobe.com/Graphs/1.0/">
	<!ENTITY ns_vars "http://ns.adobe.com/Variables/1.0/">
	<!ENTITY ns_imrep "http://ns.adobe.com/ImageReplacement/1.0/">
	<!ENTITY ns_sfw "http://ns.adobe.com/SaveForWeb/1.0/">
	<!ENTITY ns_custom "http://ns.adobe.com/GenericCustomNamespace/1.0/">
	<!ENTITY ns_adobe_xpath "http://ns.adobe.com/XPath/1.0/">
]>
<svg version="1.1" xmlns:x="&ns_extend;" xmlns:i="&ns_ai;" xmlns:graph="&ns_graphs;"
	 xmlns="http://www.w3.org/2000/svg" xmlns:xlink="http://www.w3.org/1999/xlink" xmlns:a="http://ns.adobe.com/AdobeSVGViewerExtensions/3.0/"
	 x="0px" y="0px" width="72.27px" height="100px" viewBox="0 0 72.27 100" enable-background="new 0 0 72.27 100"
	 xml:space="preserve">
<metadata>
	<sfw  xmlns="&ns_sfw;">
		<slices></slices>
		<sliceSourceBounds  width="6564.467" height="4220.128" x="-4024.055" y="-2365.944" bottomLeftOrigin="true">
			</sliceSourceBounds>
	</sfw>
</metadata>
<g id="Capa_1" display="none">
	<g display="inline">
		<g id="XMLID_29_">
			<g>
				<g>
					<g id="XMLID_30_">
						<g>
							<polygon fill="#7F8284" points="67.005,17.879 67.005,17.889 66.996,17.879 							"/>
							<polygon fill="#7F8284" points="66.996,17.861 66.996,17.869 66.988,17.861 							"/>
							<polygon fill="#7F8284" points="66.996,17.879 67.005,17.889 66.996,17.898 66.988,17.889 66.978,17.889 66.97,17.879 
								66.988,17.861 66.996,17.869 							"/>
							<polygon fill="#7F8284" points="66.988,17.889 66.996,17.898 66.988,17.908 66.978,17.898 66.978,17.889 							"/>
							<polygon fill="#7F8284" points="65.392,19.5 66.978,17.898 66.988,17.908 65.392,19.512 							"/>
							<polygon fill="#7F8284" points="66.978,17.898 65.392,19.5 65.382,19.492 65.363,19.5 66.97,17.879 66.978,17.889 							"/>
							<polygon fill="#7F8284" points="65.392,19.512 65.392,19.521 65.382,19.529 65.373,19.521 65.392,19.5 							"/>
							<polygon fill="#7F8284" points="65.373,19.521 65.382,19.529 65.373,19.541 65.355,19.521 65.363,19.5 65.382,19.492 
								65.392,19.5 							"/>
							<polygon fill="#7F8284" points="63.494,53.781 61.673,56.174 63.484,53.771 65.107,51.229 66.447,48.533 67.556,45.742 
								68.392,42.85 68.99,39.867 69.292,36.877 69.32,33.9 69.056,30.891 68.542,27.938 67.738,25.035 66.693,22.217 
								65.382,19.529 65.392,19.521 66.71,22.207 67.753,25.025 68.562,27.93 69.076,30.891 69.339,33.889 69.31,36.877 
								69.007,39.877 68.408,42.85 67.574,45.752 66.464,48.533 65.119,51.229 							"/>
							<polygon fill="#7F8284" points="56.576,32.533 56.517,30.119 56.128,27.75 55.419,25.5 55.427,25.482 56.15,27.75 
								56.535,30.119 56.595,32.523 56.3,34.904 55.664,37.201 55.664,37.191 55.656,37.191 56.283,34.904 							"/>
							<polygon fill="#7F8284" points="56.517,30.119 56.576,32.533 56.283,34.904 55.656,37.191 55.646,37.191 56.273,34.893 
								56.568,32.523 56.509,30.131 56.119,27.758 55.406,25.527 55.419,25.5 56.128,27.75 							"/>
							<polygon fill="#7F8284" points="55.664,37.201 55.673,37.221 55.664,37.221 							"/>
							<polygon fill="#7F8284" points="55.664,37.191 55.664,37.201 55.664,37.221 55.656,37.221 55.636,37.221 55.646,37.201 
								55.656,37.201 55.656,37.191 							"/>
							<rect x="55.646" y="37.191" fill="#7F8284" width="0.01" height="0.01"/>
							<polygon fill="#7F8284" points="55.646,37.191 55.646,37.201 51.888,37.799 51.857,37.791 							"/>
							<polygon fill="#7F8284" points="55.646,37.201 55.636,37.221 51.898,37.807 51.888,37.799 							"/>
							<polygon fill="#7F8284" points="55.419,25.5 55.406,25.527 55.398,25.49 55.406,25.473 							"/>
							<polygon fill="#7F8284" points="55.427,25.473 55.427,25.482 55.419,25.5 55.406,25.473 55.398,25.49 55.388,25.473 
								55.398,25.461 55.419,25.461 							"/>
							<polygon fill="#7F8284" points="55.419,25.461 55.398,25.461 55.398,25.451 							"/>
							<polygon fill="#7F8284" points="54.771,39.25 54.763,39.277 54.753,39.277 54.763,39.26 							"/>
							<polygon fill="#7F8284" points="54.771,39.25 54.763,39.26 54.753,39.277 54.744,39.27 54.753,39.25 54.744,39.25 
								54.753,39.242 							"/>
							<polygon fill="#7F8284" points="54.753,39.25 54.744,39.27 54.734,39.26 54.744,39.25 							"/>
							<polygon fill="#7F8284" points="54.753,39.242 54.744,39.25 51.857,37.816 51.898,37.807 							"/>
							<polygon fill="#7F8284" points="51.857,37.816 54.744,39.25 54.734,39.26 							"/>
							<polygon fill="#7F8284" points="55.406,25.527 54.353,28.432 54.343,28.422 55.398,25.49 							"/>
							<polygon fill="#7F8284" points="55.398,25.49 54.343,28.422 54.335,28.414 55.388,25.473 							"/>
							<polygon fill="#7F8284" points="54.353,28.432 54.343,28.461 54.328,28.449 54.335,28.441 54.343,28.422 							"/>
							<polygon fill="#7F8284" points="54.343,28.422 54.335,28.441 54.328,28.449 54.316,28.441 54.328,28.432 54.335,28.414 
															"/>
							<polygon fill="#7F8284" points="54.335,28.414 54.328,28.432 54.316,28.441 54.328,28.414 							"/>
							<polygon fill="#7F8284" points="53.746,29.598 53.509,29.885 53.736,29.598 54.328,28.449 54.343,28.461 							"/>
							<polygon fill="#7F8284" points="52.921,4.201 52.91,4.213 52.902,4.223 52.892,4.213 52.902,4.201 52.882,4.193 
								52.892,4.182 52.91,4.193 							"/>
							<polygon fill="#7F8284" points="52.91,4.213 52.91,4.223 52.902,4.223 							"/>
							<polygon fill="#7F8284" points="52.91,30.623 52.91,30.635 52.902,30.635 							"/>
							<polygon fill="#7F8284" points="52.902,4.176 52.91,4.193 52.892,4.182 							"/>
							<polygon fill="#7F8284" points="52.892,4.213 52.902,4.223 51.261,5.809 51.273,5.787 							"/>
							<polygon fill="#7F8284" points="52.902,4.201 52.892,4.213 52.873,4.201 52.882,4.193 							"/>
							<polygon fill="#7F8284" points="52.892,4.213 51.273,5.787 51.261,5.787 51.242,5.779 52.873,4.201 							"/>
							<polygon fill="#7F8284" points="51.898,37.807 51.857,37.816 51.847,37.807 51.888,37.799 							"/>
							<polygon fill="#7F8284" points="51.857,37.816 51.83,37.807 51.83,37.799 51.837,37.791 51.847,37.791 51.857,37.791 
								51.888,37.799 51.847,37.807 							"/>
							<polygon fill="#7F8284" points="51.837,37.781 51.847,37.791 51.837,37.791 							"/>
							<polygon fill="#7F8284" points="51.837,37.791 51.83,37.799 51.83,37.791 							"/>
							<polygon fill="#7F8284" points="51.273,5.787 51.261,5.809 51.25,5.816 51.242,5.809 51.23,5.787 51.25,5.797 51.261,5.787 
															"/>
							<polygon fill="#7F8284" points="51.242,5.779 51.261,5.787 51.25,5.797 51.23,5.787 							"/>
							<polygon fill="#7F8284" points="49.144,22.244 49.134,22.256 49.134,22.244 							"/>
							<polygon fill="#7F8284" points="49.144,22.234 49.144,22.244 49.134,22.244 49.134,22.256 49.125,22.264 49.107,22.273 
								49.125,22.244 49.087,22.273 49.125,22.217 							"/>
							<polygon fill="#7F8284" points="49.125,22.217 49.087,22.273 43.214,26.316 43.193,26.316 							"/>
							<polygon fill="#7F8284" points="49.125,22.244 49.107,22.273 49.072,22.301 49.087,22.273 							"/>
							<polygon fill="#7F8284" points="49.125,22.264 45.017,28.1 49.107,22.273 							"/>
							<polygon fill="#7F8284" points="49.107,22.273 45.017,28.1 45.005,28.1 44.996,28.1 49.072,22.301 							"/>
							<polygon fill="#7F8284" points="49.087,22.273 49.072,22.301 43.214,26.344 43.214,26.316 							"/>
							<polygon fill="#7F8284" points="45.005,28.1 44.996,28.119 44.978,28.119 44.984,28.109 44.996,28.1 							"/>
							<polygon fill="#7F8284" points="44.996,28.127 44.996,28.137 44.984,28.127 							"/>
							<polygon fill="#7F8284" points="44.996,28.119 45.005,28.1 45.017,28.1 45.005,28.127 44.996,28.127 44.984,28.127 
								44.978,28.119 							"/>
							<polygon fill="#7F8284" points="44.312,31.402 43.308,30.559 43.326,30.539 44.324,31.383 45.49,32.037 46.742,32.428 
								48.082,32.57 49.402,32.455 50.681,32.066 51.837,31.439 52.892,30.615 53.728,29.588 54.316,28.441 54.328,28.449 
								53.736,29.598 53.509,29.885 52.91,30.623 52.902,30.635 52.673,30.813 51.847,31.459 50.681,32.076 49.402,32.475 
								48.082,32.59 46.734,32.445 45.482,32.059 							"/>
							<polygon fill="#7F8284" points="43.992,28.215 43.593,28.545 43.611,28.518 43.603,28.508 43.984,28.203 44.466,28.043 
								44.978,28.119 44.984,28.127 44.466,28.061 							"/>
							<polygon fill="#7F8284" points="43.593,28.5 42.804,27.719 43.126,27.352 43.289,26.867 43.214,26.344 49.072,22.301 
								44.996,28.1 44.466,28.033 43.984,28.186 							"/>
							<polygon fill="#7F8284" points="43.923,29.893 43.933,29.91 43.916,29.902 							"/>
							<polygon fill="#7F8284" points="43.933,29.91 43.943,29.922 43.923,29.941 43.916,29.932 43.923,29.922 43.906,29.91 
								43.916,29.902 							"/>
							
								<rect x="43.196" y="30.229" transform="matrix(-0.7083 0.706 -0.706 -0.7083 95.8584 20.8564)" fill="#7F8284" width="0.847" height="0.013"/>
							
								<rect x="43.9" y="29.915" transform="matrix(-0.8321 -0.5547 0.5547 -0.8321 63.8494 79.1738)" fill="#7F8284" width="0.021" height="0.013"/>
							<polygon fill="#7F8284" points="43.916,29.932 43.316,30.529 43.296,30.52 43.896,29.922 							"/>
							<polygon fill="#7F8284" points="43.984,28.203 43.603,28.508 43.593,28.5 43.984,28.186 44.466,28.033 44.996,28.1 
								44.984,28.109 44.978,28.119 44.466,28.043 							"/>
							<polygon fill="#7F8284" points="43.308,30.559 44.312,31.402 45.482,32.059 46.734,32.445 48.082,32.59 49.402,32.475 
								50.681,32.076 51.847,31.459 52.673,30.813 51.857,31.471 50.691,32.096 49.412,32.486 48.082,32.6 46.734,32.455 
								45.482,32.066 44.304,31.41 43.296,30.568 							"/>
							
								<rect x="43.587" y="28.502" transform="matrix(-0.7809 -0.6247 0.6247 -0.7809 59.8246 78.0029)" fill="#7F8284" width="0.013" height="0.014"/>
							<polygon fill="#7F8284" points="43.611,28.518 43.593,28.545 43.574,28.525 43.574,28.518 43.583,28.508 43.593,28.518 
								43.603,28.508 							"/>
							
								<rect x="43.298" y="30.536" transform="matrix(0.669 -0.7433 0.7433 0.669 -8.3657 42.304)" fill="#7F8284" width="0.026" height="0.015"/>
							<polygon fill="#7F8284" points="43.296,30.549 43.308,30.559 43.296,30.568 43.279,30.549 43.296,30.52 43.316,30.529 
															"/>
							<polygon fill="#7F8284" points="43.214,26.316 43.214,26.344 43.203,26.354 43.203,26.326 							"/>
							<polygon fill="#7F8284" points="43.203,26.326 43.203,26.354 43.185,26.326 43.193,26.316 43.214,26.316 							"/>
							<polygon fill="#7F8284" points="43.193,26.316 43.185,26.326 43.185,26.316 							"/>
							<polygon fill="#7F8284" points="43.099,27.352 43.117,27.33 43.271,26.857 43.203,26.354 43.214,26.344 43.289,26.867 
								43.126,27.352 42.804,27.719 42.792,27.711 							"/>
							<polygon fill="#7F8284" points="43.117,27.33 43.099,27.352 43.107,27.33 43.251,26.857 43.185,26.326 43.203,26.354 
								43.271,26.857 							"/>
							<polygon fill="#7F8284" points="42.785,27.701 43.099,27.352 42.792,27.711 							"/>
							<polygon fill="#7F8284" points="42.804,27.719 43.593,28.5 43.583,28.508 42.792,27.738 							"/>
							<polygon fill="#7F8284" points="42.804,27.719 42.792,27.738 42.785,27.729 42.792,27.711 							"/>
							<polygon fill="#7F8284" points="42.792,27.738 43.583,28.508 43.574,28.518 43.574,28.525 42.785,27.75 							"/>
							<polygon fill="#7F8284" points="42.785,27.729 42.792,27.738 42.785,27.75 42.765,27.729 42.777,27.711 42.785,27.701 
								42.792,27.711 							"/>
							<polygon fill="#7F8284" points="42.605,48.191 40.412,48.428 40.404,48.408 42.605,48.172 44.787,47.643 46.855,46.842 
								48.832,45.781 50.625,44.432 52.208,42.895 53.615,41.148 54.744,39.27 54.753,39.277 53.623,41.16 52.218,42.904 
								50.634,44.453 48.839,45.791 46.865,46.854 44.796,47.652 							"/>
							<polygon fill="#7F8284" points="42.605,48.172 40.404,48.408 40.404,48.398 42.605,48.164 44.787,47.621 46.847,46.824 
								48.822,45.764 50.613,44.424 52.201,42.885 53.605,41.148 54.734,39.26 54.744,39.27 53.615,41.148 52.208,42.895 
								50.625,44.432 48.832,45.781 46.855,46.842 44.787,47.643 							"/>
							
								<rect x="40.873" y="28.66" transform="matrix(0.7096 0.7046 -0.7046 0.7096 32.5846 -21.7223)" fill="#7F8284" width="3.542" height="0.015"/>
							<polygon fill="#7F8284" points="41.685,36.328 41.703,36.355 41.695,36.365 41.685,36.346 41.673,36.338 							"/>
							<polygon fill="#7F8284" points="41.685,36.346 41.695,36.365 41.695,36.377 41.685,36.377 41.673,36.355 41.664,36.346 
								41.673,36.338 							"/>
							<polygon fill="#7F8284" points="41.392,27.387 43.916,29.902 43.906,29.91 41.392,27.414 41.402,27.406 							"/>
							<polygon fill="#7F8284" points="41.392,27.387 41.402,27.406 41.392,27.414 41.382,27.406 41.373,27.414 41.361,27.406 
								41.382,27.379 							"/>
							
								<rect x="41.376" y="27.408" transform="matrix(-0.7809 -0.6247 0.6247 -0.7809 56.5698 74.6757)" fill="#7F8284" width="0.013" height="0.015"/>
							<polygon fill="#7F8284" points="41.314,35.721 40.933,35.33 40.851,35.236 40.861,35.215 41.332,35.711 41.685,36.328 
								41.673,36.338 41.324,35.729 							"/>
							<polygon fill="#7F8284" points="41.314,35.729 41.314,35.721 41.324,35.729 41.673,36.338 41.664,36.346 							"/>
							<path fill="#7F8284" d="M40.933,35.33l0.381,0.391L40.933,35.33z"/>
							<polygon fill="#7F8284" points="40.851,35.236 40.933,35.33 40.837,35.246 40.837,35.236 							"/>
							<polygon fill="#7F8284" points="40.861,35.215 40.851,35.236 40.837,35.236 40.837,35.227 40.82,35.215 40.837,35.199 
															"/>
							<polygon fill="#7F8284" points="40.837,35.227 40.837,35.236 40.83,35.236 40.82,35.215 							"/>
							<polygon fill="#7F8284" points="40.83,35.236 40.837,35.236 40.837,35.246 							"/>
							
								<rect x="40.645" y="27.712" transform="matrix(-0.7128 0.7014 -0.7014 -0.7128 89.7911 18.6709)" fill="#7F8284" width="0.855" height="0.015"/>
							<polygon fill="#7F8284" points="41.373,27.414 40.763,28.014 40.757,28.004 40.757,27.996 41.382,27.379 41.361,27.406 
															"/>
							<polygon fill="#7F8284" points="40.746,28.023 40.757,28.043 40.734,28.023 40.734,28.014 							"/>
							<polygon fill="#7F8284" points="40.757,28.023 40.763,28.014 40.773,28.023 40.757,28.043 40.746,28.023 40.734,28.014 
								40.746,28.004 							"/>
							<polygon fill="#7F8284" points="40.757,28.004 40.763,28.014 40.757,28.023 40.746,28.004 							"/>
							<polygon fill="#7F8284" points="40.404,48.398 40.404,48.408 40.392,48.408 40.375,48.408 40.375,48.398 							"/>
							<polygon fill="#7F8284" points="40.384,48.428 40.375,48.408 40.392,48.408 40.404,48.408 40.412,48.428 40.392,48.428 
															"/>
							<polygon fill="#7F8284" points="40.224,27.342 40.757,27.996 40.757,28.004 40.746,28.004 							"/>
							<polygon fill="#7F8284" points="40.08,34.809 39.843,34.734 39.843,34.705 40.107,34.789 40.375,34.885 40.611,35.029 
								40.837,35.199 40.82,35.215 40.601,35.047 40.367,34.904 40.099,34.809 							"/>
							<polygon fill="#7F8284" points="40.099,34.809 40.367,34.904 40.601,35.047 40.82,35.215 40.83,35.236 40.593,35.057 
								40.355,34.914 40.099,34.818 40.08,34.809 							"/>
							<polygon fill="#7F8284" points="40.08,34.809 39.826,34.734 39.843,34.734 							"/>
							<polygon fill="#7F8284" points="39.826,26.545 39.644,25.689 39.712,24.797 39.976,23.943 39.986,23.943 39.994,23.934 
								39.732,24.797 39.664,25.689 39.843,26.535 40.224,27.33 40.224,27.342 40.212,27.33 							"/>
							<polygon fill="#7F8284" points="39.994,23.934 39.986,23.943 39.976,23.943 39.976,23.934 39.966,23.934 39.966,23.914 
								39.994,23.914 							"/>
							<polygon fill="#7F8284" points="39.976,23.934 39.976,23.943 39.958,23.943 39.966,23.934 							"/>
							<polygon fill="#7F8284" points="39.843,34.705 39.843,34.734 39.826,34.725 39.808,34.725 39.816,34.705 							"/>
							<polygon fill="#7F8284" points="39.826,34.725 39.843,34.734 39.826,34.734 39.808,34.734 39.808,34.725 							"/>
							<polygon fill="#7F8284" points="39.816,26.545 39.636,25.689 39.703,24.787 39.958,23.943 39.976,23.943 39.712,24.797 
								39.644,25.689 39.826,26.545 40.212,27.33 40.224,27.342 40.746,28.004 40.734,28.014 40.203,27.342 							"/>
							<polygon fill="#7F8284" points="38.773,35.037 39.228,34.754 39.808,34.725 39.808,34.734 39.236,34.762 38.773,35.047 
															"/>
							<polygon fill="#7F8284" points="39.228,34.754 38.773,35.037 38.759,35.037 38.751,35.018 39.228,34.734 39.816,34.705 
								39.808,34.725 							"/>
							<polygon fill="#7F8284" points="38.751,35.018 38.759,35.037 38.751,35.047 38.742,35.057 38.732,35.037 38.742,35.029 
															"/>
							<polygon fill="#7F8284" points="38.773,35.037 38.773,35.047 38.751,35.066 38.742,35.057 38.751,35.047 38.759,35.037 
															"/>
							<polygon fill="#7F8284" points="38.742,35.057 38.751,35.066 37.906,35.902 37.923,35.871 37.916,35.861 							"/>
							<polygon fill="#7F8284" points="38.732,35.037 38.742,35.057 37.916,35.861 37.906,35.854 							"/>
							
								<rect x="37.9" y="35.855" transform="matrix(-0.7809 -0.6247 0.6247 -0.7809 45.1022 87.5456)" fill="#7F8284" width="0.013" height="0.014"/>
							<polygon fill="#7F8284" points="35.429,33.357 37.906,35.854 37.896,35.861 35.412,33.367 							"/>
							<polygon fill="#7F8284" points="37.906,35.871 37.916,35.861 37.923,35.871 37.906,35.902 37.896,35.891 37.886,35.871 
								37.896,35.861 							"/>
							
								<rect x="34.889" y="34.612" transform="matrix(-0.7057 -0.7085 0.7085 -0.7057 37.9854 85.016)" fill="#7F8284" width="3.52" height="0.014"/>
							<path fill="#7F8284" d="M36.912,36.289l-0.01,0.012L36.912,36.289z"/>
							<polygon fill="#7F8284" points="36.892,36.26 36.912,36.289 36.902,36.301 36.892,36.309 36.88,36.301 36.892,36.289 
								36.873,36.281 							"/>
							<polygon fill="#7F8284" points="36.873,36.281 34.955,34.4 34.964,34.393 36.892,36.26 							"/>
							<polygon fill="#7F8284" points="36.892,36.289 36.88,36.301 36.863,36.289 36.873,36.281 							"/>
							
								<rect x="7.046" y="48.589" transform="matrix(0.71 -0.7042 0.7042 0.71 -27.1166 31.345)" fill="#7F8284" width="34.904" height="0.011"/>
							<polygon fill="#7F8284" points="36.88,36.301 12.103,60.881 12.083,60.871 36.863,36.289 							"/>
							<polygon fill="#7F8284" points="34.949,34.422 36.863,36.289 12.083,60.871 10.177,58.963 							"/>
							<polygon fill="#7F8284" points="36.683,41.471 36.447,41.33 36.267,41.148 36.103,40.988 36.103,40.979 36.277,41.139 
								36.455,41.311 36.695,41.461 36.931,41.547 37.207,41.643 37.738,41.699 38.001,41.67 38.298,41.643 38.572,41.576 
								38.865,41.492 39.132,41.377 39.703,41.072 40.203,40.695 40.689,40.219 41.105,39.727 41.429,39.154 41.673,38.566 
								41.857,38.008 41.882,37.703 41.882,37.127 41.857,36.859 41.673,36.355 41.685,36.377 41.695,36.377 41.769,36.584 
								41.865,36.859 41.894,37.127 41.894,37.42 41.894,37.713 41.865,38.008 41.685,38.576 41.437,39.154 41.115,39.727 
								40.699,40.236 40.212,40.713 39.712,41.092 39.14,41.396 38.865,41.512 38.572,41.586 38.298,41.66 38.001,41.689 
								37.738,41.711 37.46,41.689 37.195,41.66 36.921,41.566 							"/>
							<polygon fill="#7F8284" points="36.447,41.33 36.683,41.471 36.921,41.566 37.195,41.66 37.46,41.689 37.738,41.711 
								38.001,41.689 38.298,41.66 38.572,41.586 38.865,41.512 39.14,41.396 39.712,41.092 40.212,40.713 40.699,40.236 
								41.115,39.727 41.437,39.154 41.685,38.576 41.865,38.008 41.894,37.713 41.894,37.42 41.894,37.127 41.865,36.859 
								41.769,36.584 41.695,36.377 41.695,36.365 41.703,36.355 41.791,36.584 41.882,36.85 41.914,37.117 41.914,37.713 
								41.882,38.018 41.703,38.576 41.447,39.164 41.123,39.736 40.707,40.248 40.224,40.723 39.722,41.102 39.15,41.406 
								38.875,41.518 38.582,41.605 38.298,41.67 38.001,41.699 37.738,41.729 37.195,41.67 36.921,41.576 36.683,41.492 
								36.435,41.34 36.253,41.168 36.087,40.998 36.097,40.988 36.103,40.988 36.267,41.148 							"/>
							<polygon fill="#7F8284" points="36.097,40.959 36.103,40.979 36.103,40.988 36.097,40.988 36.087,40.979 36.076,40.988 
								36.068,40.979 36.087,40.949 							"/>
							
								<rect x="36.08" y="40.981" transform="matrix(-0.7071 -0.7071 0.7071 -0.7071 32.622 95.489)" fill="#7F8284" width="0.014" height="0.014"/>
							<polygon fill="#7F8284" points="36.027,32.732 36.019,32.723 36.027,32.713 36.046,32.732 36.037,32.75 36.027,32.76 
								36.019,32.75 							"/>
							<polygon fill="#7F8284" points="36.027,32.732 36.019,32.75 36.009,32.75 36,32.74 36.019,32.723 							"/>
							<polygon fill="#7F8284" points="36.019,32.75 36.027,32.76 35.429,33.357 35.419,33.348 36.009,32.75 							"/>
							<polygon fill="#7F8284" points="35.763,22.879 31.664,21.484 27.705,19.785 31.664,21.475 35.763,22.861 39.966,23.934 
								39.958,23.943 							"/>
							<polygon fill="#7F8284" points="36.009,32.75 35.419,33.348 35.412,33.348 35.412,33.34 35.4,33.33 36,32.74 							"/>
							<polygon fill="#7F8284" points="34.955,34.41 34.955,34.4 36.873,36.281 36.863,36.289 34.949,34.422 							"/>
							<polygon fill="#7F8284" points="35.429,33.357 35.412,33.367 35.4,33.357 35.412,33.348 35.419,33.348 							"/>
							<polygon fill="#7F8284" points="35.4,33.357 35.412,33.367 35.4,33.377 35.382,33.357 35.394,33.34 35.4,33.33 35.412,33.34 
								35.412,33.348 							"/>
							<polygon fill="#7F8284" points="34.949,34.373 34.964,34.393 34.955,34.4 34.949,34.393 34.937,34.4 34.929,34.4 
								34.929,34.393 							"/>
							<polygon fill="#7F8284" points="34.955,34.4 34.955,34.41 34.949,34.422 34.937,34.4 34.949,34.393 							"/>
							<polygon fill="#7F8284" points="34.937,34.4 34.949,34.422 10.177,58.963 10.167,58.953 34.929,34.4 							"/>
							<polygon fill="#7F8284" points="34.929,34.4 10.167,58.953 10.16,58.943 10.15,58.934 34.929,34.393 							"/>
							<polygon fill="#7F8284" points="33.667,31.641 34.531,31.82 35.337,32.172 36.019,32.723 36,32.74 35.324,32.184 
								34.521,31.828 33.667,31.65 32.763,31.678 31.947,31.934 31.947,31.924 32.763,31.658 							"/>
							<polygon fill="#7F8284" points="33.667,31.621 34.531,31.801 35.345,32.15 36.027,32.713 36.019,32.723 35.337,32.172 
								34.531,31.82 33.667,31.641 32.763,31.658 31.947,31.924 31.939,31.914 32.763,31.65 							"/>
							<polygon fill="#7F8284" points="31.947,31.934 31.947,31.941 31.929,31.941 							"/>
							<polygon fill="#7F8284" points="31.947,31.924 31.947,31.934 31.929,31.934 31.929,31.914 31.939,31.914 							"/>
							<polygon fill="#7F8284" points="31.929,31.934 31.947,31.934 31.929,31.941 31.919,31.941 31.919,31.934 31.919,31.924 
								31.929,31.914 							"/>
							<polygon fill="#7F8284" points="31.919,31.924 31.919,31.934 31.912,31.924 							"/>
							<polygon fill="#7F8284" points="31.664,21.475 27.705,19.785 27.695,19.766 27.695,19.76 31.671,21.457 35.773,22.85 
								39.994,23.914 39.966,23.914 39.966,23.934 35.763,22.861 							"/>
							<polygon fill="#7F8284" points="29.416,23.695 27.687,19.785 27.705,19.785 29.423,23.688 30.837,27.777 31.939,31.914 
								31.929,31.914 30.818,27.787 							"/>
							<polygon fill="#7F8284" points="29.406,23.695 27.667,19.777 27.687,19.777 27.687,19.785 29.416,23.695 30.818,27.787 
								31.929,31.914 31.919,31.924 30.808,27.787 							"/>
							<polygon fill="#7F8284" points="28.757,49.871 28.218,51.305 28.75,49.861 29.765,47.756 31.054,45.799 32.515,44.016 
								34.224,42.383 36.087,40.949 36.068,40.979 36.076,40.988 34.236,42.4 32.527,44.025 31.066,45.799 29.773,47.756 							"/>
							<polygon fill="#7F8284" points="27.458,54.238 29.226,52.605 31.199,51.209 33.353,50.088 35.611,49.227 37.974,48.666 
								40.375,48.398 40.375,48.408 37.974,48.686 35.611,49.244 33.361,50.109 31.207,51.229 29.234,52.623 27.468,54.246 
								27.451,54.246 							"/>
							<polygon fill="#7F8284" points="27.972,52.033 28.781,49.871 29.783,47.764 31.076,45.809 32.537,44.033 34.246,42.412 
								36.087,40.998 36.253,41.168 36.435,41.34 36.683,41.492 36.921,41.576 37.195,41.67 37.738,41.729 38.001,41.699 
								38.298,41.67 38.582,41.605 38.875,41.518 39.15,41.406 39.722,41.102 40.224,40.723 40.707,40.248 41.123,39.736 
								41.447,39.164 41.703,38.576 41.882,38.018 41.914,37.713 41.914,37.117 41.882,36.85 41.791,36.584 41.703,36.355 
								41.685,36.328 41.332,35.711 40.861,35.215 40.837,35.199 40.611,35.029 40.375,34.885 40.107,34.789 39.843,34.705 
								39.816,34.705 39.228,34.734 38.751,35.018 38.742,35.029 38.732,35.037 37.906,35.854 35.429,33.357 36.027,32.76 
								36.037,32.75 36.046,32.732 36.027,32.713 35.345,32.15 34.531,31.801 33.667,31.621 32.763,31.65 31.939,31.914 
								30.837,27.777 29.423,23.688 27.705,19.785 31.664,21.484 35.763,22.879 39.958,23.943 39.703,24.787 39.636,25.689 
								39.816,26.545 40.203,27.342 40.734,28.014 40.734,28.023 40.757,28.043 40.773,28.023 41.382,27.426 43.896,29.922 
								43.296,30.52 43.279,30.549 43.296,30.568 44.304,31.41 45.482,32.066 46.734,32.455 48.082,32.6 49.412,32.486 
								50.691,32.096 51.857,31.471 52.673,30.813 52.902,30.635 52.91,30.635 52.91,30.623 53.509,29.885 53.746,29.598 
								54.343,28.461 54.353,28.432 55.406,25.527 56.119,27.758 56.509,30.131 56.568,32.523 56.273,34.893 55.646,37.191 
								51.857,37.791 51.847,37.791 51.837,37.781 51.837,37.791 51.83,37.791 51.83,37.799 51.83,37.807 51.857,37.816 
								54.734,39.26 53.605,41.148 52.201,42.885 50.613,44.424 48.822,45.764 46.847,46.824 44.787,47.621 42.605,48.164 
								40.404,48.398 40.375,48.398 37.974,48.666 35.611,49.227 33.353,50.088 31.199,51.209 29.226,52.605 27.458,54.238 
								27.451,54.246 							"/>
							<polygon fill="#7F8284" points="27.705,19.785 27.687,19.785 27.687,19.777 							"/>
							<polygon fill="#7F8284" points="27.695,19.766 27.705,19.785 27.687,19.777 27.667,19.777 27.658,19.75 27.667,19.738 
								27.695,19.76 							"/>
							<polygon fill="#7F8284" points="27.687,19.73 27.695,19.76 27.667,19.738 							"/>
							<polygon fill="#7F8284" points="27.658,19.75 27.667,19.777 27.63,19.76 27.638,19.73 27.667,19.738 							"/>
							<polygon fill="#7F8284" points="27.468,54.246 29.234,52.623 31.207,51.229 33.361,50.109 35.611,49.244 37.974,48.686 
								40.375,48.408 40.384,48.428 37.974,48.693 35.611,49.254 33.373,50.119 31.216,51.236 29.244,52.633 27.468,54.273 
								27.451,54.246 							"/>
							<polygon fill="#7F8284" points="28.781,49.871 27.972,52.033 27.451,54.246 27.431,54.246 27.955,52.025 28.218,51.305 
								28.757,49.871 29.773,47.756 31.066,45.799 32.527,44.025 34.236,42.4 36.076,40.988 36.087,40.998 34.246,42.412 
								32.537,44.033 31.076,45.809 29.783,47.764 							"/>
							<polygon fill="#7F8284" points="28.218,51.305 27.955,52.025 27.431,54.246 27.451,54.246 27.423,54.322 27.392,54.322 
								27.423,54.238 27.943,52.025 							"/>
							<polygon fill="#7F8284" points="23.132,65.396 20.425,64.098 20.433,64.09 20.425,64.068 23.138,65.379 25.988,66.414 
								28.912,67.209 31.9,67.752 34.919,67.986 37.947,67.959 40.966,67.654 43.923,67.096 46.855,66.27 49.656,65.141 
								52.38,63.803 54.953,62.209 57.371,60.395 59.593,58.385 61.65,56.164 63.474,53.771 65.099,51.219 66.435,48.521 
								67.546,45.742 68.382,42.838 68.98,39.867 69.283,36.877 69.302,33.9 69.044,30.898 68.535,27.938 67.728,25.035 
								66.683,22.217 65.373,19.541 65.382,19.529 66.693,22.217 67.738,25.035 68.542,27.938 69.056,30.891 69.32,33.9 
								69.292,36.877 68.99,39.867 68.392,42.85 67.556,45.742 66.447,48.533 65.107,51.229 63.484,53.771 61.673,56.174 
								61.664,56.182 59.605,58.393 57.38,60.416 54.962,62.229 52.388,63.813 49.666,65.16 46.855,66.281 43.923,67.115 
								40.966,67.674 37.947,67.979 34.919,68.008 31.9,67.77 28.912,67.221 25.98,66.424 							"/>
							<polygon fill="#7F8284" points="23.132,65.396 25.98,66.424 28.912,67.221 31.9,67.77 34.919,68.008 37.947,67.979 
								40.966,67.674 43.923,67.115 46.855,66.281 49.666,65.16 52.388,63.813 54.962,62.229 57.38,60.416 59.605,58.393 
								61.664,56.182 61.673,56.174 61.673,56.182 59.613,58.41 57.392,60.424 54.97,62.236 52.4,63.83 49.673,65.17 46.865,66.299 
								43.933,67.125 40.966,67.684 37.947,67.986 34.919,68.018 31.9,67.779 28.912,67.238 25.98,66.439 23.132,65.408 
								20.425,64.098 							"/>
							<polygon fill="#7F8284" points="21.527,67.066 18.794,65.711 20.425,64.098 23.132,65.408 25.98,66.439 28.912,67.238 
								31.9,67.779 34.919,68.018 37.947,67.986 40.966,67.684 43.933,67.125 46.865,66.299 49.673,65.17 52.4,63.83 54.97,62.236 
								57.392,60.424 59.613,58.41 61.673,56.182 61.673,56.174 63.494,53.781 65.119,51.229 66.464,48.533 67.574,45.752 
								68.408,42.85 69.007,39.877 69.31,36.877 69.339,33.889 69.076,30.891 68.562,27.93 67.753,25.025 66.71,22.207 
								65.392,19.521 65.392,19.512 66.988,17.908 68.353,20.584 69.519,23.432 70.423,26.336 71.048,29.307 71.435,32.322 
								71.523,35.34 71.38,38.357 70.955,41.387 70.3,44.348 69.369,47.225 68.171,50.033 66.769,52.738 65.099,55.271 
								63.238,57.672 61.179,59.922 58.9,61.973 56.482,63.83 53.908,65.463 51.193,66.889 48.386,68.045 45.453,68.965 
								42.462,69.65 39.435,70.057 36.39,70.209 33.304,70.084 30.287,69.734 27.306,69.08 24.375,68.195 							"/>
							<polygon fill="#7F8284" points="21.519,67.088 18.785,65.721 18.794,65.711 21.527,67.066 24.375,68.195 27.306,69.08 
								30.287,69.734 33.304,70.084 36.39,70.209 39.435,70.057 42.462,69.65 45.453,68.965 48.386,68.045 51.193,66.889 
								53.908,65.463 56.482,63.83 58.9,61.973 61.179,59.922 63.238,57.672 65.099,55.271 66.769,52.738 68.171,50.033 
								69.369,47.225 70.3,44.348 70.955,41.387 71.38,38.357 71.523,35.34 71.435,32.322 71.048,29.307 70.423,26.336 
								69.519,23.432 68.353,20.584 66.988,17.908 66.996,17.898 68.363,20.584 69.529,23.432 70.433,26.326 71.058,29.307 
								71.449,32.314 71.531,35.34 71.39,38.369 70.962,41.396 70.31,44.355 69.376,47.225 68.183,50.043 66.777,52.738 
								65.107,55.279 63.248,57.68 61.187,59.941 58.91,61.99 56.492,63.852 53.917,65.473 51.193,66.898 48.386,68.066 
								45.453,68.986 42.462,69.666 39.435,70.066 36.39,70.221 33.304,70.096 30.287,69.744 27.296,69.1 24.367,68.217 							"/>
							<polygon fill="#7F8284" points="21.519,67.096 18.773,65.729 18.785,65.721 21.519,67.088 24.367,68.217 27.296,69.1 
								30.287,69.744 33.304,70.096 36.39,70.221 39.435,70.066 42.462,69.666 45.453,68.986 48.386,68.066 51.193,66.898 
								53.917,65.473 56.492,63.852 58.91,61.99 61.187,59.941 63.248,57.68 65.107,55.279 66.777,52.738 68.183,50.043 
								69.376,47.225 70.31,44.355 70.962,41.396 71.39,38.369 71.531,35.34 71.449,32.314 71.058,29.307 70.433,26.326 
								69.529,23.432 68.363,20.584 66.996,17.898 67.005,17.889 68.371,20.574 69.546,23.42 70.451,26.326 71.078,29.295 
								71.466,32.314 71.552,35.34 71.408,38.369 70.982,41.396 70.328,44.355 69.396,47.232 68.199,50.043 66.789,52.748 
								65.119,55.289 63.257,57.691 61.197,59.949 58.919,62.002 56.5,63.859 53.927,65.492 51.205,66.916 48.394,68.072 
								45.462,68.994 42.462,69.676 39.435,70.084 36.39,70.238 33.304,70.115 30.287,69.762 27.296,69.109 24.367,68.225 							
								"/>
							<polygon fill="#7F8284" points="20.416,64.09 20.425,64.098 20.408,64.098 							"/>
							<polygon fill="#7F8284" points="20.425,64.068 20.433,64.09 20.425,64.098 20.416,64.09 20.408,64.098 20.398,64.09 
								20.408,64.068 20.416,64.059 							"/>
							<polygon fill="#7F8284" points="20.425,64.098 18.794,65.711 18.773,65.701 20.408,64.098 							"/>
							<polygon fill="#7F8284" points="20.398,64.09 20.408,64.098 18.773,65.701 18.763,65.691 20.408,64.068 							"/>
							<polygon fill="#7F8284" points="18.794,65.711 18.785,65.721 18.763,65.711 18.773,65.701 							"/>
							<polygon fill="#7F8284" points="18.773,65.729 18.763,65.738 18.753,65.729 							"/>
							<polygon fill="#7F8284" points="18.753,65.691 18.763,65.691 18.753,65.701 							"/>
							<polygon fill="#7F8284" points="18.763,65.711 18.785,65.721 18.773,65.729 18.753,65.729 18.746,65.711 18.753,65.701 
								18.763,65.691 18.773,65.701 							"/>
							<polygon fill="#7F8284" points="12.103,60.881 12.093,60.889 12.083,60.881 12.083,60.871 							"/>
							<polygon fill="#7F8284" points="12.093,60.889 12.103,60.881 12.111,60.889 12.093,60.908 12.083,60.898 12.074,60.889 
								12.083,60.881 							"/>
							<polygon fill="#7F8284" points="12.083,60.881 10.16,58.973 10.177,58.963 12.083,60.871 							"/>
							
								<rect x="9.762" y="59.924" transform="matrix(-0.71 -0.7042 0.7042 -0.71 -23.1949 110.3091)" fill="#7F8284" width="2.71" height="0.013"/>
							<polygon fill="#7F8284" points="10.167,58.953 10.177,58.963 10.16,58.973 10.15,58.963 							"/>
							<polygon fill="#7F8284" points="10.15,58.963 10.16,58.973 10.15,58.982 10.128,58.963 10.15,58.934 10.16,58.943 
								10.167,58.953 							"/>
							<polygon fill="#7F8284" points="6.611,50.109 6.597,50.119 6.578,50.127 6.578,50.119 6.578,50.109 6.587,50.109 
								6.578,50.088 6.587,50.078 							"/>
							<polygon fill="#7F8284" points="6.578,50.088 6.587,50.109 6.578,50.109 6.57,50.1 							"/>
							<polygon fill="#7F8284" points="6.578,50.109 6.578,50.119 4.958,51.713 4.949,51.701 6.57,50.1 							"/>
							<polygon fill="#7F8284" points="6.578,50.127 4.966,51.732 4.958,51.713 6.578,50.119 							"/>
							
								<rect x="4.941" y="51.705" transform="matrix(-0.6402 -0.7682 0.7682 -0.6402 -31.6094 88.6188)" fill="#7F8284" width="0.015" height="0.014"/>
							<polygon fill="#7F8284" points="4.949,51.723 4.958,51.713 4.966,51.732 4.949,51.75 4.935,51.74 4.927,51.723 4.935,51.713 
															"/>
							<polygon fill="#7F8284" points="4.935,51.74 4.949,51.75 4.935,51.75 							"/>
							<polygon fill="#7F8284" points="3.505,29.238 3.115,32.268 2.994,35.35 3.144,38.387 3.591,41.416 4.341,44.404 
								5.328,47.309 6.587,50.078 6.578,50.088 5.308,47.318 4.322,44.416 3.572,41.424 3.125,38.387 2.974,35.34 3.095,32.256 
								3.488,29.229 4.197,26.25 5.158,23.336 6.41,20.527 7.908,17.861 9.646,15.316 11.621,12.941 13.802,10.779 16.164,8.826 
								18.738,7.105 21.433,5.627 24.269,4.373 27.201,3.436 30.22,2.75 33.277,2.322 36.359,2.201 39.435,2.361 42.521,2.799 
								45.509,3.549 48.443,4.555 51.23,5.787 51.242,5.809 48.431,4.564 45.509,3.557 42.521,2.816 39.435,2.373 36.359,2.217 
								33.277,2.344 30.22,2.762 27.201,3.443 24.279,4.383 21.441,5.635 18.746,7.115 16.173,8.834 13.812,10.789 11.628,12.953 
								9.654,15.316 7.919,17.861 6.419,20.527 5.166,23.344 4.218,26.25 							"/>
							<polygon fill="#7F8284" points="3.105,38.398 2.964,35.35 3.087,32.256 3.474,29.229 4.187,26.24 5.144,23.336 6.4,20.516 
								7.898,17.85 9.636,15.307 11.609,12.934 13.794,10.76 16.154,8.805 18.728,7.088 21.423,5.607 24.259,4.354 27.201,3.416 
								30.22,2.732 33.277,2.313 36.359,2.191 39.435,2.344 42.521,2.791 45.509,3.529 48.453,4.535 51.242,5.779 51.23,5.787 
								48.443,4.555 45.509,3.549 42.521,2.799 39.435,2.361 36.359,2.201 33.277,2.322 30.22,2.75 27.201,3.436 24.269,4.373 
								21.433,5.627 18.738,7.105 16.164,8.826 13.802,10.779 11.621,12.941 9.646,15.316 7.908,17.861 6.41,20.527 5.158,23.336 
								4.197,26.25 3.488,29.229 3.095,32.256 2.974,35.34 3.125,38.387 3.572,41.424 4.322,44.416 5.308,47.318 6.578,50.088 
								6.57,50.1 5.298,47.318 4.308,44.416 3.56,41.424 							"/>
							<polygon fill="#7F8284" points="1.103,40.02 0.808,36.945 0.783,33.832 1.046,30.758 1.56,27.701 2.367,24.742 3.41,21.797 
								4.718,19.02 6.275,16.324 8.041,13.777 10.044,11.406 12.257,9.252 14.646,7.258 17.189,5.484 19.912,3.947 22.722,2.637 
								25.675,1.602 28.662,0.807 31.748,0.293 34.861,0.027 37.974,0.057 41.087,0.357 44.162,0.92 47.152,1.746 50.074,2.846 
								52.873,4.201 51.242,5.779 48.453,4.535 45.509,3.529 42.521,2.791 39.435,2.344 36.359,2.191 33.277,2.313 30.22,2.732 
								27.201,3.416 24.259,4.354 21.423,5.607 18.728,7.088 16.154,8.805 13.794,10.76 11.609,12.934 9.636,15.307 7.898,17.85 
								6.4,20.516 5.144,23.336 4.187,26.24 3.474,29.229 3.087,32.256 2.964,35.35 3.105,38.398 3.56,41.424 4.308,44.416 
								5.298,47.318 6.57,50.1 4.949,51.701 3.621,48.939 2.517,46.035 1.673,43.039 							"/>
							<polygon fill="#7F8284" points="1.046,30.758 0.783,33.832 0.808,36.945 1.103,40.02 1.673,43.039 2.517,46.035 
								3.621,48.939 4.949,51.701 4.935,51.713 3.601,48.939 2.498,46.035 1.654,43.047 1.082,40.029 0.791,36.945 0.761,33.832 
								1.029,30.758 1.541,27.701 2.347,24.742 3.392,21.797 4.708,19.008 6.265,16.324 8.033,13.77 10.033,11.396 12.246,9.242 
								14.638,7.248 17.179,5.465 19.904,3.938 22.712,2.619 25.675,1.592 28.662,0.795 31.748,0.285 34.861,0.01 37.974,0.045 
								41.087,0.338 44.162,0.9 47.152,1.727 50.083,2.836 52.882,4.193 52.873,4.201 50.074,2.846 47.152,1.746 44.162,0.92 
								41.087,0.357 37.974,0.057 34.861,0.027 31.748,0.293 28.662,0.807 25.675,1.602 22.722,2.637 19.912,3.947 17.189,5.484 
								14.646,7.258 12.257,9.252 10.044,11.406 8.041,13.777 6.275,16.324 4.718,19.02 3.41,21.797 2.367,24.742 1.56,27.701 
															"/>
							<polygon fill="#7F8284" points="0.761,33.832 0.791,36.945 1.082,40.029 1.654,43.047 2.498,46.035 3.601,48.939 
								4.935,51.713 4.927,51.723 3.591,48.949 2.49,46.045 1.646,43.047 1.074,40.029 0.783,36.945 0.751,33.832 1.017,30.748 
								1.533,27.691 2.337,24.73 3.382,21.789 4.701,19.008 6.257,16.314 8.021,13.76 10.023,11.377 12.238,9.225 14.628,7.23 
								17.171,5.455 19.894,3.918 22.703,2.607 25.675,1.574 28.662,0.777 31.748,0.266 34.861,0 37.974,0.027 41.087,0.33 
								44.162,0.891 47.16,1.717 50.093,2.816 52.892,4.182 52.882,4.193 50.083,2.836 47.152,1.727 44.162,0.9 41.087,0.338 
								37.974,0.045 34.861,0.01 31.748,0.285 28.662,0.795 25.675,1.592 22.712,2.619 19.904,3.938 17.179,5.465 14.638,7.248 
								12.246,9.242 10.033,11.396 8.033,13.77 6.265,16.324 4.708,19.008 3.392,21.797 2.347,24.742 1.541,27.701 1.029,30.758 
															"/>
						</g>
					</g>
				</g>
			</g>
		</g>
		<g>
			<path fill="#7F8284" d="M0,99.84V87.461h2.792c0.736,0,1.402,0.193,1.992,0.58c0.51,0.332,0.869,0.84,1.088,1.531
				c0.117,0.369,0.174,0.807,0.174,1.314c0,0.828-0.217,1.494-0.658,1.992c-0.186,0.211-0.402,0.371-0.652,0.486
				c0.414,0.156,0.768,0.469,1.057,0.938c0.191,0.314,0.332,0.723,0.426,1.223c0.047,0.26,0.066,0.543,0.066,0.859
				c0,0.783-0.146,1.447-0.443,1.992c-0.232,0.432-0.553,0.771-0.977,1.029C4.39,99.693,3.921,99.84,3.453,99.84H0z M2.011,92.516
				h0.781c0.58,0,0.969-0.285,1.162-0.85c0.076-0.209,0.109-0.471,0.109-0.779c0-0.512-0.125-0.902-0.373-1.164
				c-0.229-0.246-0.529-0.367-0.898-0.367H2.011V92.516z M2.011,97.994h0.781c0.631,0,1.068-0.324,1.313-0.977
				c0.086-0.225,0.127-0.48,0.127-0.77c0-0.691-0.129-1.195-0.395-1.512c-0.236-0.287-0.586-0.434-1.045-0.434H2.011V97.994z"/>
			<rect x="7.908" y="87.469" fill="#7F8284" width="1.863" height="12.371"/>
			<polygon fill="#7F8284" points="13.257,89.346 11.271,89.346 11.271,87.469 17.095,87.469 17.095,89.346 15.123,89.346 
				15.123,99.84 13.257,99.84 			"/>
			<polygon fill="#7F8284" points="28.593,99.84 23.513,99.84 23.513,87.469 25.378,87.469 25.378,97.984 28.593,97.984 			"/>
			<polygon fill="#7F8284" points="29.88,99.84 29.88,87.461 35.191,87.461 35.191,89.336 31.744,89.336 31.744,92.713 
				34.263,92.713 34.263,94.586 31.744,94.586 31.744,97.963 35.191,97.963 35.191,99.84 			"/>
			<path fill="#7F8284" d="M39.435,100c-0.824,0-1.521-0.293-2.098-0.871c-0.576-0.58-0.863-1.271-0.863-2.08v-6.756
				c0-0.824,0.287-1.521,0.867-2.098c0.582-0.574,1.275-0.865,2.094-0.865c0.822,0,1.52,0.293,2.094,0.871s0.857,1.279,0.857,2.092
				v1.412h-1.934v-1.451c0-0.295-0.107-0.549-0.316-0.758c-0.211-0.211-0.463-0.32-0.76-0.32c-0.299,0-0.549,0.109-0.756,0.32
				c-0.205,0.209-0.311,0.463-0.311,0.758v6.771c0,0.299,0.105,0.549,0.311,0.758c0.207,0.205,0.457,0.309,0.756,0.309
				c0.297,0,0.549-0.102,0.76-0.309c0.209-0.207,0.316-0.457,0.316-0.754v-2.434h-1.037v-1.871h2.971v4.324
				c0,0.818-0.289,1.516-0.869,2.09C40.939,99.715,40.242,100,39.435,100"/>
			<polygon fill="#7F8284" points="44.005,99.84 44.005,87.461 49.318,87.461 49.318,89.336 45.869,89.336 45.869,92.713 
				48.388,92.713 48.388,94.586 45.869,94.586 45.869,97.963 49.318,97.963 49.318,99.84 			"/>
			<polygon fill="#7F8284" points="52.695,87.461 55.171,95.781 55.171,87.461 57.039,87.461 57.039,99.84 55.033,99.84 
				52.466,91.914 52.466,99.84 50.599,99.84 50.599,87.461 			"/>
			<path fill="#7F8284" d="M64.566,96.879c0,0.816-0.283,1.512-0.855,2.094c-0.572,0.576-1.266,0.867-2.072,0.867h-2.932V87.461
				h2.932c0.814,0,1.508,0.289,2.074,0.869c0.57,0.578,0.854,1.273,0.854,2.084V96.879z M60.57,97.994h1.127
				c0.295,0,0.547-0.109,0.748-0.32c0.203-0.217,0.309-0.467,0.309-0.758v-6.475c0-0.295-0.105-0.547-0.313-0.76
				c-0.207-0.211-0.457-0.314-0.744-0.314H60.57V97.994z"/>
			<path fill="#7F8284" d="M72.269,96.76c0.012,0.861-0.213,1.6-0.674,2.213c-0.301,0.414-0.727,0.707-1.279,0.879
				c-0.299,0.09-0.646,0.137-1.039,0.137c-0.73,0-1.336-0.184-1.816-0.543c-0.4-0.297-0.719-0.699-0.953-1.209
				c-0.232-0.51-0.369-1.094-0.41-1.754l1.777-0.129c0.08,0.723,0.27,1.248,0.574,1.566c0.223,0.248,0.479,0.363,0.77,0.35
				c0.404-0.012,0.732-0.213,0.975-0.602c0.129-0.191,0.191-0.465,0.191-0.818c0-0.514-0.238-1.025-0.703-1.533
				c-0.369-0.35-0.92-0.875-1.658-1.572c-0.619-0.596-1.057-1.137-1.314-1.607c-0.275-0.537-0.414-1.115-0.414-1.74
				c0-1.125,0.379-1.98,1.135-2.559c0.467-0.35,1.049-0.525,1.74-0.525c0.664,0,1.232,0.148,1.707,0.443
				c0.367,0.234,0.664,0.555,0.893,0.969c0.227,0.416,0.363,0.891,0.41,1.432l-1.787,0.326c-0.053-0.508-0.199-0.902-0.438-1.186
				c-0.166-0.203-0.412-0.307-0.736-0.307c-0.344,0-0.604,0.154-0.781,0.453c-0.145,0.246-0.217,0.549-0.217,0.91
				c0,0.566,0.242,1.139,0.732,1.727c0.182,0.223,0.459,0.488,0.83,0.789c0.432,0.363,0.719,0.617,0.855,0.762
				c0.463,0.461,0.818,0.916,1.066,1.363c0.119,0.209,0.215,0.406,0.287,0.582C72.169,96.018,72.261,96.412,72.269,96.76"/>
		</g>
	</g>
</g>
<g id="Capa_2">
	<g>
		<g id="XMLID_9_">
			<g>
				<g>
					<g id="XMLID_10_">
						<g>
							<polygon fill="#0C1821" points="67.005,17.879 67.005,17.889 66.996,17.879 							"/>
							<polygon fill="#0C1821" points="66.996,17.861 66.996,17.869 66.988,17.861 							"/>
							<polygon fill="#0C1821" points="66.996,17.879 67.005,17.889 66.996,17.898 66.988,17.889 66.978,17.889 66.97,17.879 
								66.988,17.861 66.996,17.869 							"/>
							<polygon fill="#0C1821" points="66.988,17.889 66.996,17.898 66.988,17.908 66.978,17.898 66.978,17.889 							"/>
							<polygon fill="#0C1821" points="65.392,19.5 66.978,17.898 66.988,17.908 65.392,19.512 							"/>
							<polygon fill="#0C1821" points="66.978,17.898 65.392,19.5 65.382,19.492 65.363,19.5 66.97,17.879 66.978,17.889 							"/>
							<polygon fill="#0C1821" points="65.392,19.512 65.392,19.521 65.382,19.529 65.373,19.521 65.392,19.5 							"/>
							<polygon fill="#0C1821" points="65.373,19.521 65.382,19.529 65.373,19.541 65.355,19.521 65.363,19.5 65.382,19.492 
								65.392,19.5 							"/>
							<polygon fill="#0C1821" points="63.494,53.781 61.673,56.174 63.484,53.771 65.107,51.229 66.447,48.533 67.556,45.742 
								68.392,42.85 68.99,39.867 69.292,36.877 69.32,33.9 69.056,30.891 68.542,27.938 67.738,25.035 66.693,22.217 
								65.382,19.529 65.392,19.521 66.71,22.207 67.753,25.025 68.562,27.93 69.076,30.891 69.339,33.889 69.31,36.877 
								69.007,39.877 68.408,42.85 67.574,45.752 66.464,48.533 65.119,51.229 							"/>
							<polygon fill="#0C1821" points="56.576,32.533 56.517,30.119 56.128,27.75 55.419,25.5 55.427,25.482 56.15,27.75 
								56.535,30.119 56.595,32.523 56.3,34.904 55.664,37.201 55.664,37.191 55.656,37.191 56.283,34.904 							"/>
							<polygon fill="#0C1821" points="56.517,30.119 56.576,32.533 56.283,34.904 55.656,37.191 55.646,37.191 56.273,34.893 
								56.568,32.523 56.509,30.131 56.119,27.758 55.406,25.527 55.419,25.5 56.128,27.75 							"/>
							<polygon fill="#0C1821" points="55.664,37.201 55.673,37.221 55.664,37.221 							"/>
							<polygon fill="#0C1821" points="55.664,37.191 55.664,37.201 55.664,37.221 55.656,37.221 55.636,37.221 55.646,37.201 
								55.656,37.201 55.656,37.191 							"/>
							<rect x="55.646" y="37.191" fill="#0C1821" width="0.01" height="0.01"/>
							<polygon fill="#0C1821" points="55.646,37.191 55.646,37.201 51.888,37.799 51.857,37.791 							"/>
							<polygon fill="#0C1821" points="55.646,37.201 55.636,37.221 51.898,37.807 51.888,37.799 							"/>
							<polygon fill="#0C1821" points="55.419,25.5 55.406,25.527 55.398,25.49 55.406,25.473 							"/>
							<polygon fill="#0C1821" points="55.427,25.473 55.427,25.482 55.419,25.5 55.406,25.473 55.398,25.49 55.388,25.473 
								55.398,25.461 55.419,25.461 							"/>
							<polygon fill="#0C1821" points="55.419,25.461 55.398,25.461 55.398,25.451 							"/>
							<polygon fill="#0C1821" points="54.771,39.25 54.763,39.277 54.753,39.277 54.763,39.26 							"/>
							<polygon fill="#0C1821" points="54.771,39.25 54.763,39.26 54.753,39.277 54.744,39.27 54.753,39.25 54.744,39.25 
								54.753,39.242 							"/>
							<polygon fill="#0C1821" points="54.753,39.25 54.744,39.27 54.734,39.26 54.744,39.25 							"/>
							<polygon fill="#0C1821" points="54.753,39.242 54.744,39.25 51.857,37.816 51.898,37.807 							"/>
							<polygon fill="#0C1821" points="51.857,37.816 54.744,39.25 54.734,39.26 							"/>
							<polygon fill="#0C1821" points="55.406,25.527 54.353,28.432 54.343,28.422 55.398,25.49 							"/>
							<polygon fill="#0C1821" points="55.398,25.49 54.343,28.422 54.335,28.414 55.388,25.473 							"/>
							<polygon fill="#0C1821" points="54.353,28.432 54.343,28.461 54.328,28.449 54.335,28.441 54.343,28.422 							"/>
							<polygon fill="#0C1821" points="54.343,28.422 54.335,28.441 54.328,28.449 54.316,28.441 54.328,28.432 54.335,28.414 
															"/>
							<polygon fill="#0C1821" points="54.335,28.414 54.328,28.432 54.316,28.441 54.328,28.414 							"/>
							<polygon fill="#0C1821" points="53.746,29.598 53.509,29.885 53.736,29.598 54.328,28.449 54.343,28.461 							"/>
							<polygon fill="#0C1821" points="52.921,4.201 52.91,4.213 52.902,4.223 52.892,4.213 52.902,4.201 52.882,4.193 
								52.892,4.182 52.91,4.193 							"/>
							<polygon fill="#0C1821" points="52.91,4.213 52.91,4.223 52.902,4.223 							"/>
							<polygon fill="#0C1821" points="52.91,30.623 52.91,30.635 52.902,30.635 							"/>
							<polygon fill="#0C1821" points="52.902,4.176 52.91,4.193 52.892,4.182 							"/>
							<polygon fill="#0C1821" points="52.892,4.213 52.902,4.223 51.261,5.809 51.273,5.787 							"/>
							<polygon fill="#0C1821" points="52.902,4.201 52.892,4.213 52.873,4.201 52.882,4.193 							"/>
							<polygon fill="#0C1821" points="52.892,4.213 51.273,5.787 51.261,5.787 51.242,5.779 52.873,4.201 							"/>
							<polygon fill="#0C1821" points="51.898,37.807 51.857,37.816 51.847,37.807 51.888,37.799 							"/>
							<polygon fill="#0C1821" points="51.857,37.816 51.83,37.807 51.83,37.799 51.837,37.791 51.847,37.791 51.857,37.791 
								51.888,37.799 51.847,37.807 							"/>
							<polygon fill="#0C1821" points="51.837,37.781 51.847,37.791 51.837,37.791 							"/>
							<polygon fill="#0C1821" points="51.837,37.791 51.83,37.799 51.83,37.791 							"/>
							<polygon fill="#0C1821" points="51.273,5.787 51.261,5.809 51.25,5.816 51.242,5.809 51.23,5.787 51.25,5.797 51.261,5.787 
															"/>
							<polygon fill="#0C1821" points="51.242,5.779 51.261,5.787 51.25,5.797 51.23,5.787 							"/>
							<polygon fill="#0C1821" points="49.144,22.244 49.134,22.256 49.134,22.244 							"/>
							<polygon fill="#0C1821" points="49.144,22.234 49.144,22.244 49.134,22.244 49.134,22.256 49.125,22.264 49.107,22.273 
								49.125,22.244 49.087,22.273 49.125,22.217 							"/>
							<polygon fill="#0C1821" points="49.125,22.217 49.087,22.273 43.214,26.316 43.193,26.316 							"/>
							<polygon fill="#0C1821" points="49.125,22.244 49.107,22.273 49.072,22.301 49.087,22.273 							"/>
							<polygon fill="#0C1821" points="49.125,22.264 45.017,28.1 49.107,22.273 							"/>
							<polygon fill="#0C1821" points="49.107,22.273 45.017,28.1 45.005,28.1 44.996,28.1 49.072,22.301 							"/>
							<polygon fill="#0C1821" points="49.087,22.273 49.072,22.301 43.214,26.344 43.214,26.316 							"/>
							<polygon fill="#0C1821" points="45.005,28.1 44.996,28.119 44.978,28.119 44.984,28.109 44.996,28.1 							"/>
							<polygon fill="#0C1821" points="44.996,28.127 44.996,28.137 44.984,28.127 							"/>
							<polygon fill="#0C1821" points="44.996,28.119 45.005,28.1 45.017,28.1 45.005,28.127 44.996,28.127 44.984,28.127 
								44.978,28.119 							"/>
							<polygon fill="#0C1821" points="44.312,31.402 43.308,30.559 43.326,30.539 44.324,31.383 45.49,32.037 46.742,32.428 
								48.082,32.57 49.402,32.455 50.681,32.066 51.837,31.439 52.892,30.615 53.728,29.588 54.316,28.441 54.328,28.449 
								53.736,29.598 53.509,29.885 52.91,30.623 52.902,30.635 52.673,30.813 51.847,31.459 50.681,32.076 49.402,32.475 
								48.082,32.59 46.734,32.445 45.482,32.059 							"/>
							<polygon fill="#0C1821" points="43.992,28.215 43.593,28.545 43.611,28.518 43.603,28.508 43.984,28.203 44.466,28.043 
								44.978,28.119 44.984,28.127 44.466,28.061 							"/>
							<polygon fill="#0C1821" points="43.593,28.5 42.804,27.719 43.126,27.352 43.289,26.867 43.214,26.344 49.072,22.301 
								44.996,28.1 44.466,28.033 43.984,28.186 							"/>
							<polygon fill="#0C1821" points="43.923,29.893 43.933,29.91 43.916,29.902 							"/>
							<polygon fill="#0C1821" points="43.933,29.91 43.943,29.922 43.923,29.941 43.916,29.932 43.923,29.922 43.906,29.91 
								43.916,29.902 							"/>
							
								<rect x="43.196" y="30.229" transform="matrix(-0.7083 0.706 -0.706 -0.7083 95.8584 20.8564)" fill="#0C1821" width="0.847" height="0.013"/>
							
								<rect x="43.9" y="29.915" transform="matrix(-0.8321 -0.5547 0.5547 -0.8321 63.8494 79.1738)" fill="#0C1821" width="0.021" height="0.013"/>
							<polygon fill="#0C1821" points="43.916,29.932 43.316,30.529 43.296,30.52 43.896,29.922 							"/>
							<polygon fill="#0C1821" points="43.984,28.203 43.603,28.508 43.593,28.5 43.984,28.186 44.466,28.033 44.996,28.1 
								44.984,28.109 44.978,28.119 44.466,28.043 							"/>
							<polygon fill="#0C1821" points="43.308,30.559 44.312,31.402 45.482,32.059 46.734,32.445 48.082,32.59 49.402,32.475 
								50.681,32.076 51.847,31.459 52.673,30.813 51.857,31.471 50.691,32.096 49.412,32.486 48.082,32.6 46.734,32.455 
								45.482,32.066 44.304,31.41 43.296,30.568 							"/>
							
								<rect x="43.587" y="28.502" transform="matrix(-0.7809 -0.6247 0.6247 -0.7809 59.8246 78.0029)" fill="#0C1821" width="0.013" height="0.014"/>
							<polygon fill="#0C1821" points="43.611,28.518 43.593,28.545 43.574,28.525 43.574,28.518 43.583,28.508 43.593,28.518 
								43.603,28.508 							"/>
							
								<rect x="43.298" y="30.536" transform="matrix(0.669 -0.7433 0.7433 0.669 -8.3657 42.304)" fill="#0C1821" width="0.026" height="0.015"/>
							<polygon fill="#0C1821" points="43.296,30.549 43.308,30.559 43.296,30.568 43.279,30.549 43.296,30.52 43.316,30.529 
															"/>
							<polygon fill="#0C1821" points="43.214,26.316 43.214,26.344 43.203,26.354 43.203,26.326 							"/>
							<polygon fill="#0C1821" points="43.203,26.326 43.203,26.354 43.185,26.326 43.193,26.316 43.214,26.316 							"/>
							<polygon fill="#0C1821" points="43.193,26.316 43.185,26.326 43.185,26.316 							"/>
							<polygon fill="#0C1821" points="43.099,27.352 43.117,27.33 43.271,26.857 43.203,26.354 43.214,26.344 43.289,26.867 
								43.126,27.352 42.804,27.719 42.792,27.711 							"/>
							<polygon fill="#0C1821" points="43.117,27.33 43.099,27.352 43.107,27.33 43.251,26.857 43.185,26.326 43.203,26.354 
								43.271,26.857 							"/>
							<polygon fill="#0C1821" points="42.785,27.701 43.099,27.352 42.792,27.711 							"/>
							<polygon fill="#0C1821" points="42.804,27.719 43.593,28.5 43.583,28.508 42.792,27.738 							"/>
							<polygon fill="#0C1821" points="42.804,27.719 42.792,27.738 42.785,27.729 42.792,27.711 							"/>
							<polygon fill="#0C1821" points="42.792,27.738 43.583,28.508 43.574,28.518 43.574,28.525 42.785,27.75 							"/>
							<polygon fill="#0C1821" points="42.785,27.729 42.792,27.738 42.785,27.75 42.765,27.729 42.777,27.711 42.785,27.701 
								42.792,27.711 							"/>
							<polygon fill="#0C1821" points="42.605,48.191 40.412,48.428 40.404,48.408 42.605,48.172 44.787,47.643 46.855,46.842 
								48.832,45.781 50.625,44.432 52.208,42.895 53.615,41.148 54.744,39.27 54.753,39.277 53.623,41.16 52.218,42.904 
								50.634,44.453 48.839,45.791 46.865,46.854 44.796,47.652 							"/>
							<polygon fill="#0C1821" points="42.605,48.172 40.404,48.408 40.404,48.398 42.605,48.164 44.787,47.621 46.847,46.824 
								48.822,45.764 50.613,44.424 52.201,42.885 53.605,41.148 54.734,39.26 54.744,39.27 53.615,41.148 52.208,42.895 
								50.625,44.432 48.832,45.781 46.855,46.842 44.787,47.643 							"/>
							
								<rect x="40.873" y="28.66" transform="matrix(0.7096 0.7046 -0.7046 0.7096 32.5846 -21.7223)" fill="#0C1821" width="3.542" height="0.015"/>
							<polygon fill="#0C1821" points="41.685,36.328 41.703,36.355 41.695,36.365 41.685,36.346 41.673,36.338 							"/>
							<polygon fill="#0C1821" points="41.685,36.346 41.695,36.365 41.695,36.377 41.685,36.377 41.673,36.355 41.664,36.346 
								41.673,36.338 							"/>
							<polygon fill="#0C1821" points="41.392,27.387 43.916,29.902 43.906,29.91 41.392,27.414 41.402,27.406 							"/>
							<polygon fill="#0C1821" points="41.392,27.387 41.402,27.406 41.392,27.414 41.382,27.406 41.373,27.414 41.361,27.406 
								41.382,27.379 							"/>
							
								<rect x="41.376" y="27.408" transform="matrix(-0.7809 -0.6247 0.6247 -0.7809 56.5698 74.6757)" fill="#0C1821" width="0.013" height="0.015"/>
							<polygon fill="#0C1821" points="41.314,35.721 40.933,35.33 40.851,35.236 40.861,35.215 41.332,35.711 41.685,36.328 
								41.673,36.338 41.324,35.729 							"/>
							<polygon fill="#0C1821" points="41.314,35.729 41.314,35.721 41.324,35.729 41.673,36.338 41.664,36.346 							"/>
							<path fill="#0C1821" d="M40.933,35.33l0.381,0.391L40.933,35.33z"/>
							<polygon fill="#0C1821" points="40.851,35.236 40.933,35.33 40.837,35.246 40.837,35.236 							"/>
							<polygon fill="#0C1821" points="40.861,35.215 40.851,35.236 40.837,35.236 40.837,35.227 40.82,35.215 40.837,35.199 
															"/>
							<polygon fill="#0C1821" points="40.837,35.227 40.837,35.236 40.83,35.236 40.82,35.215 							"/>
							<polygon fill="#0C1821" points="40.83,35.236 40.837,35.236 40.837,35.246 							"/>
							
								<rect x="40.645" y="27.712" transform="matrix(-0.7128 0.7014 -0.7014 -0.7128 89.7911 18.6709)" fill="#0C1821" width="0.855" height="0.015"/>
							<polygon fill="#0C1821" points="41.373,27.414 40.763,28.014 40.757,28.004 40.757,27.996 41.382,27.379 41.361,27.406 
															"/>
							<polygon fill="#0C1821" points="40.746,28.023 40.757,28.043 40.734,28.023 40.734,28.014 							"/>
							<polygon fill="#0C1821" points="40.757,28.023 40.763,28.014 40.773,28.023 40.757,28.043 40.746,28.023 40.734,28.014 
								40.746,28.004 							"/>
							<polygon fill="#0C1821" points="40.757,28.004 40.763,28.014 40.757,28.023 40.746,28.004 							"/>
							<polygon fill="#0C1821" points="40.404,48.398 40.404,48.408 40.392,48.408 40.375,48.408 40.375,48.398 							"/>
							<polygon fill="#0C1821" points="40.384,48.428 40.375,48.408 40.392,48.408 40.404,48.408 40.412,48.428 40.392,48.428 
															"/>
							<polygon fill="#0C1821" points="40.224,27.342 40.757,27.996 40.757,28.004 40.746,28.004 							"/>
							<polygon fill="#0C1821" points="40.08,34.809 39.843,34.734 39.843,34.705 40.107,34.789 40.375,34.885 40.611,35.029 
								40.837,35.199 40.82,35.215 40.601,35.047 40.367,34.904 40.099,34.809 							"/>
							<polygon fill="#0C1821" points="40.099,34.809 40.367,34.904 40.601,35.047 40.82,35.215 40.83,35.236 40.593,35.057 
								40.355,34.914 40.099,34.818 40.08,34.809 							"/>
							<polygon fill="#0C1821" points="40.08,34.809 39.826,34.734 39.843,34.734 							"/>
							<polygon fill="#0C1821" points="39.826,26.545 39.644,25.689 39.712,24.797 39.976,23.943 39.986,23.943 39.994,23.934 
								39.732,24.797 39.664,25.689 39.843,26.535 40.224,27.33 40.224,27.342 40.212,27.33 							"/>
							<polygon fill="#0C1821" points="39.994,23.934 39.986,23.943 39.976,23.943 39.976,23.934 39.966,23.934 39.966,23.914 
								39.994,23.914 							"/>
							<polygon fill="#0C1821" points="39.976,23.934 39.976,23.943 39.958,23.943 39.966,23.934 							"/>
							<polygon fill="#0C1821" points="39.843,34.705 39.843,34.734 39.826,34.725 39.808,34.725 39.816,34.705 							"/>
							<polygon fill="#0C1821" points="39.826,34.725 39.843,34.734 39.826,34.734 39.808,34.734 39.808,34.725 							"/>
							<polygon fill="#0C1821" points="39.816,26.545 39.636,25.689 39.703,24.787 39.958,23.943 39.976,23.943 39.712,24.797 
								39.644,25.689 39.826,26.545 40.212,27.33 40.224,27.342 40.746,28.004 40.734,28.014 40.203,27.342 							"/>
							<polygon fill="#0C1821" points="38.773,35.037 39.228,34.754 39.808,34.725 39.808,34.734 39.236,34.762 38.773,35.047 
															"/>
							<polygon fill="#0C1821" points="39.228,34.754 38.773,35.037 38.759,35.037 38.751,35.018 39.228,34.734 39.816,34.705 
								39.808,34.725 							"/>
							<polygon fill="#0C1821" points="38.751,35.018 38.759,35.037 38.751,35.047 38.742,35.057 38.732,35.037 38.742,35.029 
															"/>
							<polygon fill="#0C1821" points="38.773,35.037 38.773,35.047 38.751,35.066 38.742,35.057 38.751,35.047 38.759,35.037 
															"/>
							<polygon fill="#0C1821" points="38.742,35.057 38.751,35.066 37.906,35.902 37.923,35.871 37.916,35.861 							"/>
							<polygon fill="#0C1821" points="38.732,35.037 38.742,35.057 37.916,35.861 37.906,35.854 							"/>
							
								<rect x="37.9" y="35.855" transform="matrix(-0.7809 -0.6247 0.6247 -0.7809 45.1022 87.5456)" fill="#0C1821" width="0.013" height="0.014"/>
							<polygon fill="#0C1821" points="35.429,33.357 37.906,35.854 37.896,35.861 35.412,33.367 							"/>
							<polygon fill="#0C1821" points="37.906,35.871 37.916,35.861 37.923,35.871 37.906,35.902 37.896,35.891 37.886,35.871 
								37.896,35.861 							"/>
							
								<rect x="34.889" y="34.612" transform="matrix(-0.7057 -0.7085 0.7085 -0.7057 37.9854 85.016)" fill="#0C1821" width="3.52" height="0.014"/>
							<path fill="#0C1821" d="M36.912,36.289l-0.01,0.012L36.912,36.289z"/>
							<polygon fill="#0C1821" points="36.892,36.26 36.912,36.289 36.902,36.301 36.892,36.309 36.88,36.301 36.892,36.289 
								36.873,36.281 							"/>
							<polygon fill="#0C1821" points="36.873,36.281 34.955,34.4 34.964,34.393 36.892,36.26 							"/>
							<polygon fill="#0C1821" points="36.892,36.289 36.88,36.301 36.863,36.289 36.873,36.281 							"/>
							
								<rect x="7.046" y="48.589" transform="matrix(0.71 -0.7042 0.7042 0.71 -27.1166 31.345)" fill="#0C1821" width="34.904" height="0.011"/>
							<polygon fill="#0C1821" points="36.88,36.301 12.103,60.881 12.083,60.871 36.863,36.289 							"/>
							<polygon fill="#0C1821" points="34.949,34.422 36.863,36.289 12.083,60.871 10.177,58.963 							"/>
							<polygon fill="#0C1821" points="36.683,41.471 36.447,41.33 36.267,41.148 36.103,40.988 36.103,40.979 36.277,41.139 
								36.455,41.311 36.695,41.461 36.931,41.547 37.207,41.643 37.738,41.699 38.001,41.67 38.298,41.643 38.572,41.576 
								38.865,41.492 39.132,41.377 39.703,41.072 40.203,40.695 40.689,40.219 41.105,39.727 41.429,39.154 41.673,38.566 
								41.857,38.008 41.882,37.703 41.882,37.127 41.857,36.859 41.673,36.355 41.685,36.377 41.695,36.377 41.769,36.584 
								41.865,36.859 41.894,37.127 41.894,37.42 41.894,37.713 41.865,38.008 41.685,38.576 41.437,39.154 41.115,39.727 
								40.699,40.236 40.212,40.713 39.712,41.092 39.14,41.396 38.865,41.512 38.572,41.586 38.298,41.66 38.001,41.689 
								37.738,41.711 37.46,41.689 37.195,41.66 36.921,41.566 							"/>
							<polygon fill="#0C1821" points="36.447,41.33 36.683,41.471 36.921,41.566 37.195,41.66 37.46,41.689 37.738,41.711 
								38.001,41.689 38.298,41.66 38.572,41.586 38.865,41.512 39.14,41.396 39.712,41.092 40.212,40.713 40.699,40.236 
								41.115,39.727 41.437,39.154 41.685,38.576 41.865,38.008 41.894,37.713 41.894,37.42 41.894,37.127 41.865,36.859 
								41.769,36.584 41.695,36.377 41.695,36.365 41.703,36.355 41.791,36.584 41.882,36.85 41.914,37.117 41.914,37.713 
								41.882,38.018 41.703,38.576 41.447,39.164 41.123,39.736 40.707,40.248 40.224,40.723 39.722,41.102 39.15,41.406 
								38.875,41.518 38.582,41.605 38.298,41.67 38.001,41.699 37.738,41.729 37.195,41.67 36.921,41.576 36.683,41.492 
								36.435,41.34 36.253,41.168 36.087,40.998 36.097,40.988 36.103,40.988 36.267,41.148 							"/>
							<polygon fill="#0C1821" points="36.097,40.959 36.103,40.979 36.103,40.988 36.097,40.988 36.087,40.979 36.076,40.988 
								36.068,40.979 36.087,40.949 							"/>
							
								<rect x="36.08" y="40.981" transform="matrix(-0.7071 -0.7071 0.7071 -0.7071 32.622 95.489)" fill="#0C1821" width="0.014" height="0.014"/>
							<polygon fill="#0C1821" points="36.027,32.732 36.019,32.723 36.027,32.713 36.046,32.732 36.037,32.75 36.027,32.76 
								36.019,32.75 							"/>
							<polygon fill="#0C1821" points="36.027,32.732 36.019,32.75 36.009,32.75 36,32.74 36.019,32.723 							"/>
							<polygon fill="#0C1821" points="36.019,32.75 36.027,32.76 35.429,33.357 35.419,33.348 36.009,32.75 							"/>
							<polygon fill="#0C1821" points="35.763,22.879 31.664,21.484 27.705,19.785 31.664,21.475 35.763,22.861 39.966,23.934 
								39.958,23.943 							"/>
							<polygon fill="#0C1821" points="36.009,32.75 35.419,33.348 35.412,33.348 35.412,33.34 35.4,33.33 36,32.74 							"/>
							<polygon fill="#0C1821" points="34.955,34.41 34.955,34.4 36.873,36.281 36.863,36.289 34.949,34.422 							"/>
							<polygon fill="#0C1821" points="35.429,33.357 35.412,33.367 35.4,33.357 35.412,33.348 35.419,33.348 							"/>
							<polygon fill="#0C1821" points="35.4,33.357 35.412,33.367 35.4,33.377 35.382,33.357 35.394,33.34 35.4,33.33 35.412,33.34 
								35.412,33.348 							"/>
							<polygon fill="#0C1821" points="34.949,34.373 34.964,34.393 34.955,34.4 34.949,34.393 34.937,34.4 34.929,34.4 
								34.929,34.393 							"/>
							<polygon fill="#0C1821" points="34.955,34.4 34.955,34.41 34.949,34.422 34.937,34.4 34.949,34.393 							"/>
							<polygon fill="#0C1821" points="34.937,34.4 34.949,34.422 10.177,58.963 10.167,58.953 34.929,34.4 							"/>
							<polygon fill="#0C1821" points="34.929,34.4 10.167,58.953 10.16,58.943 10.15,58.934 34.929,34.393 							"/>
							<polygon fill="#0C1821" points="33.667,31.641 34.531,31.82 35.337,32.172 36.019,32.723 36,32.74 35.324,32.184 
								34.521,31.828 33.667,31.65 32.763,31.678 31.947,31.934 31.947,31.924 32.763,31.658 							"/>
							<polygon fill="#0C1821" points="33.667,31.621 34.531,31.801 35.345,32.15 36.027,32.713 36.019,32.723 35.337,32.172 
								34.531,31.82 33.667,31.641 32.763,31.658 31.947,31.924 31.939,31.914 32.763,31.65 							"/>
							<polygon fill="#0C1821" points="31.947,31.934 31.947,31.941 31.929,31.941 							"/>
							<polygon fill="#0C1821" points="31.947,31.924 31.947,31.934 31.929,31.934 31.929,31.914 31.939,31.914 							"/>
							<polygon fill="#0C1821" points="31.929,31.934 31.947,31.934 31.929,31.941 31.919,31.941 31.919,31.934 31.919,31.924 
								31.929,31.914 							"/>
							<polygon fill="#0C1821" points="31.919,31.924 31.919,31.934 31.912,31.924 							"/>
							<polygon fill="#0C1821" points="31.664,21.475 27.705,19.785 27.695,19.766 27.695,19.76 31.671,21.457 35.773,22.85 
								39.994,23.914 39.966,23.914 39.966,23.934 35.763,22.861 							"/>
							<polygon fill="#0C1821" points="29.416,23.695 27.687,19.785 27.705,19.785 29.423,23.688 30.837,27.777 31.939,31.914 
								31.929,31.914 30.818,27.787 							"/>
							<polygon fill="#0C1821" points="29.406,23.695 27.667,19.777 27.687,19.777 27.687,19.785 29.416,23.695 30.818,27.787 
								31.929,31.914 31.919,31.924 30.808,27.787 							"/>
							<polygon fill="#0C1821" points="28.757,49.871 28.218,51.305 28.75,49.861 29.765,47.756 31.054,45.799 32.515,44.016 
								34.224,42.383 36.087,40.949 36.068,40.979 36.076,40.988 34.236,42.4 32.527,44.025 31.066,45.799 29.773,47.756 							"/>
							<polygon fill="#0C1821" points="27.458,54.238 29.226,52.605 31.199,51.209 33.353,50.088 35.611,49.227 37.974,48.666 
								40.375,48.398 40.375,48.408 37.974,48.686 35.611,49.244 33.361,50.109 31.207,51.229 29.234,52.623 27.468,54.246 
								27.451,54.246 							"/>
							<polygon fill="#0C1821" points="27.972,52.033 28.781,49.871 29.783,47.764 31.076,45.809 32.537,44.033 34.246,42.412 
								36.087,40.998 36.253,41.168 36.435,41.34 36.683,41.492 36.921,41.576 37.195,41.67 37.738,41.729 38.001,41.699 
								38.298,41.67 38.582,41.605 38.875,41.518 39.15,41.406 39.722,41.102 40.224,40.723 40.707,40.248 41.123,39.736 
								41.447,39.164 41.703,38.576 41.882,38.018 41.914,37.713 41.914,37.117 41.882,36.85 41.791,36.584 41.703,36.355 
								41.685,36.328 41.332,35.711 40.861,35.215 40.837,35.199 40.611,35.029 40.375,34.885 40.107,34.789 39.843,34.705 
								39.816,34.705 39.228,34.734 38.751,35.018 38.742,35.029 38.732,35.037 37.906,35.854 35.429,33.357 36.027,32.76 
								36.037,32.75 36.046,32.732 36.027,32.713 35.345,32.15 34.531,31.801 33.667,31.621 32.763,31.65 31.939,31.914 
								30.837,27.777 29.423,23.688 27.705,19.785 31.664,21.484 35.763,22.879 39.958,23.943 39.703,24.787 39.636,25.689 
								39.816,26.545 40.203,27.342 40.734,28.014 40.734,28.023 40.757,28.043 40.773,28.023 41.382,27.426 43.896,29.922 
								43.296,30.52 43.279,30.549 43.296,30.568 44.304,31.41 45.482,32.066 46.734,32.455 48.082,32.6 49.412,32.486 
								50.691,32.096 51.857,31.471 52.673,30.813 52.902,30.635 52.91,30.635 52.91,30.623 53.509,29.885 53.746,29.598 
								54.343,28.461 54.353,28.432 55.406,25.527 56.119,27.758 56.509,30.131 56.568,32.523 56.273,34.893 55.646,37.191 
								51.857,37.791 51.847,37.791 51.837,37.781 51.837,37.791 51.83,37.791 51.83,37.799 51.83,37.807 51.857,37.816 
								54.734,39.26 53.605,41.148 52.201,42.885 50.613,44.424 48.822,45.764 46.847,46.824 44.787,47.621 42.605,48.164 
								40.404,48.398 40.375,48.398 37.974,48.666 35.611,49.227 33.353,50.088 31.199,51.209 29.226,52.605 27.458,54.238 
								27.451,54.246 							"/>
							<polygon fill="#0C1821" points="27.705,19.785 27.687,19.785 27.687,19.777 							"/>
							<polygon fill="#0C1821" points="27.695,19.766 27.705,19.785 27.687,19.777 27.667,19.777 27.658,19.75 27.667,19.738 
								27.695,19.76 							"/>
							<polygon fill="#0C1821" points="27.687,19.73 27.695,19.76 27.667,19.738 							"/>
							<polygon fill="#0C1821" points="27.658,19.75 27.667,19.777 27.63,19.76 27.638,19.73 27.667,19.738 							"/>
							<polygon fill="#0C1821" points="27.468,54.246 29.234,52.623 31.207,51.229 33.361,50.109 35.611,49.244 37.974,48.686 
								40.375,48.408 40.384,48.428 37.974,48.693 35.611,49.254 33.373,50.119 31.216,51.236 29.244,52.633 27.468,54.273 
								27.451,54.246 							"/>
							<polygon fill="#0C1821" points="28.781,49.871 27.972,52.033 27.451,54.246 27.431,54.246 27.955,52.025 28.218,51.305 
								28.757,49.871 29.773,47.756 31.066,45.799 32.527,44.025 34.236,42.4 36.076,40.988 36.087,40.998 34.246,42.412 
								32.537,44.033 31.076,45.809 29.783,47.764 							"/>
							<polygon fill="#0C1821" points="28.218,51.305 27.955,52.025 27.431,54.246 27.451,54.246 27.423,54.322 27.392,54.322 
								27.423,54.238 27.943,52.025 							"/>
							<polygon fill="#0C1821" points="23.132,65.396 20.425,64.098 20.433,64.09 20.425,64.068 23.138,65.379 25.988,66.414 
								28.912,67.209 31.9,67.752 34.919,67.986 37.947,67.959 40.966,67.654 43.923,67.096 46.855,66.27 49.656,65.141 
								52.38,63.803 54.953,62.209 57.371,60.395 59.593,58.385 61.65,56.164 63.474,53.771 65.099,51.219 66.435,48.521 
								67.546,45.742 68.382,42.838 68.98,39.867 69.283,36.877 69.302,33.9 69.044,30.898 68.535,27.938 67.728,25.035 
								66.683,22.217 65.373,19.541 65.382,19.529 66.693,22.217 67.738,25.035 68.542,27.938 69.056,30.891 69.32,33.9 
								69.292,36.877 68.99,39.867 68.392,42.85 67.556,45.742 66.447,48.533 65.107,51.229 63.484,53.771 61.673,56.174 
								61.664,56.182 59.605,58.393 57.38,60.416 54.962,62.229 52.388,63.813 49.666,65.16 46.855,66.281 43.923,67.115 
								40.966,67.674 37.947,67.979 34.919,68.008 31.9,67.77 28.912,67.221 25.98,66.424 							"/>
							<polygon fill="#0C1821" points="23.132,65.396 25.98,66.424 28.912,67.221 31.9,67.77 34.919,68.008 37.947,67.979 
								40.966,67.674 43.923,67.115 46.855,66.281 49.666,65.16 52.388,63.813 54.962,62.229 57.38,60.416 59.605,58.393 
								61.664,56.182 61.673,56.174 61.673,56.182 59.613,58.41 57.392,60.424 54.97,62.236 52.4,63.83 49.673,65.17 46.865,66.299 
								43.933,67.125 40.966,67.684 37.947,67.986 34.919,68.018 31.9,67.779 28.912,67.238 25.98,66.439 23.132,65.408 
								20.425,64.098 							"/>
							<polygon fill="#0C1821" points="21.527,67.066 18.794,65.711 20.425,64.098 23.132,65.408 25.98,66.439 28.912,67.238 
								31.9,67.779 34.919,68.018 37.947,67.986 40.966,67.684 43.933,67.125 46.865,66.299 49.673,65.17 52.4,63.83 54.97,62.236 
								57.392,60.424 59.613,58.41 61.673,56.182 61.673,56.174 63.494,53.781 65.119,51.229 66.464,48.533 67.574,45.752 
								68.408,42.85 69.007,39.877 69.31,36.877 69.339,33.889 69.076,30.891 68.562,27.93 67.753,25.025 66.71,22.207 
								65.392,19.521 65.392,19.512 66.988,17.908 68.353,20.584 69.519,23.432 70.423,26.336 71.048,29.307 71.435,32.322 
								71.523,35.34 71.38,38.357 70.955,41.387 70.3,44.348 69.369,47.225 68.171,50.033 66.769,52.738 65.099,55.271 
								63.238,57.672 61.179,59.922 58.9,61.973 56.482,63.83 53.908,65.463 51.193,66.889 48.386,68.045 45.453,68.965 
								42.462,69.65 39.435,70.057 36.39,70.209 33.304,70.084 30.287,69.734 27.306,69.08 24.375,68.195 							"/>
							<polygon fill="#0C1821" points="21.519,67.088 18.785,65.721 18.794,65.711 21.527,67.066 24.375,68.195 27.306,69.08 
								30.287,69.734 33.304,70.084 36.39,70.209 39.435,70.057 42.462,69.65 45.453,68.965 48.386,68.045 51.193,66.889 
								53.908,65.463 56.482,63.83 58.9,61.973 61.179,59.922 63.238,57.672 65.099,55.271 66.769,52.738 68.171,50.033 
								69.369,47.225 70.3,44.348 70.955,41.387 71.38,38.357 71.523,35.34 71.435,32.322 71.048,29.307 70.423,26.336 
								69.519,23.432 68.353,20.584 66.988,17.908 66.996,17.898 68.363,20.584 69.529,23.432 70.433,26.326 71.058,29.307 
								71.449,32.314 71.531,35.34 71.39,38.369 70.962,41.396 70.31,44.355 69.376,47.225 68.183,50.043 66.777,52.738 
								65.107,55.279 63.248,57.68 61.187,59.941 58.91,61.99 56.492,63.852 53.917,65.473 51.193,66.898 48.386,68.066 
								45.453,68.986 42.462,69.666 39.435,70.066 36.39,70.221 33.304,70.096 30.287,69.744 27.296,69.1 24.367,68.217 							"/>
							<polygon fill="#0C1821" points="21.519,67.096 18.773,65.729 18.785,65.721 21.519,67.088 24.367,68.217 27.296,69.1 
								30.287,69.744 33.304,70.096 36.39,70.221 39.435,70.066 42.462,69.666 45.453,68.986 48.386,68.066 51.193,66.898 
								53.917,65.473 56.492,63.852 58.91,61.99 61.187,59.941 63.248,57.68 65.107,55.279 66.777,52.738 68.183,50.043 
								69.376,47.225 70.31,44.355 70.962,41.396 71.39,38.369 71.531,35.34 71.449,32.314 71.058,29.307 70.433,26.326 
								69.529,23.432 68.363,20.584 66.996,17.898 67.005,17.889 68.371,20.574 69.546,23.42 70.451,26.326 71.078,29.295 
								71.466,32.314 71.552,35.34 71.408,38.369 70.982,41.396 70.328,44.355 69.396,47.232 68.199,50.043 66.789,52.748 
								65.119,55.289 63.257,57.691 61.197,59.949 58.919,62.002 56.5,63.859 53.927,65.492 51.205,66.916 48.394,68.072 
								45.462,68.994 42.462,69.676 39.435,70.084 36.39,70.238 33.304,70.115 30.287,69.762 27.296,69.109 24.367,68.225 							
								"/>
							<polygon fill="#0C1821" points="20.416,64.09 20.425,64.098 20.408,64.098 							"/>
							<polygon fill="#0C1821" points="20.425,64.068 20.433,64.09 20.425,64.098 20.416,64.09 20.408,64.098 20.398,64.09 
								20.408,64.068 20.416,64.059 							"/>
							<polygon fill="#0C1821" points="20.425,64.098 18.794,65.711 18.773,65.701 20.408,64.098 							"/>
							<polygon fill="#0C1821" points="20.398,64.09 20.408,64.098 18.773,65.701 18.763,65.691 20.408,64.068 							"/>
							<polygon fill="#0C1821" points="18.794,65.711 18.785,65.721 18.763,65.711 18.773,65.701 							"/>
							<polygon fill="#0C1821" points="18.773,65.729 18.763,65.738 18.753,65.729 							"/>
							<polygon fill="#0C1821" points="18.753,65.691 18.763,65.691 18.753,65.701 							"/>
							<polygon fill="#0C1821" points="18.763,65.711 18.785,65.721 18.773,65.729 18.753,65.729 18.746,65.711 18.753,65.701 
								18.763,65.691 18.773,65.701 							"/>
							<polygon fill="#0C1821" points="12.103,60.881 12.093,60.889 12.083,60.881 12.083,60.871 							"/>
							<polygon fill="#0C1821" points="12.093,60.889 12.103,60.881 12.111,60.889 12.093,60.908 12.083,60.898 12.074,60.889 
								12.083,60.881 							"/>
							<polygon fill="#0C1821" points="12.083,60.881 10.16,58.973 10.177,58.963 12.083,60.871 							"/>
							
								<rect x="9.762" y="59.924" transform="matrix(-0.71 -0.7042 0.7042 -0.71 -23.1949 110.3091)" fill="#0C1821" width="2.71" height="0.013"/>
							<polygon fill="#0C1821" points="10.167,58.953 10.177,58.963 10.16,58.973 10.15,58.963 							"/>
							<polygon fill="#0C1821" points="10.15,58.963 10.16,58.973 10.15,58.982 10.128,58.963 10.15,58.934 10.16,58.943 
								10.167,58.953 							"/>
							<polygon fill="#0C1821" points="6.611,50.109 6.597,50.119 6.578,50.127 6.578,50.119 6.578,50.109 6.587,50.109 
								6.578,50.088 6.587,50.078 							"/>
							<polygon fill="#0C1821" points="6.578,50.088 6.587,50.109 6.578,50.109 6.57,50.1 							"/>
							<polygon fill="#0C1821" points="6.578,50.109 6.578,50.119 4.958,51.713 4.949,51.701 6.57,50.1 							"/>
							<polygon fill="#0C1821" points="6.578,50.127 4.966,51.732 4.958,51.713 6.578,50.119 							"/>
							
								<rect x="4.941" y="51.705" transform="matrix(-0.6402 -0.7682 0.7682 -0.6402 -31.6094 88.6188)" fill="#0C1821" width="0.015" height="0.014"/>
							<polygon fill="#0C1821" points="4.949,51.723 4.958,51.713 4.966,51.732 4.949,51.75 4.935,51.74 4.927,51.723 4.935,51.713 
															"/>
							<polygon fill="#0C1821" points="4.935,51.74 4.949,51.75 4.935,51.75 							"/>
							<polygon fill="#0C1821" points="3.505,29.238 3.115,32.268 2.994,35.35 3.144,38.387 3.591,41.416 4.341,44.404 
								5.328,47.309 6.587,50.078 6.578,50.088 5.308,47.318 4.322,44.416 3.572,41.424 3.125,38.387 2.974,35.34 3.095,32.256 
								3.488,29.229 4.197,26.25 5.158,23.336 6.41,20.527 7.908,17.861 9.646,15.316 11.621,12.941 13.802,10.779 16.164,8.826 
								18.738,7.105 21.433,5.627 24.269,4.373 27.201,3.436 30.22,2.75 33.277,2.322 36.359,2.201 39.435,2.361 42.521,2.799 
								45.509,3.549 48.443,4.555 51.23,5.787 51.242,5.809 48.431,4.564 45.509,3.557 42.521,2.816 39.435,2.373 36.359,2.217 
								33.277,2.344 30.22,2.762 27.201,3.443 24.279,4.383 21.441,5.635 18.746,7.115 16.173,8.834 13.812,10.789 11.628,12.953 
								9.654,15.316 7.919,17.861 6.419,20.527 5.166,23.344 4.218,26.25 							"/>
							<polygon fill="#0C1821" points="3.105,38.398 2.964,35.35 3.087,32.256 3.474,29.229 4.187,26.24 5.144,23.336 6.4,20.516 
								7.898,17.85 9.636,15.307 11.609,12.934 13.794,10.76 16.154,8.805 18.728,7.088 21.423,5.607 24.259,4.354 27.201,3.416 
								30.22,2.732 33.277,2.313 36.359,2.191 39.435,2.344 42.521,2.791 45.509,3.529 48.453,4.535 51.242,5.779 51.23,5.787 
								48.443,4.555 45.509,3.549 42.521,2.799 39.435,2.361 36.359,2.201 33.277,2.322 30.22,2.75 27.201,3.436 24.269,4.373 
								21.433,5.627 18.738,7.105 16.164,8.826 13.802,10.779 11.621,12.941 9.646,15.316 7.908,17.861 6.41,20.527 5.158,23.336 
								4.197,26.25 3.488,29.229 3.095,32.256 2.974,35.34 3.125,38.387 3.572,41.424 4.322,44.416 5.308,47.318 6.578,50.088 
								6.57,50.1 5.298,47.318 4.308,44.416 3.56,41.424 							"/>
							<polygon fill="#0C1821" points="1.103,40.02 0.808,36.945 0.783,33.832 1.046,30.758 1.56,27.701 2.367,24.742 3.41,21.797 
								4.718,19.02 6.275,16.324 8.041,13.777 10.044,11.406 12.257,9.252 14.646,7.258 17.189,5.484 19.912,3.947 22.722,2.637 
								25.675,1.602 28.662,0.807 31.748,0.293 34.861,0.027 37.974,0.057 41.087,0.357 44.162,0.92 47.152,1.746 50.074,2.846 
								52.873,4.201 51.242,5.779 48.453,4.535 45.509,3.529 42.521,2.791 39.435,2.344 36.359,2.191 33.277,2.313 30.22,2.732 
								27.201,3.416 24.259,4.354 21.423,5.607 18.728,7.088 16.154,8.805 13.794,10.76 11.609,12.934 9.636,15.307 7.898,17.85 
								6.4,20.516 5.144,23.336 4.187,26.24 3.474,29.229 3.087,32.256 2.964,35.35 3.105,38.398 3.56,41.424 4.308,44.416 
								5.298,47.318 6.57,50.1 4.949,51.701 3.621,48.939 2.517,46.035 1.673,43.039 							"/>
							<polygon fill="#0C1821" points="1.046,30.758 0.783,33.832 0.808,36.945 1.103,40.02 1.673,43.039 2.517,46.035 
								3.621,48.939 4.949,51.701 4.935,51.713 3.601,48.939 2.498,46.035 1.654,43.047 1.082,40.029 0.791,36.945 0.761,33.832 
								1.029,30.758 1.541,27.701 2.347,24.742 3.392,21.797 4.708,19.008 6.265,16.324 8.033,13.77 10.033,11.396 12.246,9.242 
								14.638,7.248 17.179,5.465 19.904,3.938 22.712,2.619 25.675,1.592 28.662,0.795 31.748,0.285 34.861,0.01 37.974,0.045 
								41.087,0.338 44.162,0.9 47.152,1.727 50.083,2.836 52.882,4.193 52.873,4.201 50.074,2.846 47.152,1.746 44.162,0.92 
								41.087,0.357 37.974,0.057 34.861,0.027 31.748,0.293 28.662,0.807 25.675,1.602 22.722,2.637 19.912,3.947 17.189,5.484 
								14.646,7.258 12.257,9.252 10.044,11.406 8.041,13.777 6.275,16.324 4.718,19.02 3.41,21.797 2.367,24.742 1.56,27.701 
															"/>
							<polygon fill="#0C1821" points="0.761,33.832 0.791,36.945 1.082,40.029 1.654,43.047 2.498,46.035 3.601,48.939 
								4.935,51.713 4.927,51.723 3.591,48.949 2.49,46.045 1.646,43.047 1.074,40.029 0.783,36.945 0.751,33.832 1.017,30.748 
								1.533,27.691 2.337,24.73 3.382,21.789 4.701,19.008 6.257,16.314 8.021,13.76 10.023,11.377 12.238,9.225 14.628,7.23 
								17.171,5.455 19.894,3.918 22.703,2.607 25.675,1.574 28.662,0.777 31.748,0.266 34.861,0 37.974,0.027 41.087,0.33 
								44.162,0.891 47.16,1.717 50.093,2.816 52.892,4.182 52.882,4.193 50.083,2.836 47.152,1.727 44.162,0.9 41.087,0.338 
								37.974,0.045 34.861,0.01 31.748,0.285 28.662,0.795 25.675,1.592 22.712,2.619 19.904,3.938 17.179,5.465 14.638,7.248 
								12.246,9.242 10.033,11.396 8.033,13.77 6.265,16.324 4.708,19.008 3.392,21.797 2.347,24.742 1.541,27.701 1.029,30.758 
															"/>
						</g>
					</g>
				</g>
			</g>
		</g>
		<g>
			<path fill="#0C1821" d="M0,99.84V87.461h2.792c0.736,0,1.402,0.193,1.992,0.58c0.51,0.332,0.869,0.84,1.088,1.531
				c0.117,0.369,0.174,0.807,0.174,1.314c0,0.828-0.217,1.494-0.658,1.992c-0.186,0.211-0.402,0.371-0.652,0.486
				c0.414,0.156,0.768,0.469,1.057,0.938c0.191,0.314,0.332,0.723,0.426,1.223c0.047,0.26,0.066,0.543,0.066,0.859
				c0,0.783-0.146,1.447-0.443,1.992c-0.232,0.432-0.553,0.771-0.977,1.029C4.39,99.693,3.921,99.84,3.453,99.84H0z M2.011,92.516
				h0.781c0.58,0,0.969-0.285,1.162-0.85c0.076-0.209,0.109-0.471,0.109-0.779c0-0.512-0.125-0.902-0.373-1.164
				c-0.229-0.246-0.529-0.367-0.898-0.367H2.011V92.516z M2.011,97.994h0.781c0.631,0,1.068-0.324,1.313-0.977
				c0.086-0.225,0.127-0.48,0.127-0.77c0-0.691-0.129-1.195-0.395-1.512c-0.236-0.287-0.586-0.434-1.045-0.434H2.011V97.994z"/>
			<rect x="7.908" y="87.469" fill="#0C1821" width="1.863" height="12.371"/>
			<polygon fill="#0C1821" points="13.257,89.346 11.271,89.346 11.271,87.469 17.095,87.469 17.095,89.346 15.123,89.346 
				15.123,99.84 13.257,99.84 			"/>
			<polygon fill="#0C1821" points="28.593,99.84 23.513,99.84 23.513,87.469 25.378,87.469 25.378,97.984 28.593,97.984 			"/>
			<polygon fill="#0C1821" points="29.88,99.84 29.88,87.461 35.191,87.461 35.191,89.336 31.744,89.336 31.744,92.713 
				34.263,92.713 34.263,94.586 31.744,94.586 31.744,97.963 35.191,97.963 35.191,99.84 			"/>
			<path fill="#0C1821" d="M39.435,100c-0.824,0-1.521-0.293-2.098-0.871c-0.576-0.58-0.863-1.271-0.863-2.08v-6.756
				c0-0.824,0.287-1.521,0.867-2.098c0.582-0.574,1.275-0.865,2.094-0.865c0.822,0,1.52,0.293,2.094,0.871s0.857,1.279,0.857,2.092
				v1.412h-1.934v-1.451c0-0.295-0.107-0.549-0.316-0.758c-0.211-0.211-0.463-0.32-0.76-0.32c-0.299,0-0.549,0.109-0.756,0.32
				c-0.205,0.209-0.311,0.463-0.311,0.758v6.771c0,0.299,0.105,0.549,0.311,0.758c0.207,0.205,0.457,0.309,0.756,0.309
				c0.297,0,0.549-0.102,0.76-0.309c0.209-0.207,0.316-0.457,0.316-0.754v-2.434h-1.037v-1.871h2.971v4.324
				c0,0.818-0.289,1.516-0.869,2.09C40.939,99.715,40.242,100,39.435,100"/>
			<polygon fill="#0C1821" points="44.005,99.84 44.005,87.461 49.318,87.461 49.318,89.336 45.869,89.336 45.869,92.713 
				48.388,92.713 48.388,94.586 45.869,94.586 45.869,97.963 49.318,97.963 49.318,99.84 			"/>
			<polygon fill="#0C1821" points="52.695,87.461 55.171,95.781 55.171,87.461 57.039,87.461 57.039,99.84 55.033,99.84 
				52.466,91.914 52.466,99.84 50.599,99.84 50.599,87.461 			"/>
			<path fill="#0C1821" d="M64.566,96.879c0,0.816-0.283,1.512-0.855,2.094c-0.572,0.576-1.266,0.867-2.072,0.867h-2.932V87.461
				h2.932c0.814,0,1.508,0.289,2.074,0.869c0.57,0.578,0.854,1.273,0.854,2.084V96.879z M60.57,97.994h1.127
				c0.295,0,0.547-0.109,0.748-0.32c0.203-0.217,0.309-0.467,0.309-0.758v-6.475c0-0.295-0.105-0.547-0.313-0.76
				c-0.207-0.211-0.457-0.314-0.744-0.314H60.57V97.994z"/>
			<path fill="#0C1821" d="M72.269,96.76c0.012,0.861-0.213,1.6-0.674,2.213c-0.301,0.414-0.727,0.707-1.279,0.879
				c-0.299,0.09-0.646,0.137-1.039,0.137c-0.73,0-1.336-0.184-1.816-0.543c-0.4-0.297-0.719-0.699-0.953-1.209
				c-0.232-0.51-0.369-1.094-0.41-1.754l1.777-0.129c0.08,0.723,0.27,1.248,0.574,1.566c0.223,0.248,0.479,0.363,0.77,0.35
				c0.404-0.012,0.732-0.213,0.975-0.602c0.129-0.191,0.191-0.465,0.191-0.818c0-0.514-0.238-1.025-0.703-1.533
				c-0.369-0.35-0.92-0.875-1.658-1.572c-0.619-0.596-1.057-1.137-1.314-1.607c-0.275-0.537-0.414-1.115-0.414-1.74
				c0-1.125,0.379-1.98,1.135-2.559c0.467-0.35,1.049-0.525,1.74-0.525c0.664,0,1.232,0.148,1.707,0.443
				c0.367,0.234,0.664,0.555,0.893,0.969c0.227,0.416,0.363,0.891,0.41,1.432l-1.787,0.326c-0.053-0.508-0.199-0.902-0.438-1.186
				c-0.166-0.203-0.412-0.307-0.736-0.307c-0.344,0-0.604,0.154-0.781,0.453c-0.145,0.246-0.217,0.549-0.217,0.91
				c0,0.566,0.242,1.139,0.732,1.727c0.182,0.223,0.459,0.488,0.83,0.789c0.432,0.363,0.719,0.617,0.855,0.762
				c0.463,0.461,0.818,0.916,1.066,1.363c0.119,0.209,0.215,0.406,0.287,0.582C72.169,96.018,72.261,96.412,72.269,96.76"/>
		</g>
	</g>
</g>
</svg>
